(module "USB_C_Receptacle_Molex_2047110001" (layer F.Cu) (tedit 5E2ED021)
  (fp_text reference "REF**" (at 0 -3.25 unlocked) (layer F.SilkS)
    (effects (font (size 1 1) (thickness 0.15)))
  )
  (fp_text value "USB_C_Receptacle_Molex_2047110001" (at 0 1.5 unlocked) (layer F.Fab)
    (effects (font (size 0.25 0.25) (thickness 0.05)))
  )
  (pad "S1" thru_hole oval (at -3.1 -2.15) (size 1.4 1) (drill oval 1 0.6) (layers *.Cu *.Mask))
  (pad "S1" thru_hole oval (at 3.1 2.15) (size 1.4 1) (drill oval 1 0.6) (layers *.Cu *.Mask))
  (pad "S1" thru_hole oval (at 3.1 -2.15) (size 1.4 1) (drill oval 1 0.6) (layers *.Cu *.Mask))
  (pad "S1" thru_hole oval (at -3.1 2.15) (size 1.4 1) (drill oval 1 0.6) (layers *.Cu *.Mask))
  (pad "S1" thru_hole oval (at -3.75 0) (size 1.15 0.75) (drill oval 0.75 0.35) (layers *.Cu *.Mask))
  (pad "S1" thru_hole oval (at 3.75 0) (size 1.15 0.75) (drill oval 0.75 0.35) (layers *.Cu *.Mask))
  (pad "A1" smd roundrect (at -2.75 -0.755) (size 0.3 0.95) (layers "F.Cu" "F.Paste" "F.Mask") (roundrect_rratio 0.167))
  (pad "A2" smd roundrect (at -2.25 -0.755) (size 0.3 0.95) (layers "F.Cu" "F.Paste" "F.Mask") (roundrect_rratio 0.167))
  (pad "A3" smd roundrect (at -1.75 -0.755) (size 0.3 0.95) (layers "F.Cu" "F.Paste" "F.Mask") (roundrect_rratio 0.167))
  (pad "A4" smd roundrect (at -1.25 -0.755) (size 0.3 0.95) (layers "F.Cu" "F.Paste" "F.Mask") (roundrect_rratio 0.167))
  (pad "A5" smd roundrect (at -0.75 -0.755) (size 0.3 0.95) (layers "F.Cu" "F.Paste" "F.Mask") (roundrect_rratio 0.167))
  (pad "A6" smd roundrect (at -0.25 -0.755) (size 0.3 0.95) (layers "F.Cu" "F.Paste" "F.Mask") (roundrect_rratio 0.167))
  (pad "A7" smd roundrect (at 0.25 -0.755) (size 0.3 0.95) (layers "F.Cu" "F.Paste" "F.Mask") (roundrect_rratio 0.167))
  (pad "A8" smd roundrect (at 0.75 -0.755) (size 0.3 0.95) (layers "F.Cu" "F.Paste" "F.Mask") (roundrect_rratio 0.167))
  (pad "A9" smd roundrect (at 1.25 -0.755) (size 0.3 0.95) (layers "F.Cu" "F.Paste" "F.Mask") (roundrect_rratio 0.167))
  (pad "A10" smd roundrect (at 1.75 -0.755) (size 0.3 0.95) (layers "F.Cu" "F.Paste" "F.Mask") (roundrect_rratio 0.167))
  (pad "A11" smd roundrect (at 2.25 -0.755) (size 0.3 0.95) (layers "F.Cu" "F.Paste" "F.Mask") (roundrect_rratio 0.167))
  (pad "A12" smd roundrect (at 2.75 -0.755) (size 0.3 0.95) (layers "F.Cu" "F.Paste" "F.Mask") (roundrect_rratio 0.167))
  (pad "B1" smd roundrect (at 2.75 0.755) (size 0.3 0.95) (layers "F.Cu" "F.Paste" "F.Mask") (roundrect_rratio 0.167))
  (pad "B2" smd roundrect (at 2.25 0.755) (size 0.3 0.95) (layers "F.Cu" "F.Paste" "F.Mask") (roundrect_rratio 0.167))
  (pad "B3" smd roundrect (at 1.75 0.755) (size 0.3 0.95) (layers "F.Cu" "F.Paste" "F.Mask") (roundrect_rratio 0.167))
  (pad "B4" smd roundrect (at 1.25 0.755) (size 0.3 0.95) (layers "F.Cu" "F.Paste" "F.Mask") (roundrect_rratio 0.167))
  (pad "B5" smd roundrect (at 0.75 0.755) (size 0.3 0.95) (layers "F.Cu" "F.Paste" "F.Mask") (roundrect_rratio 0.167))
  (pad "B6" smd roundrect (at 0.25 0.755) (size 0.3 0.95) (layers "F.Cu" "F.Paste" "F.Mask") (roundrect_rratio 0.167))
  (pad "B7" smd roundrect (at -0.25 0.755) (size 0.3 0.95) (layers "F.Cu" "F.Paste" "F.Mask") (roundrect_rratio 0.167))
  (pad "B8" smd roundrect (at -0.75 0.755) (size 0.3 0.95) (layers "F.Cu" "F.Paste" "F.Mask") (roundrect_rratio 0.167))
  (pad "B9" smd roundrect (at -1.25 0.755) (size 0.3 0.95) (layers "F.Cu" "F.Paste" "F.Mask") (roundrect_rratio 0.167))
  (pad "B10" smd roundrect (at -1.75 0.755) (size 0.3 0.95) (layers "F.Cu" "F.Paste" "F.Mask") (roundrect_rratio 0.167))
  (pad "B11" smd roundrect (at -2.25 0.755) (size 0.3 0.95) (layers "F.Cu" "F.Paste" "F.Mask") (roundrect_rratio 0.167))
  (pad "B12" smd roundrect (at -2.75 0.755) (size 0.3 0.95) (layers "F.Cu" "F.Paste" "F.Mask") (roundrect_rratio 0.167))
  (model "${KICAD6_3DMODEL_DIR}/Connector_USB.3dshapes/USB_C_Receptacle_Molex_2047110001.stp"
    (offset (xyz 0 0 3.81))
    (scale (xyz 1 1 1))
    (rotate (xyz 0 0 0))
  )
)
