(footprint "2520_C" (version 20210108) (generator pcbnew) (layer "F.Cu")
  (tedit 5FFDA356)
  (property "MPN" "GCDA252012P-2R2MC")
  (property "Sheet file" "ESC12S30.kicad_sch")
  (property "Sheet name" "")
  (property "USD_per_1" "0,26")
  (property "USD_per_1000" "0,09150")
  (solder_mask_margin 0.025)
  (solder_paste_margin -0.001)
  (attr smd)
  (fp_text reference "L2" (at 1.5 0 unlocked) (layer "F.SilkS")
    (effects (font (size 0.8 0.8) (thickness 0.15)) (justify left))
    (tstamp 53774315-8f4a-4267-b0a0-2ced83659e45)
  )
  (fp_text value "2.2uH" (at 0 -0.55 -180) (layer "Cmts.User")
    (effects (font (size 0.2 0.2) (thickness 0.05)))
    (tstamp f72da6f7-928a-4a47-ac36-ad6e1f77dbf5)
  )
  (fp_line (start -0.3 0) (end -0.4 0) (layer "F.SilkS") (width 0.127) (tstamp 64badffb-56c5-42de-9186-93185ee3bc61))
  (fp_line (start 0.3 0) (end 0.4 0) (layer "F.SilkS") (width 0.127) (tstamp d8728db6-da9a-4f6d-9d44-f24630a1beca))
  (fp_rect (start -0.55 1.175) (end 0.55 1.025) (layer "F.SilkS") (width 0) (fill solid) (tstamp 0e4d63bd-d74e-4f7b-899d-06727452ee3e))
  (fp_rect (start -0.55 -1.025) (end 0.55 -1.175) (layer "F.SilkS") (width 0) (fill solid) (tstamp f04fe6b6-61b3-4891-9797-cf6ffbddcffc))
  (fp_arc (start 0 0) (end -0.1 0) (angle 180) (layer "F.SilkS") (width 0.127) (tstamp 239aef03-2c02-4d46-ae57-657a0175a3f1))
  (fp_arc (start 0.2 0) (end 0.1 0) (angle 180) (layer "F.SilkS") (width 0.127) (tstamp 9919eb27-8dd1-45a0-91a7-b528621ad0d6))
  (fp_arc (start -0.2 0) (end -0.3 0) (angle 180) (layer "F.SilkS") (width 0.127) (tstamp a4cb8f83-0bb7-485b-8546-63e97caa1d0a))
  (fp_line (start 1.375 1.1) (end -1.375 1.1) (layer "F.CrtYd") (width 0.05) (tstamp 07949287-51ea-4a8c-8ecf-560a01999a82))
  (fp_line (start 1.5 -0.975) (end 1.5 0.975) (layer "F.CrtYd") (width 0.05) (tstamp 47edb3d7-1234-4e55-aa6d-4af67f7ba052))
  (fp_line (start -1.5 0.975) (end -1.5 -0.975) (layer "F.CrtYd") (width 0.05) (tstamp 837118b2-d036-4308-8d9a-5a15df770dcc))
  (fp_line (start -1.375 -1.1) (end 1.375 -1.1) (layer "F.CrtYd") (width 0.05) (tstamp 8c2007ef-fd91-46ad-9201-573a1b62f2af))
  (fp_arc (start 1.375 0.975) (end 1.375 1.1) (angle -90) (layer "F.CrtYd") (width 0.05) (tstamp 31a59859-d6a3-449b-a513-c779a1b4db56))
  (fp_arc (start -1.375 -0.975) (end -1.375 -1.1) (angle -90) (layer "F.CrtYd") (width 0.05) (tstamp 53c22fd5-29f2-4cab-beed-fb50d19afc55))
  (fp_arc (start -1.375 0.975) (end -1.375 1.1) (angle 90) (layer "F.CrtYd") (width 0.05) (tstamp a61eecf2-d701-405d-a22a-e5d9440a31f0))
  (fp_arc (start 1.375 -0.975) (end 1.5 -0.975) (angle -90) (layer "F.CrtYd") (width 0.05) (tstamp a79120f8-2730-4c83-aa17-ae8b2be11d17))
  (fp_line (start 1.25 1) (end -1.25 1) (layer "F.Fab") (width 0.05) (tstamp 4215057b-086a-4622-aeb6-37f3fbd6a576))
  (fp_line (start -1.25 -1) (end 1.25 -1) (layer "F.Fab") (width 0.05) (tstamp 63aced64-9e11-4735-91e0-1ea84e8dabdd))
  (fp_line (start -1.25 1) (end -1.25 -1) (layer "F.Fab") (width 0.05) (tstamp 77ed89cd-eab1-4b0a-ad9d-49265cd04c3c))
  (fp_line (start 1.25 -1) (end 1.25 1) (layer "F.Fab") (width 0.05) (tstamp bde670b5-0adb-427e-8c77-04ee7e9e845d))
  (pad "1" smd roundrect (at -1.025 0) (locked) (size 0.75 2) (layers "F.Cu" "F.Mask") (roundrect_rratio 0.05)
    (zone_connect 2) (tstamp 284b9807-56a1-422b-8943-6ec9d4115b76))
  (pad "2" smd roundrect (at 1.025 0) (locked) (size 0.75 2) (layers "F.Cu" "F.Mask") (roundrect_rratio 0.05)
    (zone_connect 2) (tstamp 93465148-30d5-4d21-876c-3371a2e0a89f))
  (pad "3" smd oval (at -1.025 0) (locked) (size 0.75 1.8) (layers "F.Paste") (tstamp 6afd47a3-8f4b-4611-b192-54cc0f48a818))
  (pad "4" smd oval (at 1.025 0) (locked) (size 0.75 1.8) (layers "F.Paste") (tstamp 0f8cba3d-1c00-46e1-b965-6f1acf288050))
  (model "${KICAD6_3DMODEL_DIR}/Inductor_SMD.3dshapes/L_1008_2520Metric.wrl"
    (offset (xyz 0 0 0))
    (scale (xyz 1 1 1))
    (rotate (xyz 0 0 0))
  )
)
