(module Bourns_SRU1048 (layer F.Cu) (tedit 555DF25B)
  (fp_text reference REF** (at 0 -5.5) (layer F.SilkS)
    (effects (font (size 0.6 0.6) (thickness 0.125)))
  )
  (fp_text value Bourns_SRU1048 (at 0 -2.5 180) (layer F.Fab)
    (effects (font (size 0.6 0.6) (thickness 0.125)))
  )
  (fp_line (start 5 2.5) (end 2.5 5) (layer F.SilkS) (width 0.125))
  (fp_line (start -5 2.5) (end -2.5 5) (layer F.SilkS) (width 0.125))
  (fp_line (start 2.5 -5) (end 5 -2.5) (layer F.SilkS) (width 0.125))
  (fp_line (start -5 -2.5) (end -2.5 -5) (layer F.SilkS) (width 0.125))
  (fp_line (start -5.5 -2.5) (end -5.5 2.5) (layer F.CrtYd) (width 0.05))
  (fp_line (start -5.5 2.5) (end -2.5 5.5) (layer F.CrtYd) (width 0.05))
  (fp_line (start -2.5 5.5) (end 2.5 5.5) (layer F.CrtYd) (width 0.05))
  (fp_line (start 2.5 5.5) (end 5.5 2.5) (layer F.CrtYd) (width 0.05))
  (fp_line (start 5.5 2.5) (end 5.5 -2.5) (layer F.CrtYd) (width 0.05))
  (fp_line (start 5.5 -2.5) (end 2.5 -5.5) (layer F.CrtYd) (width 0.05))
  (fp_line (start 2.5 -5.5) (end -2.5 -5.5) (layer F.CrtYd) (width 0.05))
  (fp_line (start -2.5 -5.5) (end -5.5 -2.5) (layer F.CrtYd) (width 0.05))
  (fp_line (start -5 -2) (end -2 -5) (layer F.Fab) (width 0.05))
  (fp_line (start -2 -5) (end 2 -5) (layer F.Fab) (width 0.05))
  (fp_line (start 2 -5) (end 5 -2) (layer F.Fab) (width 0.05))
  (fp_line (start 5 -2) (end 5 2) (layer F.Fab) (width 0.05))
  (fp_line (start 5 2) (end 2 5) (layer F.Fab) (width 0.05))
  (fp_line (start 2 5) (end -2 5) (layer F.Fab) (width 0.05))
  (fp_line (start -2 5) (end -5 2) (layer F.Fab) (width 0.05))
  (fp_line (start -5 2) (end -5 -2) (layer F.Fab) (width 0.05))
  (pad 1 smd rect (at -4.5 0) (size 1.8 3.6) (layers F.Cu F.Paste F.Mask)
    (zone_connect 2))
  (pad 2 smd rect (at 4.5 0) (size 1.8 3.6) (layers F.Cu F.Paste F.Mask)
    (zone_connect 2))
)
