(module SOT-563 (layer F.Cu) (tedit 5BEAFC4E)
  (descr SOT563)
  (tags SOT-563)
  (attr smd)
  (fp_text reference U2 (at 0 -1.7) (layer F.SilkS)
    (effects (font (size 1 1) (thickness 0.15)))
  )
  (fp_text value TI_TMP112 (at 0 1.75) (layer F.Fab)
    (effects (font (size 1 1) (thickness 0.15)))
  )
  (fp_line (start 1.18 1.1) (end -1.18 1.1) (layer F.CrtYd) (width 0.05))
  (fp_line (start 1.18 1.1) (end 1.18 -1.1) (layer F.CrtYd) (width 0.05))
  (fp_line (start -1.18 -1.1) (end -1.18 1.1) (layer F.CrtYd) (width 0.05))
  (fp_line (start -1.18 -1.1) (end 1.18 -1.1) (layer F.CrtYd) (width 0.05))
  (fp_line (start 0.65 -0.85) (end -0.3 -0.85) (layer F.Fab) (width 0.1))
  (fp_line (start 0.65 0.85) (end 0.65 -0.85) (layer F.Fab) (width 0.1))
  (fp_line (start -0.65 0.85) (end 0.65 0.85) (layer F.Fab) (width 0.1))
  (fp_line (start -0.65 -0.5) (end -0.65 0.85) (layer F.Fab) (width 0.1))
  (fp_line (start -0.9 -0.9) (end 0.65 -0.9) (layer F.SilkS) (width 0.12))
  (fp_line (start 0.65 0.9) (end -0.65 0.9) (layer F.SilkS) (width 0.12))
  (fp_line (start -0.65 -0.5) (end -0.3 -0.85) (layer F.Fab) (width 0.1))
  (fp_text user %R (at -0.3 -0.85 45) (layer F.Fab)
    (effects (font (size 0.25 0.25) (thickness 0.0625)))
  )
  (pad 4 smd roundrect (at 0.7 0.5) (size 0.45 0.3) (layers F.Cu F.Paste F.Mask) (roundrect_rratio 0.25))
  (pad 2 smd roundrect (at -0.7 0) (size 0.45 0.3) (layers F.Cu F.Paste F.Mask) (roundrect_rratio 0.25))
  (pad 6 smd roundrect (at 0.7 -0.5) (size 0.45 0.3) (layers F.Cu F.Paste F.Mask) (roundrect_rratio 0.25))
  (pad 3 smd roundrect (at -0.7 0.5) (size 0.45 0.3) (layers F.Cu F.Paste F.Mask) (roundrect_rratio 0.25))
  (pad 1 smd roundrect (at -0.7 -0.5) (size 0.45 0.3) (layers F.Cu F.Paste F.Mask) (roundrect_rratio 0.25))
  (pad 5 smd roundrect (at 0.7 0) (size 0.45 0.3) (layers F.Cu F.Paste F.Mask) (roundrect_rratio 0.25))
  (model ${KICAD6_3DMODEL_DIR}/Package_TO_SOT_SMD.3dshapes/SOT-563.step
    (at (xyz 0 0 0))
    (scale (xyz 1 1 1))
    (rotate (xyz 0 0 0))
  )
)
