(footprint "JST_SH_BM12B-SRSS-TB_1x12-1MP_P1.00mm_Vertical" (version 20210424) (generator pcbnew) (layer "F.Cu")
  (tedit 60AFAC13)
  (descr "JST SH series connector, BM12B-SRSS-TB (http://www.jst-mfg.com/product/pdf/eng/eSH.pdf), generated with kicad-footprint-generator")
  (tags "connector JST SH side entry")
  (property "Sheetfile" "ESC12S30.kicad_sch")
  (property "Sheetname" "")
  (attr smd)
  (fp_text reference "J6" (at 0 -3.3) (layer "F.SilkS")
    (effects (font (size 1 1) (thickness 0.15)))
    (tstamp 403374e5-751a-4444-aa06-906be56dd68b)
  )
  (fp_text value "SENS" (at 0 3.3) (layer "F.Fab")
    (effects (font (size 1 1) (thickness 0.15)))
    (tstamp 085c49f2-262f-418b-bc3e-4ea5d75efe1c)
  )
  (fp_text user "${REFERENCE}" (at 0 -0.25) (layer "F.Fab")
    (effects (font (size 1 1) (thickness 0.15)))
    (tstamp 9c7e072f-c2b5-4f29-a7ce-22cae8b47977)
  )
  (fp_line (start 7.11 -0.04) (end 7.11 1.11) (layer "F.SilkS") (width 0.12) (tstamp 445fc3c3-28fe-4af9-bb7c-9286d78b595b))
  (fp_line (start -5.94 -2.01) (end 5.94 -2.01) (layer "F.SilkS") (width 0.12) (tstamp 45ce2145-9a52-4346-9b65-ca22be6c7acc))
  (fp_line (start -7.11 1.11) (end -6.06 1.11) (layer "F.SilkS") (width 0.12) (tstamp 5a39749c-c074-47c6-9194-daa9ecba7871))
  (fp_line (start -6.06 1.11) (end -6.06 2.1) (layer "F.SilkS") (width 0.12) (tstamp acf2a416-5544-493b-895d-c48fc244a960))
  (fp_line (start 7.11 1.11) (end 6.06 1.11) (layer "F.SilkS") (width 0.12) (tstamp fd92f620-1604-4568-970d-df492e050ea8))
  (fp_line (start -7.11 -0.04) (end -7.11 1.11) (layer "F.SilkS") (width 0.12) (tstamp ff8e4575-70f8-41b7-958d-1f2a54496305))
  (fp_line (start 7.9 -2.6) (end -7.9 -2.6) (layer "F.CrtYd") (width 0.05) (tstamp 322716bb-1443-41b5-b6ab-67335304e50f))
  (fp_line (start 7.9 2.6) (end 7.9 -2.6) (layer "F.CrtYd") (width 0.05) (tstamp 457242ac-9c7e-45df-b1f6-daa8ea6cc4ee))
  (fp_line (start -7.9 2.6) (end 7.9 2.6) (layer "F.CrtYd") (width 0.05) (tstamp 64c4bd43-65fa-41ad-9f43-44e170284053))
  (fp_line (start -7.9 -2.6) (end -7.9 2.6) (layer "F.CrtYd") (width 0.05) (tstamp 9c4460f7-70b1-4df8-94b1-1de9e4b75936))
  (fp_line (start -7 1) (end 7 1) (layer "F.Fab") (width 0.1) (tstamp 024dca0b-8629-4605-a4d1-a723ab7e1f60))
  (fp_line (start -4.65 -0.95) (end -4.35 -0.95) (layer "F.Fab") (width 0.1) (tstamp 02b3f4f1-e201-4023-8169-f1663c3115aa))
  (fp_line (start 4.65 -1.55) (end 4.35 -1.55) (layer "F.Fab") (width 0.1) (tstamp 07286383-04b7-455c-8c1f-6d651f856563))
  (fp_line (start -0.65 -1.55) (end -0.65 -0.95) (layer "F.Fab") (width 0.1) (tstamp 0d90ea51-9993-426b-9f5e-edb0d430609c))
  (fp_line (start 0.35 -0.95) (end 0.65 -0.95) (layer "F.Fab") (width 0.1) (tstamp 0e295bdb-5347-4748-a8f9-6aade6e019a5))
  (fp_line (start -4.35 -1.55) (end -4.65 -1.55) (layer "F.Fab") (width 0.1) (tstamp 111513e7-0e5e-4264-9b88-23b0427e841e))
  (fp_line (start -3.65 -1.55) (end -3.65 -0.95) (layer "F.Fab") (width 0.1) (tstamp 12298d07-7f14-47da-8025-8a1a2a1fb66d))
  (fp_line (start 3.65 -1.55) (end 3.35 -1.55) (layer "F.Fab") (width 0.1) (tstamp 180ada80-1f7b-41aa-b2eb-beee677f5676))
  (fp_line (start 4.65 -0.95) (end 4.65 -1.55) (layer "F.Fab") (width 0.1) (tstamp 189ca584-ca8f-40e6-bcb5-0173fc830164))
  (fp_line (start 3.65 -0.95) (end 3.65 -1.55) (layer "F.Fab") (width 0.1) (tstamp 1b8e36e9-a611-4ac3-80db-09309d58c26b))
  (fp_line (start -1.35 -0.95) (end -1.35 -1.55) (layer "F.Fab") (width 0.1) (tstamp 1d3871a6-7897-4907-a4db-1eac586c8804))
  (fp_line (start -5.65 -0.95) (end -5.35 -0.95) (layer "F.Fab") (width 0.1) (tstamp 23d835b4-fb2d-4d49-b253-e51f47435ac7))
  (fp_line (start -1.65 -0.95) (end -1.35 -0.95) (layer "F.Fab") (width 0.1) (tstamp 27cc6f3f-dd2a-4381-8e79-a4c2af951b7b))
  (fp_line (start -0.35 -0.95) (end -0.35 -1.55) (layer "F.Fab") (width 0.1) (tstamp 28a04969-cddd-4874-92fd-0cb872eb8dc0))
  (fp_line (start -2.35 -1.55) (end -2.65 -1.55) (layer "F.Fab") (width 0.1) (tstamp 2bcd3f63-deed-4fc9-b0b4-24573579b41f))
  (fp_line (start -4.35 -0.95) (end -4.35 -1.55) (layer "F.Fab") (width 0.1) (tstamp 32075522-f6ee-492a-889c-0e044d424f92))
  (fp_line (start -4.65 -1.55) (end -4.65 -0.95) (layer "F.Fab") (width 0.1) (tstamp 3589aa6d-5c8c-49cf-9771-c823c3debb27))
  (fp_line (start -2.65 -0.95) (end -2.35 -0.95) (layer "F.Fab") (width 0.1) (tstamp 3891cec0-7157-4c2f-b387-fa6896071825))
  (fp_line (start 1.65 -1.55) (end 1.35 -1.55) (layer "F.Fab") (width 0.1) (tstamp 5f24b58b-d368-4880-ab49-8001b6d1175b))
  (fp_line (start -0.35 -1.55) (end -0.65 -1.55) (layer "F.Fab") (width 0.1) (tstamp 6750a32f-fc5f-4b70-a107-dfc366a6f7c6))
  (fp_line (start 2.35 -0.95) (end 2.65 -0.95) (layer "F.Fab") (width 0.1) (tstamp 6a3260d2-202b-4178-9c5c-3b6cb9375e56))
  (fp_line (start 0.35 -1.55) (end 0.35 -0.95) (layer "F.Fab") (width 0.1) (tstamp 6ba3410b-8be8-4d59-84d7-5d57f97cd890))
  (fp_line (start 5.35 -1.55) (end 5.35 -0.95) (layer "F.Fab") (width 0.1) (tstamp 6c61a4cd-773b-45f5-9ae7-78a31e1042be))
  (fp_line (start -3.35 -1.55) (end -3.65 -1.55) (layer "F.Fab") (width 0.1) (tstamp 70c916d5-3662-443b-99da-3928910b8b6a))
  (fp_line (start 3.35 -1.55) (end 3.35 -0.95) (layer "F.Fab") (width 0.1) (tstamp 7242d67a-753e-4cb3-87f2-7e1c97bf7aae))
  (fp_line (start 4.35 -1.55) (end 4.35 -0.95) (layer "F.Fab") (width 0.1) (tstamp 75120bdf-698a-4d72-b512-630cc67bc5b2))
  (fp_line (start -3.65 -0.95) (end -3.35 -0.95) (layer "F.Fab") (width 0.1) (tstamp 77b96822-e811-491e-90c4-ee4b86435ecd))
  (fp_line (start -0.65 -0.95) (end -0.35 -0.95) (layer "F.Fab") (width 0.1) (tstamp 8f093b8f-7a89-4208-8ae1-320bd8a21367))
  (fp_line (start 3.35 -0.95) (end 3.65 -0.95) (layer "F.Fab") (width 0.1) (tstamp 8f22febb-30ec-4132-872b-9be259234491))
  (fp_line (start 4.35 -0.95) (end 4.65 -0.95) (layer "F.Fab") (width 0.1) (tstamp 9011d66c-0e57-4e78-b9c3-72155369e1fc))
  (fp_line (start -2.35 -0.95) (end -2.35 -1.55) (layer "F.Fab") (width 0.1) (tstamp 909bc6f5-45e8-42ac-9cce-7e7ad5d078ca))
  (fp_line (start -1.35 -1.55) (end -1.65 -1.55) (layer "F.Fab") (width 0.1) (tstamp 95628350-885d-4f5a-8140-581a2400ac8b))
  (fp_line (start 5.35 -0.95) (end 5.65 -0.95) (layer "F.Fab") (width 0.1) (tstamp 95d661f9-3709-4c27-9303-d388380ac693))
  (fp_line (start 1.35 -1.55) (end 1.35 -0.95) (layer "F.Fab") (width 0.1) (tstamp 973d4628-755c-4cb4-b46d-0d43b4458e99))
  (fp_line (start -5.5 0.292893) (end -5 1) (layer "F.Fab") (width 0.1) (tstamp 9855854f-b9b1-417f-9cbe-b721ba2eaced))
  (fp_line (start 2.65 -1.55) (end 2.35 -1.55) (layer "F.Fab") (width 0.1) (tstamp b006afef-da17-4f5b-9382-3c38b91c08aa))
  (fp_line (start -1.65 -1.55) (end -1.65 -0.95) (layer "F.Fab") (width 0.1) (tstamp b307a646-7790-4d35-8e70-f7c31f7c054a))
  (fp_line (start -5.35 -1.55) (end -5.65 -1.55) (layer "F.Fab") (width 0.1) (tstamp b88db9b7-aada-4ddf-b03f-a805e538ed6c))
  (fp_line (start -6 1) (end -5.5 0.292893) (layer "F.Fab") (width 0.1) (tstamp bb65b15c-bd88-4425-a20d-a98141b2bd14))
  (fp_line (start -7 1) (end -7 -1.9) (layer "F.Fab") (width 0.1) (tstamp be4286cc-8fdc-4aaa-8b60-d4260587d342))
  (fp_line (start 0.65 -1.55) (end 0.35 -1.55) (layer "F.Fab") (width 0.1) (tstamp c07bf6d4-794c-4a04-ac58-152d55f01ffd))
  (fp_line (start -2.65 -1.55) (end -2.65 -0.95) (layer "F.Fab") (width 0.1) (tstamp c44d2571-59ff-48f0-acf0-0e090a3e1f5f))
  (fp_line (start -7 -1.9) (end 7 -1.9) (layer "F.Fab") (width 0.1) (tstamp c495b5c8-4a0d-4b29-9f9e-5d71de345c67))
  (fp_line (start 5.65 -1.55) (end 5.35 -1.55) (layer "F.Fab") (width 0.1) (tstamp c7f60b65-19dd-472c-8aa2-fa5bb046aff8))
  (fp_line (start -3.35 -0.95) (end -3.35 -1.55) (layer "F.Fab") (width 0.1) (tstamp d3775c51-6ecf-4f30-bf30-f9482713a0b1))
  (fp_line (start 0.65 -0.95) (end 0.65 -1.55) (layer "F.Fab") (width 0.1) (tstamp d589ff92-bd25-4d98-8d90-39d7ef911811))
  (fp_line (start 7 1) (end 7 -1.9) (layer "F.Fab") (width 0.1) (tstamp e319237b-50c2-410f-b8d1-039319f27e01))
  (fp_line (start -5.65 -1.55) (end -5.65 -0.95) (layer "F.Fab") (width 0.1) (tstamp e4ae3f12-83c1-43f6-88f4-4c83ccbc4add))
  (fp_line (start -5.35 -0.95) (end -5.35 -1.55) (layer "F.Fab") (width 0.1) (tstamp eb0d5cee-409a-48ed-ae6d-72c54f5e3be2))
  (fp_line (start 2.65 -0.95) (end 2.65 -1.55) (layer "F.Fab") (width 0.1) (tstamp f1a514f2-c89c-472d-b092-46ae1f421735))
  (fp_line (start 5.65 -0.95) (end 5.65 -1.55) (layer "F.Fab") (width 0.1) (tstamp f5bddfed-0e13-4815-a482-0925775693a6))
  (fp_line (start 1.65 -0.95) (end 1.65 -1.55) (layer "F.Fab") (width 0.1) (tstamp f7b37c82-fcb2-49a8-a25e-b0024a8a8354))
  (fp_line (start 2.35 -1.55) (end 2.35 -0.95) (layer "F.Fab") (width 0.1) (tstamp f86ab899-bdc1-4ea2-8fb7-6d62ce4c5210))
  (fp_line (start 1.35 -0.95) (end 1.65 -0.95) (layer "F.Fab") (width 0.1) (tstamp f8d14146-5c17-446e-addc-c571e5ad35f9))
  (pad "1" smd roundrect (at -5.5 1.325) (size 0.6 1.55) (layers "F.Cu" "F.Paste" "F.Mask") (roundrect_rratio 0.25) (tstamp 8d4c0bcf-6b6b-4dcf-8baa-d66ee4dea7ef))
  (pad "2" smd roundrect (at -4.5 1.325) (size 0.6 1.55) (layers "F.Cu" "F.Paste" "F.Mask") (roundrect_rratio 0.25) (tstamp 1f204941-3fa5-4e2d-863d-7c578a561da1))
  (pad "3" smd roundrect (at -3.5 1.325) (size 0.6 1.55) (layers "F.Cu" "F.Paste" "F.Mask") (roundrect_rratio 0.25) (tstamp 7f76f572-d82f-41eb-b85c-d205fba822b1))
  (pad "4" smd roundrect (at -2.5 1.325) (size 0.6 1.55) (layers "F.Cu" "F.Paste" "F.Mask") (roundrect_rratio 0.25) (tstamp ec89456d-8255-4927-b186-dd664be46228))
  (pad "5" smd roundrect (at -1.5 1.325) (size 0.6 1.55) (layers "F.Cu" "F.Paste" "F.Mask") (roundrect_rratio 0.25) (tstamp 6a3ef92d-fb29-441c-b899-04bcd1eec8ab))
  (pad "6" smd roundrect (at -0.5 1.325) (size 0.6 1.55) (layers "F.Cu" "F.Paste" "F.Mask") (roundrect_rratio 0.25) (tstamp dc00d53c-bfa2-4644-8573-f7cf383f994f))
  (pad "7" smd roundrect (at 0.5 1.325) (size 0.6 1.55) (layers "F.Cu" "F.Paste" "F.Mask") (roundrect_rratio 0.25) (tstamp 42ee3b67-a635-4d94-8cc3-48d3de0330bd))
  (pad "8" smd roundrect (at 1.5 1.325) (size 0.6 1.55) (layers "F.Cu" "F.Paste" "F.Mask") (roundrect_rratio 0.25) (tstamp 31d0b1ed-b377-4872-8e38-7408f189c1c5))
  (pad "9" smd roundrect (at 2.5 1.325) (size 0.6 1.55) (layers "F.Cu" "F.Paste" "F.Mask") (roundrect_rratio 0.25) (tstamp 9e291ee8-ae53-4ff1-a4f5-87b04d4e804e))
  (pad "10" smd roundrect (at 3.5 1.325) (size 0.6 1.55) (layers "F.Cu" "F.Paste" "F.Mask") (roundrect_rratio 0.25) (tstamp 15d13af3-f023-499f-96c7-fd3dbffa8b0b))
  (pad "11" smd roundrect (at 4.5 1.325) (size 0.6 1.55) (layers "F.Cu" "F.Paste" "F.Mask") (roundrect_rratio 0.25) (tstamp 3f1cfde8-2a66-4f49-84f1-470a4afb6148))
  (pad "12" smd roundrect (at 5.5 1.325) (size 0.6 1.55) (layers "F.Cu" "F.Paste" "F.Mask") (roundrect_rratio 0.25) (tstamp 83d6b429-5eb0-40fd-b92d-8d9d9f73ca81))
  (pad "MP" smd roundrect (at 6.8 -1.2) (size 1.2 1.8) (layers "F.Cu" "F.Paste" "F.Mask") (roundrect_rratio 0.208333) (tstamp 66717cf9-9c3e-4f57-b59d-0f09f0a934b5))
  (pad "MP" smd roundrect (at -6.8 -1.2) (size 1.2 1.8) (layers "F.Cu" "F.Paste" "F.Mask") (roundrect_rratio 0.208333) (tstamp cd3e689a-8d1d-4414-9ff6-5bd85f4dc27d))
  (model "${KICAD6_3DMODEL_DIR}/Connector_JST.3dshapes/JST_SH_BM12B-SRSS-TB.STEP"
    (offset (xyz 0 0.45 0))
    (scale (xyz 1 1 1))
    (rotate (xyz -90 0 0))
  )
)
