(module "JST_SHD_SM40B-SRDS-G-TF_2x20_P1.0_Right_Angle" (layer "F.Cu") (tedit 5FABBD34)
  (attr through_hole)
  (fp_text reference "REF**" (at -12.4 0 90 unlocked) (layer "F.SilkS")
    (effects (font (size 0.8 0.8) (thickness 0.15)))
    (tstamp 9cd99433-a059-4e28-995b-7b05a2e66607)
  )
  (fp_text value "JST_SHD_SM40B-SRDS-G-TF_2x20_P1.0_Right_Angle" (at 0 4.3 unlocked) (layer "F.SilkS")
    (effects (font (size 0.8 0.8) (thickness 0.15)))
    (tstamp d61346fe-1f5d-4b40-b0b8-4bc4a35fc28f)
  )
  (fp_text user "${REF}" (at 0 1.15 unlocked) (layer "F.Fab")
    (effects (font (size 1 1) (thickness 0.15)))
    (tstamp f2a48675-efb8-4218-b04d-42f1c83098ef)
  )
  (fp_poly (pts (xy 9.5 -3.75)
    (xy 9.4 -3.9)
    (xy 9.6 -3.9)) (layer "F.SilkS") (width 0) (tstamp 158c4db9-c5c4-4001-bac4-f61a9e5deebb))
  (fp_poly (pts (xy -9.95 2.85)
    (xy -10.6 2.85)
    (xy -10.6 2.7)
    (xy -9.95 2.7)) (layer "F.SilkS") (width 0) (tstamp 25a4baf1-e763-4951-aa30-e7500135e298))
  (fp_poly (pts (xy 11.85 2.85)
    (xy 11.7 2.85)
    (xy 11.7 -2.7)
    (xy 9.95 -2.7)
    (xy 9.95 -2.85)
    (xy 11.85 -2.85)) (layer "F.SilkS") (width 0) (tstamp 7342b152-d4bc-4cb4-9c64-f58c716f7a49))
  (fp_poly (pts (xy -11.85 2.85)
    (xy -11.7 2.85)
    (xy -11.7 -2.7)
    (xy -9.95 -2.7)
    (xy -9.95 -2.85)
    (xy -11.85 -2.85)) (layer "F.SilkS") (width 0) (tstamp 8a4196d6-0340-45a4-a254-1f0167610b49))
  (fp_poly (pts (xy 10.6 2.85)
    (xy 9.95 2.85)
    (xy 9.95 2.7)
    (xy 10.6 2.7)) (layer "F.SilkS") (width 0) (tstamp fffdde76-36e9-4775-8b2a-4ed403da4a7f))
  (fp_line (start -9.5 4.55) (end -9.25 4.55) (layer "F.Fab") (width 0.1) (tstamp 098cb9aa-b549-44c0-a137-5411baabe65e))
  (fp_line (start -11.55 4.55) (end -11.3 4.55) (layer "F.Fab") (width 0.1) (tstamp 0bd5fa5e-644a-4f3a-b847-bb796f4991d1))
  (fp_line (start 10.25 4.55) (end 10.5 4.55) (layer "F.Fab") (width 0.1) (tstamp 0ed8e262-e217-4c5c-805f-3c53e0451db5))
  (fp_line (start 3.25 4.55) (end 3.5 4.55) (layer "F.Fab") (width 0.1) (tstamp 1db62663-50e5-4ce7-a4f4-1d45a05c7b7c))
  (fp_line (start 9.75 4.55) (end 10 4.55) (layer "F.Fab") (width 0.1) (tstamp 2088c539-23f5-456f-829f-7277e5d4ecb4))
  (fp_line (start -3 4.55) (end -2.75 4.55) (layer "F.Fab") (width 0.1) (tstamp 23f83b5d-1143-4d49-9822-06f82fa53a77))
  (fp_line (start 2.25 4.55) (end 2.5 4.55) (layer "F.Fab") (width 0.1) (tstamp 3486e92d-67da-4b3b-98f1-e13daa51d113))
  (fp_line (start -1 4.55) (end -0.75 4.55) (layer "F.Fab") (width 0.1) (tstamp 51ccc9fa-19b7-48dd-9ad2-44f7bb13d6e9))
  (fp_line (start 0.75 4.55) (end 1 4.55) (layer "F.Fab") (width 0.1) (tstamp 542fa79c-d5cd-47c1-ae03-97b65a9faa3f))
  (fp_line (start -11.55 2.8) (end -11.55 3.05) (layer "F.Fab") (width 0.1) (tstamp 648823e4-c7be-4f4b-820b-2c214456bee4))
  (fp_line (start 9.25 4.55) (end 9.5 4.55) (layer "F.Fab") (width 0.1) (tstamp 7233f3ca-8122-4bc8-bd16-073cac120b8d))
  (fp_line (start 11.55 4.3) (end 11.55 4.55) (layer "F.Fab") (width 0.1) (tstamp 748e0199-8fe7-4daf-8d96-0324511342bb))
  (fp_line (start 0.25 4.55) (end 0.5 4.55) (layer "F.Fab") (width 0.1) (tstamp 7d7ba46f-733d-427e-8ad4-2ab08c041994))
  (fp_line (start -1.5 4.55) (end -1.25 4.55) (layer "F.Fab") (width 0.1) (tstamp 7f437682-98d2-4e4f-a76a-b01984bdd1c7))
  (fp_line (start -11 4.55) (end -10.75 4.55) (layer "F.Fab") (width 0.1) (tstamp 837901f7-695d-4f74-af2c-05ba05484cfd))
  (fp_line (start 11.55 3.3) (end 11.55 3.55) (layer "F.Fab") (width 0.1) (tstamp 8c5d5053-9048-4e0c-9e2f-b1a0b2391ad7))
  (fp_line (start 1.75 4.55) (end 2 4.55) (layer "F.Fab") (width 0.1) (tstamp a1edc4af-3c2c-46ef-99d0-d1fe7f06709b))
  (fp_line (start 11.55 2.8) (end 11.55 3.05) (layer "F.Fab") (width 0.1) (tstamp a5b2bd78-6cc8-41a1-8623-6ee5a536bcf9))
  (fp_line (start -2.5 4.55) (end -2.25 4.55) (layer "F.Fab") (width 0.1) (tstamp a5cd8399-7293-49be-965b-e2090501854c))
  (fp_line (start -4 4.55) (end -3.75 4.55) (layer "F.Fab") (width 0.1) (tstamp a61e9e19-f860-45ef-8256-816440ed3ac1))
  (fp_line (start 11.55 4.55) (end 11.3 4.55) (layer "F.Fab") (width 0.1) (tstamp af8b9907-cbd0-4cf8-9a71-0f653a0cf470))
  (fp_line (start -11.55 3.3) (end -11.55 3.55) (layer "F.Fab") (width 0.1) (tstamp b95df86f-7d97-43e1-b036-7f19ed957def))
  (fp_line (start -11.55 4.3) (end -11.55 4.55) (layer "F.Fab") (width 0.1) (tstamp bd9284f6-2567-4a14-903c-5ed92e3bbf2e))
  (fp_line (start 1.25 4.55) (end 1.5 4.55) (layer "F.Fab") (width 0.1) (tstamp c10490f7-1cee-49c6-a17d-aaada2b9e0bf))
  (fp_line (start -11.55 3.8) (end -11.55 4.05) (layer "F.Fab") (width 0.1) (tstamp c4b530ab-f097-4278-aa5a-b13b3ec4e2e0))
  (fp_line (start 3.75 4.55) (end 4 4.55) (layer "F.Fab") (width 0.1) (tstamp d748bf67-c53d-414b-b6a4-6ef49c6f5a40))
  (fp_line (start -2 4.55) (end -1.75 4.55) (layer "F.Fab") (width 0.1) (tstamp e1afd551-76bf-40c8-a9a1-82be8188a4c8))
  (fp_line (start -10 4.55) (end -9.75 4.55) (layer "F.Fab") (width 0.1) (tstamp e2722500-4100-4239-9aac-c73be23dd0ce))
  (fp_line (start -10.5 4.55) (end -10.25 4.55) (layer "F.Fab") (width 0.1) (tstamp e3ed85af-4338-4772-b8d6-72eafeb20fee))
  (fp_line (start -0.5 4.55) (end -0.25 4.55) (layer "F.Fab") (width 0.1) (tstamp e8201d8e-c6d7-4cc3-a73f-3b0baa87a0ee))
  (fp_line (start -3.5 4.55) (end -3.25 4.55) (layer "F.Fab") (width 0.1) (tstamp f171abbc-be6b-471b-bc6e-29d8b1deabbf))
  (fp_line (start 2.75 4.55) (end 3 4.55) (layer "F.Fab") (width 0.1) (tstamp f31e351b-d0de-442b-b257-81371134f87e))
  (fp_line (start 11.55 3.8) (end 11.55 4.05) (layer "F.Fab") (width 0.1) (tstamp f55a49ef-991a-413b-9484-06267ecfee06))
  (fp_line (start 10.75 4.55) (end 11 4.55) (layer "F.Fab") (width 0.1) (tstamp f69b8a74-2a7b-4554-86d9-b59823239c1e))
  (fp_rect (start -11.55 2.55) (end 11.55 -2.55) (layer "F.Fab") (width 0.1) (tstamp fe51d55a-0be2-466c-9885-6bf2aa72cb88))
  (pad "1" smd roundrect (at 9.5 -2.85) (size 0.6 1.6) (layers "F.Cu" "F.Paste" "F.Mask") (roundrect_rratio 0.333) (tstamp faf3e6e1-a408-423f-a091-d920e0047853))
  (pad "2" smd roundrect (at 9.5 2.85) (size 0.6 1.6) (layers "F.Cu" "F.Paste" "F.Mask") (roundrect_rratio 0.333) (tstamp 89da9b22-bae5-4f27-881f-bcbc6277ede4))
  (pad "3" smd roundrect (at 8.5 -2.85) (size 0.6 1.6) (layers "F.Cu" "F.Paste" "F.Mask") (roundrect_rratio 0.333) (tstamp 81db208e-5924-40e1-95d1-16156ee1453d))
  (pad "4" smd roundrect (at 8.5 2.85) (size 0.6 1.6) (layers "F.Cu" "F.Paste" "F.Mask") (roundrect_rratio 0.333) (tstamp 9ae3aec5-2fc4-4a24-ba88-826e393d317f))
  (pad "5" smd roundrect (at 7.5 -2.85) (size 0.6 1.6) (layers "F.Cu" "F.Paste" "F.Mask") (roundrect_rratio 0.333) (tstamp 601e6916-94c8-4f32-8770-104c138179be))
  (pad "6" smd roundrect (at 7.5 2.85) (size 0.6 1.6) (layers "F.Cu" "F.Paste" "F.Mask") (roundrect_rratio 0.333) (tstamp dc3abeee-0900-4a76-82da-c17d3e874632))
  (pad "7" smd roundrect (at 6.5 -2.85) (size 0.6 1.6) (layers "F.Cu" "F.Paste" "F.Mask") (roundrect_rratio 0.333) (tstamp c64be026-403a-46bf-955a-e7858f792712))
  (pad "8" smd roundrect (at 6.5 2.85) (size 0.6 1.6) (layers "F.Cu" "F.Paste" "F.Mask") (roundrect_rratio 0.333) (tstamp 7911755f-3881-44c7-a6ef-1301a031bd80))
  (pad "9" smd roundrect (at 5.5 -2.85) (size 0.6 1.6) (layers "F.Cu" "F.Paste" "F.Mask") (roundrect_rratio 0.333) (tstamp 8232540d-e2c5-4668-b8b5-c40e5fe06ec3))
  (pad "10" smd roundrect (at 5.5 2.85) (size 0.6 1.6) (layers "F.Cu" "F.Paste" "F.Mask") (roundrect_rratio 0.333) (tstamp 918b6a0a-6a27-496a-83a1-377d2bbc8a39))
  (pad "11" smd roundrect (at 4.5 -2.85) (size 0.6 1.6) (layers "F.Cu" "F.Paste" "F.Mask") (roundrect_rratio 0.333) (tstamp 0fe4f2ab-e232-41fb-828d-003a13e44ade))
  (pad "12" smd roundrect (at 4.5 2.85) (size 0.6 1.6) (layers "F.Cu" "F.Paste" "F.Mask") (roundrect_rratio 0.333) (tstamp f6534f01-e2ff-4061-9e12-5b51b7fdb3aa))
  (pad "13" smd roundrect (at 3.5 -2.85) (size 0.6 1.6) (layers "F.Cu" "F.Paste" "F.Mask") (roundrect_rratio 0.333) (tstamp 872d201a-595e-4674-af95-43fb0f8be016))
  (pad "14" smd roundrect (at 3.5 2.85) (size 0.6 1.6) (layers "F.Cu" "F.Paste" "F.Mask") (roundrect_rratio 0.333) (tstamp 2edf359d-1da2-4cf6-9cad-c1757a12cac4))
  (pad "15" smd roundrect (at 2.5 -2.85) (size 0.6 1.6) (layers "F.Cu" "F.Paste" "F.Mask") (roundrect_rratio 0.333) (tstamp 7e1b2ba3-190f-49d5-8e01-e907040784b3))
  (pad "16" smd roundrect (at 2.5 2.85) (size 0.6 1.6) (layers "F.Cu" "F.Paste" "F.Mask") (roundrect_rratio 0.333) (tstamp 7d36ee93-434a-4ead-81e9-53d57dd27f46))
  (pad "17" smd roundrect (at 1.5 -2.85) (size 0.6 1.6) (layers "F.Cu" "F.Paste" "F.Mask") (roundrect_rratio 0.333) (tstamp 03eed3b9-62a0-4f04-bc1b-e0b382666709))
  (pad "18" smd roundrect (at 1.5 2.85) (size 0.6 1.6) (layers "F.Cu" "F.Paste" "F.Mask") (roundrect_rratio 0.333) (tstamp 93208552-a033-4596-a8a5-f87ec7a5360e))
  (pad "19" smd roundrect (at 0.5 -2.85) (size 0.6 1.6) (layers "F.Cu" "F.Paste" "F.Mask") (roundrect_rratio 0.333) (tstamp 598c7b4c-c3d2-47e9-ac1e-ee5e7c62c1a8))
  (pad "20" smd roundrect (at 0.5 2.85) (size 0.6 1.6) (layers "F.Cu" "F.Paste" "F.Mask") (roundrect_rratio 0.333) (tstamp 2ae7f8ab-9261-41e9-ad5d-ef4327947b18))
  (pad "21" smd roundrect (at -0.5 -2.85) (size 0.6 1.6) (layers "F.Cu" "F.Paste" "F.Mask") (roundrect_rratio 0.333) (tstamp 94c276ff-674a-4e6c-bfc7-8da452055d99))
  (pad "22" smd roundrect (at -0.5 2.85) (size 0.6 1.6) (layers "F.Cu" "F.Paste" "F.Mask") (roundrect_rratio 0.333) (tstamp 5d73f70c-b57e-460b-bc75-b2cd107944be))
  (pad "23" smd roundrect (at -1.5 -2.85) (size 0.6 1.6) (layers "F.Cu" "F.Paste" "F.Mask") (roundrect_rratio 0.333) (tstamp ec2518d9-16fd-4301-95fa-8dd90ad3e444))
  (pad "24" smd roundrect (at -1.5 2.85) (size 0.6 1.6) (layers "F.Cu" "F.Paste" "F.Mask") (roundrect_rratio 0.333) (tstamp fbe693c7-edad-4d7b-b5ea-27554c836a1c))
  (pad "25" smd roundrect (at -2.5 -2.85) (size 0.6 1.6) (layers "F.Cu" "F.Paste" "F.Mask") (roundrect_rratio 0.333) (tstamp 46b0237d-ae04-4de0-8388-e318d07c87d4))
  (pad "26" smd roundrect (at -2.5 2.85) (size 0.6 1.6) (layers "F.Cu" "F.Paste" "F.Mask") (roundrect_rratio 0.333) (tstamp 2181293d-d7c7-4d0a-9836-31eed73eda05))
  (pad "27" smd roundrect (at -3.5 -2.85) (size 0.6 1.6) (layers "F.Cu" "F.Paste" "F.Mask") (roundrect_rratio 0.333) (tstamp 358f17c2-57cd-4eff-a8de-398541baad76))
  (pad "28" smd roundrect (at -3.5 2.85) (size 0.6 1.6) (layers "F.Cu" "F.Paste" "F.Mask") (roundrect_rratio 0.333) (tstamp f7ccd54b-89d1-48fa-a9bf-fb42a6fca683))
  (pad "29" smd roundrect (at -4.5 -2.85) (size 0.6 1.6) (layers "F.Cu" "F.Paste" "F.Mask") (roundrect_rratio 0.333) (tstamp 6eb22182-e74b-40aa-a23b-48cda96a1832))
  (pad "30" smd roundrect (at -4.5 2.85) (size 0.6 1.6) (layers "F.Cu" "F.Paste" "F.Mask") (roundrect_rratio 0.333) (tstamp 2261e2de-b563-48a6-8d31-84e2299d0e42))
  (pad "31" smd roundrect (at -5.5 -2.85) (size 0.6 1.6) (layers "F.Cu" "F.Paste" "F.Mask") (roundrect_rratio 0.333) (tstamp 346f5e1a-8212-45f3-98c5-08bd749afed1))
  (pad "32" smd roundrect (at -5.5 2.85) (size 0.6 1.6) (layers "F.Cu" "F.Paste" "F.Mask") (roundrect_rratio 0.333) (tstamp eafede00-4dd3-419a-a3bb-4e5d0564f8da))
  (pad "33" smd roundrect (at -6.5 -2.85) (size 0.6 1.6) (layers "F.Cu" "F.Paste" "F.Mask") (roundrect_rratio 0.333) (tstamp 2ffc7ab3-6f58-4950-8f23-820c1e08c06d))
  (pad "34" smd roundrect (at -6.5 2.85) (size 0.6 1.6) (layers "F.Cu" "F.Paste" "F.Mask") (roundrect_rratio 0.333) (tstamp d81e90d8-7a4b-4771-81b2-806d0fa1ef69))
  (pad "35" smd roundrect (at -7.5 -2.85) (size 0.6 1.6) (layers "F.Cu" "F.Paste" "F.Mask") (roundrect_rratio 0.333) (tstamp 0805aea1-ef1e-4fe1-a720-ac63b85b7cb3))
  (pad "36" smd roundrect (at -7.5 2.85) (size 0.6 1.6) (layers "F.Cu" "F.Paste" "F.Mask") (roundrect_rratio 0.333) (tstamp adcf0ede-90fc-48a8-b9c3-ff168984236f))
  (pad "37" smd roundrect (at -8.5 -2.85) (size 0.6 1.6) (layers "F.Cu" "F.Paste" "F.Mask") (roundrect_rratio 0.333) (tstamp cc26cc63-3b8d-4899-bc50-7fa0746c34e7))
  (pad "38" smd roundrect (at -8.5 2.85) (size 0.6 1.6) (layers "F.Cu" "F.Paste" "F.Mask") (roundrect_rratio 0.333) (tstamp 2279af20-fed4-4d38-85f5-49cd345b584b))
  (pad "39" smd roundrect (at -9.5 -2.85) (size 0.6 1.6) (layers "F.Cu" "F.Paste" "F.Mask") (roundrect_rratio 0.333) (tstamp 8189eb59-b6f7-4ebe-aab6-709062974e72))
  (pad "40" smd roundrect (at -9.5 2.85) (size 0.6 1.6) (layers "F.Cu" "F.Paste" "F.Mask") (roundrect_rratio 0.333) (tstamp f860a197-d7f4-41fa-a4b2-0df1b1533c04))
  (pad "MP" smd roundrect (at -11.175 1.85) (size 0.85 1.8) (layers "F.Cu" "F.Paste" "F.Mask") (roundrect_rratio 0.118) (tstamp 0455430f-7e49-42c8-92a6-fa5d6cd24ce6))
  (pad "MP" smd roundrect (at 11.175 1.85) (size 0.85 1.8) (layers "F.Cu" "F.Paste" "F.Mask") (roundrect_rratio 0.118) (tstamp dddb0d01-caf6-4179-8519-f19e8d9a2850))
  (model "${KICAD6_3DMODEL_DIR}/Connector_JST.3dshapes/SM40B-SRDS-G-TF.STEP"
    (offset (xyz 0 -2.55 0))
    (scale (xyz 1 1 1))
    (rotate (xyz -90 0 -90))
  )
)
