(module "Hirose_DF40C-50DP-0.4V_2x25_P0.4" (layer "F.Cu") (tedit 5FB65F71)
  (property "Sheet file" "/home/stefan/Projects/Current/UniversalRoboticsController/UniversalRoboticsController.kicad_sch")
  (property "Sheet name" "")
  (attr smd)
  (fp_text reference "J4" (at -6.6 0 90 unlocked) (layer "F.SilkS")
    (effects (font (size 0.8 0.8) (thickness 0.15)))
    (tstamp b9c496f6-02e1-476c-9223-fc141fe0f080)
  )
  (fp_text value "DB" (at 0 0.7 unlocked) (layer "F.Fab")
    (effects (font (size 0.2 0.2) (thickness 0.05)))
    (tstamp cb621e96-6737-43ea-a0a5-f3b664c31e50)
  )
  (fp_text user "${REF}" (at 0 -0.675 unlocked) (layer "F.Fab")
    (effects (font (size 0.2 0.2) (thickness 0.05)))
    (tstamp b255c477-3768-4147-910b-d37947bec5a0)
  )
  (fp_arc (start 5.875 1.025) (end 5.875 1.1) (angle -90) (layer "F.SilkS") (width 0.15) (tstamp 1340b9e6-2e55-4404-8aa2-e551a84c2bfe))
  (fp_arc (start -5.875 -1.025) (end -5.875 -1.1) (angle -90) (layer "F.SilkS") (width 0.15) (tstamp 59ddcd0d-8d8c-4956-b836-936df009c688))
  (fp_arc (start 5.875 -1.025) (end 5.95 -1.025) (angle -90) (layer "F.SilkS") (width 0.15) (tstamp a59c1119-aaa1-4197-b87b-52e21c7d6df8))
  (fp_arc (start -5.875 1.025) (end -5.95 1.025) (angle -90) (layer "F.SilkS") (width 0.15) (tstamp c3511c76-5f6b-4d14-ad06-7234f90dc5d0))
  (fp_poly (pts (xy -5.55 -1.025)
    (xy -5.875 -1.025)
    (xy -5.875 1.025)
    (xy -5.55 1.025)
    (xy -5.55 1.175)
    (xy -5.875 1.175)
    (xy -6.025 1.025)
    (xy -6.025 -1.025)
    (xy -5.875 -1.175)
    (xy -5.55 -1.175)) (layer "F.SilkS") (width 0) (fill yes) (tstamp 48dd2964-7044-46dc-a435-0379e1d38fbb))
  (fp_poly (pts (xy -4.8 -1.725)
    (xy -4.9 -1.85)
    (xy -4.7 -1.85)) (layer "F.SilkS") (width 0) (fill yes) (tstamp 6df2a1c2-a73f-4680-9469-137f5659d3d7))
  (fp_poly (pts (xy 5.55 1.025)
    (xy 5.875 1.025)
    (xy 5.875 -1.025)
    (xy 5.55 -1.025002)
    (xy 5.55 -1.175)
    (xy 5.875 -1.175)
    (xy 6.024998 -1.025)
    (xy 6.024998 1.025)
    (xy 5.875 1.175)
    (xy 5.55 1.175)) (layer "F.SilkS") (width 0) (fill yes) (tstamp a519ed33-c0af-4c13-89a1-e2108fd6bdf3))
  (fp_line (start 4.9 1.89) (end 4.9 1.47) (layer "Dwgs.User") (width 0.05) (tstamp 01ae4a98-a769-4973-b276-db55a79aeae8))
  (fp_line (start -4.9 1.89) (end 4.9 1.89) (layer "Dwgs.User") (width 0.05) (tstamp 4e7860d1-ea8c-400a-b81b-8f7d80aaf845))
  (fp_line (start -4.9 1.89) (end -4.9 1.47) (layer "Dwgs.User") (width 0.05) (tstamp 5c7c1c6a-5bad-4f87-b2b8-627de1d363c0))
  (fp_line (start 4.9 -1.89) (end 4.9 -1.47) (layer "Dwgs.User") (width 0.05) (tstamp 6b75f4e2-9585-4aa7-846d-709dac511f7c))
  (fp_line (start -4.9 -1.89) (end -4.9 -1.48) (layer "Dwgs.User") (width 0.05) (tstamp 700a24c2-f0b3-4d1d-80c8-a37c528e149a))
  (fp_line (start -4.9 -1.89) (end 4.9 -1.89) (layer "Dwgs.User") (width 0.05) (tstamp f59c3e1f-4e6b-40cc-b39c-d74e90d7291e))
  (fp_rect (start -6.3 -1.47) (end 6.3 1.47) (layer "Dwgs.User") (width 0.05) (tstamp 41941250-5865-4760-b954-c7a3b4141168))
  (fp_line (start 5.525 1.175) (end 5.775 1.175) (layer "F.CrtYd") (width 0.05) (tstamp 12c665e0-6c1b-4ade-9342-aba799e0312c))
  (fp_line (start 5.525 -1.6) (end 5.525 -1.175) (layer "F.CrtYd") (width 0.05) (tstamp 2c0f9a92-606b-488e-996d-679df1ca8108))
  (fp_line (start 6.025 0.925) (end 6.025 -0.925) (layer "F.CrtYd") (width 0.05) (tstamp 51c5c406-6da3-4e92-8a88-1c8eea9f41dc))
  (fp_line (start -5.525 -1.6) (end -5.525 -1.175) (layer "F.CrtYd") (width 0.05) (tstamp 60e14d26-093d-42c6-b3d9-ce65f9dcca96))
  (fp_line (start -5.525 1.175) (end -5.775 1.175) (layer "F.CrtYd") (width 0.05) (tstamp 8805799a-037f-493a-be9a-cb71767dc760))
  (fp_line (start 5.375 -1.75) (end -5.375 -1.75) (layer "F.CrtYd") (width 0.05) (tstamp 9a0a8414-36f9-4f0d-b9ca-a51604c38a31))
  (fp_line (start -5.525 1.6) (end -5.525 1.175) (layer "F.CrtYd") (width 0.05) (tstamp 9bb6250e-5508-4ef9-9c51-c1e98abab63c))
  (fp_line (start -5.525 -1.175) (end -5.775 -1.175) (layer "F.CrtYd") (width 0.05) (tstamp aaa5a70e-5a85-4a69-b782-279b2b9b165f))
  (fp_line (start 5.525 -1.175) (end 5.775 -1.175) (layer "F.CrtYd") (width 0.05) (tstamp bef1d2e0-b8d8-4723-9f8b-ab7923046134))
  (fp_line (start -6.025 -0.925) (end -6.025 0.925) (layer "F.CrtYd") (width 0.05) (tstamp c0e3a5e8-68f4-481a-bd9f-b5b33cd4c1a3))
  (fp_line (start 5.525 1.6) (end 5.525 1.175) (layer "F.CrtYd") (width 0.05) (tstamp d9629d3c-fc2f-4932-b668-5f1b30e67866))
  (fp_line (start -5.375 1.75) (end 5.375 1.75) (layer "F.CrtYd") (width 0.05) (tstamp ef3985b6-7c2e-42f9-a119-2799c5c84d20))
  (fp_arc (start -5.375 -1.6) (end -5.525 -1.6) (angle 90) (layer "F.CrtYd") (width 0.05) (tstamp 11df772f-d59e-460e-91bf-ca44b109742a))
  (fp_arc (start -5.775 0.925) (end -6.025 0.925) (angle -90) (layer "F.CrtYd") (width 0.05) (tstamp 482fff8f-bb0a-48f9-aedf-e70ca3eeb930))
  (fp_arc (start -5.375 1.6) (end -5.525 1.6) (angle -90) (layer "F.CrtYd") (width 0.05) (tstamp 95ef649f-1779-4ae5-9e6b-5e10a368a702))
  (fp_arc (start 5.775 0.925) (end 6.025 0.925) (angle 90) (layer "F.CrtYd") (width 0.05) (tstamp a5bc2798-9f61-4805-9fa1-bf428e64e185))
  (fp_arc (start -5.775 -0.925) (end -6.025 -0.925) (angle 90) (layer "F.CrtYd") (width 0.05) (tstamp b630256b-f031-4937-8fb8-330ed67c4e91))
  (fp_arc (start 5.375 1.6) (end 5.525 1.6) (angle 90) (layer "F.CrtYd") (width 0.05) (tstamp d5ea904b-e9cb-4c89-9302-9ff221df9436))
  (fp_arc (start 5.775 -0.925) (end 6.025 -0.925) (angle -90) (layer "F.CrtYd") (width 0.05) (tstamp dbd4f157-046f-4a09-b73b-9a50dfd81dc2))
  (fp_arc (start 5.375 -1.6) (end 5.525 -1.6) (angle -90) (layer "F.CrtYd") (width 0.05) (tstamp f2e0f840-f757-4106-a8d7-ac44bbd3774d))
  (fp_rect (start -5.76 -0.925) (end 5.76 0.925) (layer "F.Fab") (width 0.1) (tstamp 151d5d02-6ef3-4dc4-9071-e817bf7db869))
  (fp_poly (pts (xy -5 0)
    (xy -5.5 0.25)
    (xy -5.5 -0.25)) (layer "F.Fab") (width 0) (fill yes) (tstamp ce04513d-d1bc-4174-bdc2-bcbb747fc924))
  (pad "1" smd roundrect (at -4.8 -1.355) (size 0.23 0.66) (layers "F.Cu" "F.Paste" "F.Mask") (roundrect_rratio 0.25) (tstamp 33fcb230-aeaa-4afd-b67a-2e8f7800ce8b))
  (pad "2" smd roundrect (at -4.8 1.355) (size 0.23 0.66) (layers "F.Cu" "F.Paste" "F.Mask") (roundrect_rratio 0.25) (tstamp 28a6e7de-fa6d-4dd0-80b6-9b8b8688e9f1))
  (pad "3" smd roundrect (at -4.4 -1.355) (size 0.23 0.66) (layers "F.Cu" "F.Paste" "F.Mask") (roundrect_rratio 0.25) (tstamp 508dc266-9567-408d-a639-67ff6c127949))
  (pad "4" smd roundrect (at -4.4 1.355) (size 0.23 0.66) (layers "F.Cu" "F.Paste" "F.Mask") (roundrect_rratio 0.25) (tstamp a7b3d640-4a43-430d-a020-c9c676ce7e06))
  (pad "5" smd roundrect (at -4 -1.355) (size 0.23 0.66) (layers "F.Cu" "F.Paste" "F.Mask") (roundrect_rratio 0.25) (tstamp 24b4f087-f160-4674-8ecb-d006bb7f2852))
  (pad "6" smd roundrect (at -4 1.355) (size 0.23 0.66) (layers "F.Cu" "F.Paste" "F.Mask") (roundrect_rratio 0.25) (tstamp 50dd67c6-4eab-460a-a2ad-69e14132e767))
  (pad "7" smd roundrect (at -3.6 -1.355) (size 0.23 0.66) (layers "F.Cu" "F.Paste" "F.Mask") (roundrect_rratio 0.25) (tstamp d752f00e-c586-47f9-953d-ebea4343ac44))
  (pad "8" smd roundrect (at -3.6 1.355) (size 0.23 0.66) (layers "F.Cu" "F.Paste" "F.Mask") (roundrect_rratio 0.25) (tstamp b1f04b45-6218-4201-957b-c990ad0052df))
  (pad "9" smd roundrect (at -3.2 -1.355) (size 0.23 0.66) (layers "F.Cu" "F.Paste" "F.Mask") (roundrect_rratio 0.25) (tstamp 6c5f9b72-7902-4316-9677-45f91c5b7829))
  (pad "10" smd roundrect (at -3.2 1.355) (size 0.23 0.66) (layers "F.Cu" "F.Paste" "F.Mask") (roundrect_rratio 0.25) (tstamp ffd14dfe-092b-4b89-9720-23354d51a944))
  (pad "11" smd roundrect (at -2.8 -1.355) (size 0.23 0.66) (layers "F.Cu" "F.Paste" "F.Mask") (roundrect_rratio 0.25) (tstamp a738ce1e-9282-4989-83ec-3d338909e150))
  (pad "12" smd roundrect (at -2.8 1.355) (size 0.23 0.66) (layers "F.Cu" "F.Paste" "F.Mask") (roundrect_rratio 0.25) (tstamp 3d7d9851-5488-4348-8561-3c48d98fc021))
  (pad "13" smd roundrect (at -2.4 -1.355) (size 0.23 0.66) (layers "F.Cu" "F.Paste" "F.Mask") (roundrect_rratio 0.25) (tstamp bed021ac-9746-4486-9336-cfbb7afd1e3a))
  (pad "14" smd roundrect (at -2.4 1.355) (size 0.23 0.66) (layers "F.Cu" "F.Paste" "F.Mask") (roundrect_rratio 0.25) (tstamp b7b7a3ec-21e3-4117-8c6c-f66cc9254a01))
  (pad "15" smd roundrect (at -2 -1.355) (size 0.23 0.66) (layers "F.Cu" "F.Paste" "F.Mask") (roundrect_rratio 0.25) (tstamp b21d39e7-7805-455e-a84c-05ac18f1353c))
  (pad "16" smd roundrect (at -2 1.355) (size 0.23 0.66) (layers "F.Cu" "F.Paste" "F.Mask") (roundrect_rratio 0.25) (tstamp cf7fe971-fc44-45d5-ac8f-749748002c9d))
  (pad "17" smd roundrect (at -1.6 -1.355) (size 0.23 0.66) (layers "F.Cu" "F.Paste" "F.Mask") (roundrect_rratio 0.25) (tstamp 00233898-b1ee-4d28-b626-4abfb4fda065))
  (pad "18" smd roundrect (at -1.6 1.355) (size 0.23 0.66) (layers "F.Cu" "F.Paste" "F.Mask") (roundrect_rratio 0.25) (tstamp 67fbbf95-17bc-4c55-88f6-30e35c54497a))
  (pad "19" smd roundrect (at -1.2 -1.355) (size 0.23 0.66) (layers "F.Cu" "F.Paste" "F.Mask") (roundrect_rratio 0.25) (tstamp 3f080ce0-0ffe-4652-85e4-662807b88eac))
  (pad "20" smd roundrect (at -1.2 1.355) (size 0.23 0.66) (layers "F.Cu" "F.Paste" "F.Mask") (roundrect_rratio 0.25) (tstamp 1bffb4aa-2b3c-4952-8d1a-7e44b92d613b))
  (pad "21" smd roundrect (at -0.8 -1.355) (size 0.23 0.66) (layers "F.Cu" "F.Paste" "F.Mask") (roundrect_rratio 0.25) (tstamp 9fe4add2-9ce0-4bad-97aa-ab3105feb6a6))
  (pad "22" smd roundrect (at -0.8 1.355) (size 0.23 0.66) (layers "F.Cu" "F.Paste" "F.Mask") (roundrect_rratio 0.25) (tstamp 97aaff71-a2d8-4061-a910-bcc9a1da5185))
  (pad "23" smd roundrect (at -0.4 -1.355) (size 0.23 0.66) (layers "F.Cu" "F.Paste" "F.Mask") (roundrect_rratio 0.25) (tstamp 83a15c18-4f51-4660-b9e5-c88fcf987dc2))
  (pad "24" smd roundrect (at -0.4 1.355) (size 0.23 0.66) (layers "F.Cu" "F.Paste" "F.Mask") (roundrect_rratio 0.25) (tstamp 50444189-ceba-4bfb-8e8d-fbd65e089703))
  (pad "25" smd roundrect (at 0 -1.355) (size 0.23 0.66) (layers "F.Cu" "F.Paste" "F.Mask") (roundrect_rratio 0.25) (tstamp f65d2cd9-42a9-4735-a57a-ca825b0d1280))
  (pad "26" smd roundrect (at 0 1.355) (size 0.23 0.66) (layers "F.Cu" "F.Paste" "F.Mask") (roundrect_rratio 0.25) (tstamp c7a37a84-0236-455b-9537-84c54dd34550))
  (pad "27" smd roundrect (at 0.4 -1.355) (size 0.23 0.66) (layers "F.Cu" "F.Paste" "F.Mask") (roundrect_rratio 0.25) (tstamp b8b92e1b-233f-43e5-9f7b-c56d6d8c0c0d))
  (pad "28" smd roundrect (at 0.4 1.355) (size 0.23 0.66) (layers "F.Cu" "F.Paste" "F.Mask") (roundrect_rratio 0.25) (tstamp 70f720e2-b9ef-459b-a6c0-c65879a85fbc))
  (pad "29" smd roundrect (at 0.8 -1.355) (size 0.23 0.66) (layers "F.Cu" "F.Paste" "F.Mask") (roundrect_rratio 0.25) (tstamp 23903064-b6d4-440d-8571-1f7b31da9222))
  (pad "30" smd roundrect (at 0.8 1.355) (size 0.23 0.66) (layers "F.Cu" "F.Paste" "F.Mask") (roundrect_rratio 0.25) (tstamp 08c59748-ce48-4bf4-924d-cd3a9ca5d538))
  (pad "31" smd roundrect (at 1.2 -1.355) (size 0.23 0.66) (layers "F.Cu" "F.Paste" "F.Mask") (roundrect_rratio 0.25) (tstamp e65cdcc9-1c55-44ed-9ba1-af1996945464))
  (pad "32" smd roundrect (at 1.2 1.355) (size 0.23 0.66) (layers "F.Cu" "F.Paste" "F.Mask") (roundrect_rratio 0.25) (tstamp ef660e51-1b08-4b50-b727-05e3877aad9d))
  (pad "33" smd roundrect (at 1.6 -1.355) (size 0.23 0.66) (layers "F.Cu" "F.Paste" "F.Mask") (roundrect_rratio 0.25) (tstamp 84071b40-55b4-43fc-998c-ad0d41f6f3ae))
  (pad "34" smd roundrect (at 1.6 1.355) (size 0.23 0.66) (layers "F.Cu" "F.Paste" "F.Mask") (roundrect_rratio 0.25) (tstamp 5915fbd8-2503-416c-a47f-d1b9d9b525bd))
  (pad "35" smd roundrect (at 2 -1.355) (size 0.23 0.66) (layers "F.Cu" "F.Paste" "F.Mask") (roundrect_rratio 0.25) (tstamp fd3fa22d-65d6-47f9-8508-63de6316cfcc))
  (pad "36" smd roundrect (at 2 1.355) (size 0.23 0.66) (layers "F.Cu" "F.Paste" "F.Mask") (roundrect_rratio 0.25) (tstamp 53d47b97-a117-4032-ad89-f5a2f94abd53))
  (pad "37" smd roundrect (at 2.4 -1.355) (size 0.23 0.66) (layers "F.Cu" "F.Paste" "F.Mask") (roundrect_rratio 0.25) (tstamp 951323bf-5e74-46ea-a255-36d016d3ad2f))
  (pad "38" smd roundrect (at 2.4 1.355) (size 0.23 0.66) (layers "F.Cu" "F.Paste" "F.Mask") (roundrect_rratio 0.25) (tstamp a3c92596-a2fd-4c7a-a360-27ada5efc995))
  (pad "39" smd roundrect (at 2.8 -1.355) (size 0.23 0.66) (layers "F.Cu" "F.Paste" "F.Mask") (roundrect_rratio 0.25) (tstamp 637ab525-984e-44d1-8d45-29164ca19e08))
  (pad "40" smd roundrect (at 2.8 1.355) (size 0.23 0.66) (layers "F.Cu" "F.Paste" "F.Mask") (roundrect_rratio 0.25) (tstamp 8c055e07-c50e-4af2-84ab-eb78154854cb))
  (pad "41" smd roundrect (at 3.2 -1.355) (size 0.23 0.66) (layers "F.Cu" "F.Paste" "F.Mask") (roundrect_rratio 0.25) (tstamp 743fd48a-3d0a-42a5-b190-a6872e538fdd))
  (pad "42" smd roundrect (at 3.2 1.355) (size 0.23 0.66) (layers "F.Cu" "F.Paste" "F.Mask") (roundrect_rratio 0.25) (tstamp 5ce266fd-ecb2-48ef-a6c1-7aff1c6fffaf))
  (pad "43" smd roundrect (at 3.6 -1.355) (size 0.23 0.66) (layers "F.Cu" "F.Paste" "F.Mask") (roundrect_rratio 0.25) (tstamp 093a008e-ba08-4037-9a19-643b2d954f8d))
  (pad "44" smd roundrect (at 3.6 1.355) (size 0.23 0.66) (layers "F.Cu" "F.Paste" "F.Mask") (roundrect_rratio 0.25) (tstamp 20b50cb0-7272-4ebf-a29a-85ea35cecd39))
  (pad "45" smd roundrect (at 4 -1.355) (size 0.23 0.66) (layers "F.Cu" "F.Paste" "F.Mask") (roundrect_rratio 0.25) (tstamp 5ba7ad32-2155-4623-9c62-dbaa9e5c88ad))
  (pad "46" smd roundrect (at 4 1.355) (size 0.23 0.66) (layers "F.Cu" "F.Paste" "F.Mask") (roundrect_rratio 0.25) (tstamp 259e2359-86eb-49be-ac56-6f8750fcc4a0))
  (pad "47" smd roundrect (at 4.4 -1.355) (size 0.23 0.66) (layers "F.Cu" "F.Paste" "F.Mask") (roundrect_rratio 0.25) (tstamp a3f85cbf-e915-42ae-84f0-942648eb4a67))
  (pad "48" smd roundrect (at 4.4 1.355) (size 0.23 0.66) (layers "F.Cu" "F.Paste" "F.Mask") (roundrect_rratio 0.25) (tstamp 4f2d96d4-1ec8-4df7-873e-57f055cc4a2e))
  (pad "49" smd roundrect (at 4.8 -1.355) (size 0.23 0.66) (layers "F.Cu" "F.Paste" "F.Mask") (roundrect_rratio 0.25) (tstamp 9a602193-6a44-45a1-9513-46452de43b03))
  (pad "50" smd roundrect (at 4.8 1.355) (size 0.23 0.66) (layers "F.Cu" "F.Paste" "F.Mask") (roundrect_rratio 0.25) (tstamp aea1b38f-3d49-4d94-9d4a-8f5a256221d3))
  (pad "MP" smd roundrect (at -5.275 -1.355) (size 0.35 0.66) (layers "F.Cu" "F.Paste" "F.Mask") (roundrect_rratio 0.25) (tstamp 210bc2a6-6aa9-4206-9e37-e4a5e39556c2))
  (pad "MP" smd roundrect (at -5.275 1.355) (size 0.35 0.66) (layers "F.Cu" "F.Paste" "F.Mask") (roundrect_rratio 0.25) (tstamp 4e770e31-2efd-44c8-a763-ac8277d2ae21))
  (pad "MP" smd roundrect (at 5.275 -1.355) (size 0.35 0.66) (layers "F.Cu" "F.Paste" "F.Mask") (roundrect_rratio 0.25) (tstamp 8db95bbb-d8b7-4708-9264-29e1581205fa))
  (pad "MP" smd roundrect (at 5.275 1.355) (size 0.35 0.66) (layers "F.Cu" "F.Paste" "F.Mask") (roundrect_rratio 0.25) (tstamp 9010dedd-feeb-4268-a07e-4d3fa8eb155c))
  (model "${KICAD6_3DMODEL_DIR}/Connector_Hirose.3dshapes/DF40C-50DP.stp"
    (offset (xyz -5.758 0.85 0.7))
    (scale (xyz 1 1 1))
    (rotate (xyz -90 0 -90))
  )
)
