(module "Hirose_DF40C-60DP-0.4V_2x30_P0.4" (layer "F.Cu") (tedit 5FB65132)
  (property "Sheet file" "/home/stefan/Projects/Current/UniversalRoboticsController/UniversalRoboticsController.kicad_sch")
  (property "Sheet name" "")
  (attr smd)
  (fp_text reference "J4" (at -7.6 0 90 unlocked) (layer "F.SilkS")
    (effects (font (size 0.8 0.8) (thickness 0.15)))
    (tstamp 17057846-728a-4bb5-b850-4b2c6d6ea17a)
  )
  (fp_text value "DB" (at 0 0.7 unlocked) (layer "F.Fab")
    (effects (font (size 0.2 0.2) (thickness 0.05)))
    (tstamp c33f34c9-ff26-4749-b368-60d312a46643)
  )
  (fp_text user "${REF}" (at 0 -0.675 unlocked) (layer "F.Fab")
    (effects (font (size 0.2 0.2) (thickness 0.05)))
    (tstamp c0df4f8c-fd72-4f55-8c15-4d4a794c926e)
  )
  (fp_arc (start -6.875 -1.025) (end -6.875 -1.1) (angle -90) (layer "F.SilkS") (width 0.15) (tstamp 224d915c-fa3b-475b-b70c-1b2beab6b533))
  (fp_arc (start 6.875 1.025) (end 6.875 1.1) (angle -90) (layer "F.SilkS") (width 0.15) (tstamp 42b6807c-d709-4fab-b708-d4b33e3ddff1))
  (fp_arc (start 6.875 -1.025) (end 6.95 -1.025) (angle -90) (layer "F.SilkS") (width 0.15) (tstamp 85b47dfc-7b6e-4851-85eb-f9309e786381))
  (fp_arc (start -6.875 1.025) (end -6.95 1.025) (angle -90) (layer "F.SilkS") (width 0.15) (tstamp f2c44e67-c9c7-459f-ad74-fe8e02afba6a))
  (fp_poly (pts (xy -5.8 -1.725)
    (xy -5.9 -1.85)
    (xy -5.7 -1.85)) (layer "F.SilkS") (width 0) (fill yes) (tstamp 7d92e4e3-5769-4cdf-8332-2c7e9375135d))
  (fp_poly (pts (xy -6.55 -1.025)
    (xy -6.875 -1.025)
    (xy -6.875 1.025)
    (xy -6.55 1.025)
    (xy -6.55 1.175)
    (xy -6.875 1.175)
    (xy -7.025 1.025)
    (xy -7.025 -1.025)
    (xy -6.875 -1.175)
    (xy -6.55 -1.175)) (layer "F.SilkS") (width 0) (fill yes) (tstamp be32177e-5a68-453d-a75f-0fed91414354))
  (fp_poly (pts (xy 6.55 1.025)
    (xy 6.875 1.025)
    (xy 6.875 -1.025)
    (xy 6.55 -1.025002)
    (xy 6.55 -1.175)
    (xy 6.875 -1.175)
    (xy 7.024998 -1.025)
    (xy 7.024998 1.025)
    (xy 6.875 1.175)
    (xy 6.55 1.175)) (layer "F.SilkS") (width 0) (fill yes) (tstamp c15c652b-0193-4506-b80d-42cff371f570))
  (fp_line (start 5.9 -1.89) (end 5.9 -1.47) (layer "Dwgs.User") (width 0.05) (tstamp 718b8f56-74e9-4d63-9015-0e1587b31332))
  (fp_line (start 5.9 1.89) (end 5.9 1.47) (layer "Dwgs.User") (width 0.05) (tstamp 848576e2-692a-405a-86e7-268c10a8e858))
  (fp_line (start -5.9 1.89) (end 5.9 1.89) (layer "Dwgs.User") (width 0.05) (tstamp 934d667a-cdf9-4f24-96af-667630320e8a))
  (fp_line (start -5.9 1.89) (end -5.9 1.47) (layer "Dwgs.User") (width 0.05) (tstamp ca512d7a-e65f-44f8-bfa1-24ff4a6c9d93))
  (fp_line (start -5.9 -1.89) (end 5.9 -1.89) (layer "Dwgs.User") (width 0.05) (tstamp f19f7b8a-1c1a-425e-b4db-ced999b770f4))
  (fp_line (start -5.9 -1.89) (end -5.9 -1.48) (layer "Dwgs.User") (width 0.05) (tstamp fd0d6fbf-591c-4f5e-a361-603819e5d13b))
  (fp_rect (start -7.3 -1.47) (end 7.3 1.47) (layer "Dwgs.User") (width 0.05) (tstamp f99b93e6-9def-47aa-8913-88dfb177a542))
  (fp_line (start 6.525 -1.175) (end 6.775 -1.175) (layer "F.CrtYd") (width 0.05) (tstamp 2260d3d9-25a6-47ea-913c-bec4c0fc7a55))
  (fp_line (start 6.525 1.6) (end 6.525 1.175) (layer "F.CrtYd") (width 0.05) (tstamp 4f144ba3-2171-40af-acf5-603e32093e1f))
  (fp_line (start -6.525 -1.175) (end -6.775 -1.175) (layer "F.CrtYd") (width 0.05) (tstamp 6587bd28-9c57-41a2-8879-34e6f1469c46))
  (fp_line (start 6.375 -1.75) (end -6.375 -1.75) (layer "F.CrtYd") (width 0.05) (tstamp 658e8400-158c-4679-960b-e0c4efe8ee22))
  (fp_line (start -6.525 1.175) (end -6.775 1.175) (layer "F.CrtYd") (width 0.05) (tstamp 8c8d7cfd-e412-4e76-a649-1de5d90fd684))
  (fp_line (start -6.525 1.6) (end -6.525 1.175) (layer "F.CrtYd") (width 0.05) (tstamp 93886276-54e4-4ad2-afba-5f220c54f9a3))
  (fp_line (start 6.525 1.175) (end 6.775 1.175) (layer "F.CrtYd") (width 0.05) (tstamp 974235de-bd9e-4af4-9b5d-0ff93b8435ff))
  (fp_line (start -6.375 1.75) (end 6.375 1.75) (layer "F.CrtYd") (width 0.05) (tstamp b942444b-8a49-42e7-b55e-c219d0df9920))
  (fp_line (start -6.525 -1.6) (end -6.525 -1.175) (layer "F.CrtYd") (width 0.05) (tstamp c0cd03b4-be52-48fd-9dfe-08d46b7d4f19))
  (fp_line (start 7.025 0.925) (end 7.025 -0.925) (layer "F.CrtYd") (width 0.05) (tstamp cbb4c59a-e5d1-4874-b1a8-58157d027f2d))
  (fp_line (start -7.025 -0.925) (end -7.025 0.925) (layer "F.CrtYd") (width 0.05) (tstamp e4cacd03-0745-4e6d-81a9-8a1b0ac28953))
  (fp_line (start 6.525 -1.6) (end 6.525 -1.175) (layer "F.CrtYd") (width 0.05) (tstamp eb40b5ac-8f53-49ae-8ba1-7f45706ae1b1))
  (fp_arc (start -6.375 -1.6) (end -6.525 -1.6) (angle 90) (layer "F.CrtYd") (width 0.05) (tstamp 44b301f2-338d-48d7-9740-2b7d402ac549))
  (fp_arc (start 6.375 1.6) (end 6.525 1.6) (angle 90) (layer "F.CrtYd") (width 0.05) (tstamp 52fd110b-7b78-48a6-9db8-8ea2e4c2c052))
  (fp_arc (start 6.775 0.925) (end 7.025 0.925) (angle 90) (layer "F.CrtYd") (width 0.05) (tstamp 6172de8d-bd52-4c8d-a942-5f43621f38bf))
  (fp_arc (start -6.775 0.925) (end -7.025 0.925) (angle -90) (layer "F.CrtYd") (width 0.05) (tstamp 7af0a065-97f9-44e8-ab44-d30408be2580))
  (fp_arc (start 6.375 -1.6) (end 6.525 -1.6) (angle -90) (layer "F.CrtYd") (width 0.05) (tstamp 9e61383a-0ebc-44e9-9936-3b73d74e21ce))
  (fp_arc (start -6.775 -0.925) (end -7.025 -0.925) (angle 90) (layer "F.CrtYd") (width 0.05) (tstamp bcf1eb39-05a9-4e62-bc41-6ae699892f70))
  (fp_arc (start 6.775 -0.925) (end 7.025 -0.925) (angle -90) (layer "F.CrtYd") (width 0.05) (tstamp ece6bcd7-dda2-45b6-b904-587948db3d13))
  (fp_arc (start -6.375 1.6) (end -6.525 1.6) (angle -90) (layer "F.CrtYd") (width 0.05) (tstamp f108d001-9cc3-4f45-bb7c-4f9de2c33670))
  (fp_rect (start -6.76 -0.925) (end 6.76 0.925) (layer "F.Fab") (width 0.1) (tstamp e95d3b5c-78b7-4538-97ca-eb8d8297fdde))
  (fp_poly (pts (xy -6 0)
    (xy -6.5 0.25)
    (xy -6.5 -0.25)) (layer "F.Fab") (width 0) (fill yes) (tstamp 81869482-f803-48ec-9e74-a6fe54f2cd79))
  (pad "1" smd roundrect (at -5.8 -1.355) (size 0.23 0.66) (layers "F.Cu" "F.Paste" "F.Mask") (roundrect_rratio 0.25) (tstamp 56e0b69d-422b-4d4e-838e-5701dba4ad65))
  (pad "2" smd roundrect (at -5.8 1.355) (size 0.23 0.66) (layers "F.Cu" "F.Paste" "F.Mask") (roundrect_rratio 0.25) (tstamp c07672f0-4bcb-4b2c-af0b-935d25ddc69f))
  (pad "3" smd roundrect (at -5.4 -1.355) (size 0.23 0.66) (layers "F.Cu" "F.Paste" "F.Mask") (roundrect_rratio 0.25) (tstamp deeab723-0dc9-4c3b-9a5c-73f66a27b82f))
  (pad "4" smd roundrect (at -5.4 1.355) (size 0.23 0.66) (layers "F.Cu" "F.Paste" "F.Mask") (roundrect_rratio 0.25) (tstamp 33069b57-c424-4ce8-9ee3-a2dfa1c808dd))
  (pad "5" smd roundrect (at -5 -1.355) (size 0.23 0.66) (layers "F.Cu" "F.Paste" "F.Mask") (roundrect_rratio 0.25) (tstamp 56bda3e9-5be7-4c61-a603-d58f1d952000))
  (pad "6" smd roundrect (at -5 1.355) (size 0.23 0.66) (layers "F.Cu" "F.Paste" "F.Mask") (roundrect_rratio 0.25) (tstamp a68f325b-378a-4d44-896f-d16d52ec1dd0))
  (pad "7" smd roundrect (at -4.6 -1.355) (size 0.23 0.66) (layers "F.Cu" "F.Paste" "F.Mask") (roundrect_rratio 0.25) (tstamp d20b3dd4-1c5f-4c6c-ae7f-32c53af483d1))
  (pad "8" smd roundrect (at -4.6 1.355) (size 0.23 0.66) (layers "F.Cu" "F.Paste" "F.Mask") (roundrect_rratio 0.25) (tstamp b856253d-7d76-427c-9921-1e0bf74ecf5b))
  (pad "9" smd roundrect (at -4.2 -1.355) (size 0.23 0.66) (layers "F.Cu" "F.Paste" "F.Mask") (roundrect_rratio 0.25) (tstamp 46c88da8-4081-43ec-bd24-aa409ae05a5c))
  (pad "10" smd roundrect (at -4.2 1.355) (size 0.23 0.66) (layers "F.Cu" "F.Paste" "F.Mask") (roundrect_rratio 0.25) (tstamp 52db547d-8fdd-4bb2-a2fc-8248c3970045))
  (pad "11" smd roundrect (at -3.8 -1.355) (size 0.23 0.66) (layers "F.Cu" "F.Paste" "F.Mask") (roundrect_rratio 0.25) (tstamp 66857103-5460-4f26-bb19-fb79c43553ca))
  (pad "12" smd roundrect (at -3.8 1.355) (size 0.23 0.66) (layers "F.Cu" "F.Paste" "F.Mask") (roundrect_rratio 0.25) (tstamp c9b295e0-2e1c-493a-bcdb-6618dc9f7bf3))
  (pad "13" smd roundrect (at -3.4 -1.355) (size 0.23 0.66) (layers "F.Cu" "F.Paste" "F.Mask") (roundrect_rratio 0.25) (tstamp ceb3a621-0843-4d24-abba-f341f0da8a69))
  (pad "14" smd roundrect (at -3.4 1.355) (size 0.23 0.66) (layers "F.Cu" "F.Paste" "F.Mask") (roundrect_rratio 0.25) (tstamp 3cef5b65-f03d-482a-8683-ffd68c3a71dd))
  (pad "15" smd roundrect (at -3 -1.355) (size 0.23 0.66) (layers "F.Cu" "F.Paste" "F.Mask") (roundrect_rratio 0.25) (tstamp 384b7dcf-c6b3-41f1-81ac-033209de79b5))
  (pad "16" smd roundrect (at -3 1.355) (size 0.23 0.66) (layers "F.Cu" "F.Paste" "F.Mask") (roundrect_rratio 0.25) (tstamp b23daf00-ebd6-43d7-b336-0ecb9cba38d1))
  (pad "17" smd roundrect (at -2.6 -1.355) (size 0.23 0.66) (layers "F.Cu" "F.Paste" "F.Mask") (roundrect_rratio 0.25) (tstamp 14e01159-dd90-426a-a482-45168ff61d59))
  (pad "18" smd roundrect (at -2.6 1.355) (size 0.23 0.66) (layers "F.Cu" "F.Paste" "F.Mask") (roundrect_rratio 0.25) (tstamp 850241f3-0a5a-4e12-bb9e-c391fb34243a))
  (pad "19" smd roundrect (at -2.2 -1.355) (size 0.23 0.66) (layers "F.Cu" "F.Paste" "F.Mask") (roundrect_rratio 0.25) (tstamp 739f3fa7-2d7c-4f2f-bde6-322ada28833c))
  (pad "20" smd roundrect (at -2.2 1.355) (size 0.23 0.66) (layers "F.Cu" "F.Paste" "F.Mask") (roundrect_rratio 0.25) (tstamp 7fa0d197-0142-415a-aff4-e03d94d3b267))
  (pad "21" smd roundrect (at -1.8 -1.355) (size 0.23 0.66) (layers "F.Cu" "F.Paste" "F.Mask") (roundrect_rratio 0.25) (tstamp 693e85a0-90d5-4c50-8ff4-b9ee3e942d44))
  (pad "22" smd roundrect (at -1.8 1.355) (size 0.23 0.66) (layers "F.Cu" "F.Paste" "F.Mask") (roundrect_rratio 0.25) (tstamp fbbc74eb-58b6-49f8-bf34-e1632ff46b89))
  (pad "23" smd roundrect (at -1.4 -1.355) (size 0.23 0.66) (layers "F.Cu" "F.Paste" "F.Mask") (roundrect_rratio 0.25) (tstamp fd9cd7cc-326b-44e1-b12c-f9b30c2f833c))
  (pad "24" smd roundrect (at -1.4 1.355) (size 0.23 0.66) (layers "F.Cu" "F.Paste" "F.Mask") (roundrect_rratio 0.25) (tstamp 6ef7a384-adc7-4db6-80af-cc7ce3c40d80))
  (pad "25" smd roundrect (at -1 -1.355) (size 0.23 0.66) (layers "F.Cu" "F.Paste" "F.Mask") (roundrect_rratio 0.25) (tstamp ed9ad0b4-1fff-4286-9b1b-aaa2e572234c))
  (pad "26" smd roundrect (at -1 1.355) (size 0.23 0.66) (layers "F.Cu" "F.Paste" "F.Mask") (roundrect_rratio 0.25) (tstamp 8073d928-20da-486f-bc7b-989ea51b5caa))
  (pad "27" smd roundrect (at -0.6 -1.355) (size 0.23 0.66) (layers "F.Cu" "F.Paste" "F.Mask") (roundrect_rratio 0.25) (tstamp bfeb8e1a-25fa-44b8-9e25-61925e656337))
  (pad "28" smd roundrect (at -0.6 1.355) (size 0.23 0.66) (layers "F.Cu" "F.Paste" "F.Mask") (roundrect_rratio 0.25) (tstamp 5d5a0608-2971-4242-a157-cb99e16cbac1))
  (pad "29" smd roundrect (at -0.2 -1.355) (size 0.23 0.66) (layers "F.Cu" "F.Paste" "F.Mask") (roundrect_rratio 0.25) (tstamp 06531ad9-b4d8-4d27-bfec-8ba640c2436d))
  (pad "30" smd roundrect (at -0.2 1.355) (size 0.23 0.66) (layers "F.Cu" "F.Paste" "F.Mask") (roundrect_rratio 0.25) (tstamp 78f6118c-864c-4f0e-ba73-9048f51cce02))
  (pad "31" smd roundrect (at 0.2 -1.355) (size 0.23 0.66) (layers "F.Cu" "F.Paste" "F.Mask") (roundrect_rratio 0.25) (tstamp 9dae57f3-f1a5-4303-ab47-e1776704c245))
  (pad "32" smd roundrect (at 0.2 1.355) (size 0.23 0.66) (layers "F.Cu" "F.Paste" "F.Mask") (roundrect_rratio 0.25) (tstamp 6198cf42-3b3b-4e17-a03f-64b14351ee0f))
  (pad "33" smd roundrect (at 0.6 -1.355) (size 0.23 0.66) (layers "F.Cu" "F.Paste" "F.Mask") (roundrect_rratio 0.25) (tstamp 8b4cf359-cf60-4df0-992d-bae55c4fcb3e))
  (pad "34" smd roundrect (at 0.6 1.355) (size 0.23 0.66) (layers "F.Cu" "F.Paste" "F.Mask") (roundrect_rratio 0.25) (tstamp 102e1b5e-947b-4f1b-b5b3-810836c6cec5))
  (pad "35" smd roundrect (at 1 -1.355) (size 0.23 0.66) (layers "F.Cu" "F.Paste" "F.Mask") (roundrect_rratio 0.25) (tstamp c2aabc24-1794-4403-b35a-b9a128a0fc87))
  (pad "36" smd roundrect (at 1 1.355) (size 0.23 0.66) (layers "F.Cu" "F.Paste" "F.Mask") (roundrect_rratio 0.25) (tstamp 3901007b-1b6a-4f8f-a888-a7faa24bf3cf))
  (pad "37" smd roundrect (at 1.4 -1.355) (size 0.23 0.66) (layers "F.Cu" "F.Paste" "F.Mask") (roundrect_rratio 0.25) (tstamp 2cf5390b-7120-4a79-9177-839bf122e23b))
  (pad "38" smd roundrect (at 1.4 1.355) (size 0.23 0.66) (layers "F.Cu" "F.Paste" "F.Mask") (roundrect_rratio 0.25) (tstamp f214789e-c2e5-42f8-ae28-fc21a8051402))
  (pad "39" smd roundrect (at 1.8 -1.355) (size 0.23 0.66) (layers "F.Cu" "F.Paste" "F.Mask") (roundrect_rratio 0.25) (tstamp 7bb53ff3-a729-452a-885a-ab015522c46f))
  (pad "40" smd roundrect (at 1.8 1.355) (size 0.23 0.66) (layers "F.Cu" "F.Paste" "F.Mask") (roundrect_rratio 0.25) (tstamp a5c8a165-ac58-4e5d-ae8d-7bd64de8192e))
  (pad "41" smd roundrect (at 2.2 -1.355) (size 0.23 0.66) (layers "F.Cu" "F.Paste" "F.Mask") (roundrect_rratio 0.25) (tstamp f70b73aa-d70c-4b6f-9e66-023ac820a7db))
  (pad "42" smd roundrect (at 2.2 1.355) (size 0.23 0.66) (layers "F.Cu" "F.Paste" "F.Mask") (roundrect_rratio 0.25) (tstamp c52a00a4-1887-4f87-862a-5f2886c7ee0b))
  (pad "43" smd roundrect (at 2.6 -1.355) (size 0.23 0.66) (layers "F.Cu" "F.Paste" "F.Mask") (roundrect_rratio 0.25) (tstamp 274226ed-9d86-42d3-9f8a-8d0ecdd127e4))
  (pad "44" smd roundrect (at 2.6 1.355) (size 0.23 0.66) (layers "F.Cu" "F.Paste" "F.Mask") (roundrect_rratio 0.25) (tstamp e7a776f3-45f0-4e2d-be5a-da0448d44b30))
  (pad "45" smd roundrect (at 3 -1.355) (size 0.23 0.66) (layers "F.Cu" "F.Paste" "F.Mask") (roundrect_rratio 0.25) (tstamp 099cec65-e334-4040-8ed8-96d4b4e4a2cf))
  (pad "46" smd roundrect (at 3 1.355) (size 0.23 0.66) (layers "F.Cu" "F.Paste" "F.Mask") (roundrect_rratio 0.25) (tstamp e1f598fd-91d2-489c-be4f-7c0005340322))
  (pad "47" smd roundrect (at 3.4 -1.355) (size 0.23 0.66) (layers "F.Cu" "F.Paste" "F.Mask") (roundrect_rratio 0.25) (tstamp 015820fb-2a5e-4112-9a09-1ad150d77ed4))
  (pad "48" smd roundrect (at 3.4 1.355) (size 0.23 0.66) (layers "F.Cu" "F.Paste" "F.Mask") (roundrect_rratio 0.25) (tstamp 890b290c-9239-4d33-9b60-c075acbb0718))
  (pad "49" smd roundrect (at 3.8 -1.355) (size 0.23 0.66) (layers "F.Cu" "F.Paste" "F.Mask") (roundrect_rratio 0.25) (tstamp b4f24652-15f5-42c0-91fb-e14af1684ec2))
  (pad "50" smd roundrect (at 3.8 1.355) (size 0.23 0.66) (layers "F.Cu" "F.Paste" "F.Mask") (roundrect_rratio 0.25) (tstamp e1ccf784-9230-40a3-8df5-efca24122618))
  (pad "51" smd roundrect (at 4.2 -1.355) (size 0.23 0.66) (layers "F.Cu" "F.Paste" "F.Mask") (roundrect_rratio 0.25) (tstamp aae9fd07-e1d0-45e7-a1e4-f3c75d4824c2))
  (pad "52" smd roundrect (at 4.2 1.355) (size 0.23 0.66) (layers "F.Cu" "F.Paste" "F.Mask") (roundrect_rratio 0.25) (tstamp 9bd08580-6807-41b4-a3bc-e5e97e229d4d))
  (pad "53" smd roundrect (at 4.6 -1.355) (size 0.23 0.66) (layers "F.Cu" "F.Paste" "F.Mask") (roundrect_rratio 0.25) (tstamp 7b1ed140-0482-4886-8971-cd39ebba3d59))
  (pad "54" smd roundrect (at 4.6 1.355) (size 0.23 0.66) (layers "F.Cu" "F.Paste" "F.Mask") (roundrect_rratio 0.25) (tstamp 176ea18a-ad66-4088-add3-23a02ff61c60))
  (pad "55" smd roundrect (at 5 -1.355) (size 0.23 0.66) (layers "F.Cu" "F.Paste" "F.Mask") (roundrect_rratio 0.25) (tstamp 272b219a-ef02-4923-8da5-3ed114966b51))
  (pad "56" smd roundrect (at 5 1.355) (size 0.23 0.66) (layers "F.Cu" "F.Paste" "F.Mask") (roundrect_rratio 0.25) (tstamp 5a8a0a2b-0c4d-4a4d-9575-6ed8427a18de))
  (pad "57" smd roundrect (at 5.4 -1.355) (size 0.23 0.66) (layers "F.Cu" "F.Paste" "F.Mask") (roundrect_rratio 0.25) (tstamp dd70b659-de22-4748-9107-29156e288376))
  (pad "58" smd roundrect (at 5.4 1.355) (size 0.23 0.66) (layers "F.Cu" "F.Paste" "F.Mask") (roundrect_rratio 0.25) (tstamp c467ba8f-2b4b-492f-8dc5-6a2458c3d6ae))
  (pad "59" smd roundrect (at 5.8 -1.355) (size 0.23 0.66) (layers "F.Cu" "F.Paste" "F.Mask") (roundrect_rratio 0.25) (tstamp 3d02cbbc-7c53-435d-ab9c-10f402652afc))
  (pad "60" smd roundrect (at 5.8 1.355) (size 0.23 0.66) (layers "F.Cu" "F.Paste" "F.Mask") (roundrect_rratio 0.25) (tstamp 0935f3d0-eaa7-4235-9cf2-40f2e11a35b3))
  (pad "MP" smd roundrect (at -6.275 -1.355) (size 0.35 0.66) (layers "F.Cu" "F.Paste" "F.Mask") (roundrect_rratio 0.25) (tstamp 18b5e597-b9ec-44e2-a4fb-d7d35e39e4cb))
  (pad "MP" smd roundrect (at 6.275 -1.355) (size 0.35 0.66) (layers "F.Cu" "F.Paste" "F.Mask") (roundrect_rratio 0.25) (tstamp 5de78a29-6e2a-4cd7-b86d-06d3d5f5e94c))
  (pad "MP" smd roundrect (at 6.275 1.355) (size 0.35 0.66) (layers "F.Cu" "F.Paste" "F.Mask") (roundrect_rratio 0.25) (tstamp 73666ca6-bece-46cd-bb9b-10d4d62abeab))
  (pad "MP" smd roundrect (at -6.275 1.355) (size 0.35 0.66) (layers "F.Cu" "F.Paste" "F.Mask") (roundrect_rratio 0.25) (tstamp e92bed6f-4a9d-4448-baf4-6fca43c76ddc))
  (model "${KICAD6_3DMODEL_DIR}/Connector_Hirose.3dshapes/DF40C-60DP.stp"
    (offset (xyz -6.758 0.85 0.7))
    (scale (xyz 1 1 1))
    (rotate (xyz -90 0 -90))
  )
)
