(module Servo_SG90 (layer F.Cu) (tedit 5B49B0A2)
  (fp_text reference REF** (at 0 -7) (layer F.SilkS)
    (effects (font (size 1 1) (thickness 0.15)))
  )
  (fp_text value Servo_SG90 (at 5 0) (layer F.Fab)
    (effects (font (size 1 1) (thickness 0.15)))
  )
  (fp_line (start -11.25 -5.9) (end 11.25 -5.9) (layer F.Fab) (width 0.05))
  (fp_line (start 11.25 -5.9) (end 11.25 5.9) (layer F.Fab) (width 0.05))
  (fp_line (start 11.25 5.9) (end -11.25 5.9) (layer F.Fab) (width 0.05))
  (fp_line (start -11.25 5.9) (end -11.25 -5.9) (layer F.Fab) (width 0.05))
  (fp_arc (start -11.35 -5) (end -11.35 -6) (angle -180) (layer Edge.Cuts) (width 0.05))
  (fp_arc (start -11.35 5) (end -11.35 4) (angle -180) (layer Edge.Cuts) (width 0.05))
  (fp_arc (start 11.35 -5) (end 11.35 -4) (angle -180) (layer Edge.Cuts) (width 0.05))
  (fp_arc (start 11.35 5) (end 11.35 6) (angle -180) (layer Edge.Cuts) (width 0.05))
  (fp_circle (center -5.35 0) (end -3.05 0) (layer F.Fab) (width 0.05))
  (fp_line (start -11.25 -5.9) (end -15.95 -5.9) (layer F.Fab) (width 0.05))
  (fp_line (start -15.95 -5.9) (end -15.95 5.9) (layer F.Fab) (width 0.05))
  (fp_line (start -15.95 5.9) (end -11.25 5.9) (layer F.Fab) (width 0.05))
  (fp_line (start 11.25 -5.9) (end 15.95 -5.9) (layer F.Fab) (width 0.05))
  (fp_line (start 15.95 -5.9) (end 15.95 5.9) (layer F.Fab) (width 0.05))
  (fp_line (start 15.95 5.9) (end 11.25 5.9) (layer F.Fab) (width 0.05))
  (fp_line (start 11.35 4) (end 11.35 -4) (layer Edge.Cuts) (width 0.05))
  (fp_line (start -11.35 4) (end -11.35 -4) (layer Edge.Cuts) (width 0.05))
  (fp_line (start -11.35 -6) (end 11.35 -6) (layer Edge.Cuts) (width 0.05))
  (fp_line (start -11.35 6) (end 11.35 6) (layer Edge.Cuts) (width 0.05))
  (fp_line (start -11.25 -5.9) (end -11.25 -6.5) (layer F.SilkS) (width 0.05))
  (fp_line (start 11.25 -5.9) (end 11.25 -6.5) (layer F.SilkS) (width 0.05))
  (pad "" np_thru_hole circle (at -13.8 0) (size 2.2 2.2) (drill 2.2) (layers *.Cu *.Mask))
  (pad "" np_thru_hole circle (at 13.8 0) (size 2.2 2.2) (drill 2.2) (layers *.Cu *.Mask))
  (model "${KICAD6_3DMODEL_DIR}/Electromechanical.3dshapes/Tower Pro SG90 Servo v7.step"
    (offset (xyz 0 0 -20))
    (scale (xyz 1 1 1))
    (rotate (xyz -90 0 -180))
  )
)
