(module Servo_SG90_standing (layer F.Cu) (tedit 5C1BC5F3)
  (fp_text reference REF** (at 0 -3.5) (layer F.SilkS)
    (effects (font (size 1 1) (thickness 0.15)))
  )
  (fp_text value Servo_SG90 (at 0 14.05 180) (layer F.Fab)
    (effects (font (size 1 1) (thickness 0.15)))
  )
  (fp_line (start -5.9 0) (end -5.9 -2.5) (layer F.Fab) (width 0.05))
  (fp_line (start 5.9 -2.5) (end -5.9 -2.5) (layer F.Fab) (width 0.05))
  (fp_line (start -5.9 -2.5) (end -5.9 -6.8) (layer F.Fab) (width 0.05))
  (fp_line (start -5.9 -6.8) (end 5.9 -6.8) (layer F.Fab) (width 0.05))
  (fp_line (start 5.9 -6.8) (end 5.9 -2.5) (layer F.Fab) (width 0.05))
  (fp_line (start 5.9 -2.5) (end 5.9 0) (layer F.Fab) (width 0.05))
  (fp_line (start -5.9 0) (end 5.9 0) (layer F.Fab) (width 0.05))
  (fp_line (start 5.9 0) (end 5.9 15.9) (layer F.Fab) (width 0.05))
  (fp_line (start 5.9 15.9) (end -5.9 15.9) (layer F.Fab) (width 0.05))
  (fp_line (start -5.9 15.9) (end -5.9 0) (layer F.Fab) (width 0.05))
  (fp_line (start -5.9 -6.8) (end -5.9 -10.8) (layer F.Fab) (width 0.05))
  (fp_line (start -5.9 -10.8) (end 5.9 -10.8) (layer F.Fab) (width 0.05))
  (fp_line (start 5.9 -10.8) (end 5.9 -6.8) (layer F.Fab) (width 0.05))
  (fp_line (start -2.3 -10.8) (end -2.3 -13.95) (layer F.Fab) (width 0.05))
  (fp_line (start -2.3 -13.95) (end 2.3 -13.95) (layer F.Fab) (width 0.05))
  (fp_line (start 2.3 -13.95) (end 2.3 -10.8) (layer F.Fab) (width 0.05))
  (fp_line (start 0 -13.95) (end 0 10.8) (layer F.Fab) (width 0.15))
  (pad 1 thru_hole circle (at -6.35 -7.25) (size 1.6 1.6) (drill 1) (layers *.Cu *.Mask))
  (pad 1 thru_hole circle (at -6.35 -3.4) (size 1.6 1.6) (drill 1) (layers *.Cu *.Mask))
  (pad 1 thru_hole circle (at 6.35 -3.4) (size 1.6 1.6) (drill 1) (layers *.Cu *.Mask))
  (pad 1 thru_hole circle (at 6.35 -7.25) (size 1.6 1.6) (drill 1) (layers *.Cu *.Mask))
  (pad 1 thru_hole circle (at 6.35 0.9) (size 1.6 1.6) (drill 1) (layers *.Cu *.Mask))
  (pad 1 thru_hole circle (at 6.35 13.4) (size 1.6 1.6) (drill 1) (layers *.Cu *.Mask))
  (pad 1 thru_hole circle (at -6.35 13.4) (size 1.6 1.6) (drill 1) (layers *.Cu *.Mask))
  (pad 1 thru_hole circle (at -6.35 0.9) (size 1.6 1.6) (drill 1) (layers *.Cu *.Mask))
  (pad "" np_thru_hole oval (at 0 -1.25) (size 13.4 2.6) (drill oval 13.4 2.6) (layers *.Cu *.Mask))
  (pad "" np_thru_hole oval (at 0 10.8) (size 10.3 2.6) (drill oval 10.3 2.6) (layers *.Cu *.Mask))
  (model "${KICAD6_3DMODEL_DIR}/Electromechanical.3dshapes/Tower Pro SG90 Servo v7.step"
    (offset (xyz 0 -15.7 -13.05))
    (scale (xyz 1 1 1))
    (rotate (xyz 0 90 0))
  )
)
