(footprint "MR60PW-M" (version 20210424) (generator pcbnew) (layer "F.Cu")
  (tedit 60B63268)
  (property "Sheetfile" "ESC12S30.kicad_sch")
  (property "Sheetname" "")
  (fp_text reference "J2" (at -10.5 0.3 -90 unlocked) (layer "F.SilkS")
    (effects (font (size 1 1) (thickness 0.15)) (justify left))
    (tstamp 76b75a60-6bd3-4654-a9e7-44a7a6c9962f)
  )
  (fp_text value "MOTOR" (at -0.525 -1.65 unlocked) (layer "F.Fab")
    (effects (font (size 1 1) (thickness 0.15)))
    (tstamp 086b9ea9-b34e-4104-9456-14f2a7030c88)
  )
  (fp_text user "${REF}" (at -4.5 2.8 unlocked) (layer "F.Fab")
    (effects (font (size 1 1) (thickness 0.15)))
    (tstamp c0d68f92-4eef-4957-bfc3-72169f6df30d)
  )
  (fp_arc (start -9.45 19.350001) (end -9.525 19.35) (angle -90) (layer "F.SilkS") (width 0.15) (tstamp 5006f2d9-7c6a-433c-8795-f6a5582d891c))
  (fp_arc (start 9.450001 19.35) (end 9.45 19.425) (angle -90) (layer "F.SilkS") (width 0.15) (tstamp 868885c7-e617-44e9-92ba-c578d095eb5d))
  (fp_poly (pts (xy -9.45 19.35)
    (xy -8.1 19.35)
    (xy -8.1 19.5)
    (xy -9.45 19.5)
    (xy -9.6 19.35)
    (xy -9.6 18)
    (xy -9.45 18)) (layer "F.SilkS") (width 0) (fill solid) (tstamp 12fabfc9-59ff-43b0-93fa-eb48d4ef9c7d))
  (fp_poly (pts (xy 9.45 19.35)
    (xy 9.45 18)
    (xy 9.6 18)
    (xy 9.6 19.35)
    (xy 9.45 19.5)
    (xy 8.1 19.5)
    (xy 8.1 19.35)) (layer "F.SilkS") (width 0) (fill solid) (tstamp 17a1bd0d-bc2c-416f-9d06-d4b35a5ddc63))
  (fp_line (start 10.125 -2.8) (end 9.65 -12.55) (layer "Dwgs.User") (width 0.1) (tstamp 2a6cf470-dbbe-45a0-b175-63f8df8c331e))
  (fp_line (start -10.125 -2.8) (end -9.65 -12.55) (layer "Dwgs.User") (width 0.1) (tstamp 2e069dc2-3b05-4708-b057-ed5fe1691b98))
  (fp_line (start 10.125 0) (end 10.125 -2.8) (layer "Dwgs.User") (width 0.1) (tstamp 3e3b4455-dd4e-4b96-b257-504b09a1f083))
  (fp_line (start -10.125 -2.8) (end 10.125 -2.8) (layer "Dwgs.User") (width 0.1) (tstamp 9c34ba81-53bf-4b2b-bea6-d72a34f6a870))
  (fp_line (start 9.65 -12.55) (end -9.65 -12.55) (layer "Dwgs.User") (width 0.1) (tstamp cec76e88-e61b-409a-942a-bb434aa5615f))
  (fp_line (start -10.125 0) (end 10.125 0) (layer "Dwgs.User") (width 0.1) (tstamp df875477-5978-459b-9968-c1babe5230b0))
  (fp_line (start -10.125 0) (end -10.125 -2.8) (layer "Dwgs.User") (width 0.1) (tstamp ecc675e8-f3e9-4f9a-abe0-04fc8d491bd3))
  (fp_line (start 10.15 19.5) (end 10.15 -12.55) (layer "F.CrtYd") (width 0.05) (tstamp 3104d259-a239-47e6-abf0-18c5e7d40849))
  (fp_line (start -9.65 20) (end 9.65 20) (layer "F.CrtYd") (width 0.05) (tstamp 41a4e83c-31f3-41c5-8c8b-e46b5a008267))
  (fp_line (start -10.15 -12.55) (end -10.15 19.5) (layer "F.CrtYd") (width 0.05) (tstamp 554042b8-efd3-43e6-b794-af716b7f37bb))
  (fp_line (start 9.65 -13.05) (end -9.65 -13.05) (layer "F.CrtYd") (width 0.05) (tstamp dcfc2010-183a-4fb6-9972-1e26fa5069fe))
  (fp_arc (start 9.65 -12.55) (end 10.15 -12.55) (angle -90) (layer "F.CrtYd") (width 0.05) (tstamp 31936f65-87f7-4d8b-9696-37b9fdac959a))
  (fp_arc (start 9.65 19.5) (end 9.65 20) (angle -90) (layer "F.CrtYd") (width 0.05) (tstamp 84605e1c-43c2-4807-acd2-dfd67211b6a4))
  (fp_arc (start -9.65 -12.55) (end -9.65 -13.05) (angle -90) (layer "F.CrtYd") (width 0.05) (tstamp c89e614a-df00-4fa7-bfaf-5ae3a5bccc3f))
  (fp_arc (start -9.65 19.5) (end -10.15 19.5) (angle -90) (layer "F.CrtYd") (width 0.05) (tstamp f6edab4c-c1b6-4992-ba23-b29685cf7f9c))
  (fp_line (start -9.6 19.5) (end 9.6 19.5) (layer "F.Fab") (width 0.1) (tstamp 4e75a716-e4df-4cfd-9cd5-75b24c4271de))
  (fp_line (start 9.6 0) (end -9.6 0) (layer "F.Fab") (width 0.1) (tstamp 72702e7d-0d04-488b-9ff0-90ffaa2b3d73))
  (fp_line (start 9.6 19.5) (end 9.6 0) (layer "F.Fab") (width 0.1) (tstamp ad7655b1-5251-4284-ad9e-d77655e864bf))
  (fp_line (start -9.6 0) (end -9.6 19.5) (layer "F.Fab") (width 0.1) (tstamp f50af3d0-9838-4b7e-919d-e00d8064143c))
  (pad "1" thru_hole circle (at -5.5 17.4) (size 3.7 3.7) (drill 2.7) (layers *.Cu *.Mask) (remove_unused_layers) (keep_end_layers) (tstamp 62baa81c-0ca3-450c-8b84-28e7949f70d2))
  (pad "1" smd oval (at -5.5 17.4) (size 3.7 5.7) (drill (offset 0 -1)) (layers "B.Cu" "B.Mask") (tstamp e5e84e3f-53a2-4a65-9ddb-8f961620415f))
  (pad "2" smd oval (at 0 17.4) (size 3.7 5.7) (drill (offset 0 -1)) (layers "B.Cu" "B.Mask") (tstamp bd51232f-6f04-4fa2-adb9-d1afae5828b5))
  (pad "2" thru_hole circle (at 0 17.4) (size 3.7 3.7) (drill 2.7) (layers *.Cu *.Mask) (remove_unused_layers) (keep_end_layers) (tstamp d4f89ee4-b162-45c9-98b6-2c959ac36b95))
  (pad "3" thru_hole circle (at 5.5 17.4) (size 3.7 3.7) (drill 2.7) (layers *.Cu *.Mask) (remove_unused_layers) (keep_end_layers) (tstamp 4132f4b7-e27f-4523-98e9-62e40ca07be7))
  (pad "3" smd oval (at 5.5 17.4) (size 3.7 5.7) (drill (offset 0 -1)) (layers "B.Cu" "B.Mask") (tstamp c26ecd22-6388-457c-a33a-6d310f50ad38))
  (pad "MP" thru_hole oval (at -8.55 11.4) (size 1.2 2.1) (drill oval 0.6 1.5) (layers *.Cu *.Mask) (remove_unused_layers) (keep_end_layers) (tstamp 5b3f000c-bcf3-4be1-bdba-de13eb989780))
  (pad "MP" thru_hole oval (at 8.6 11.4) (size 1.2 2.1) (drill oval 0.6 1.5) (layers *.Cu *.Mask) (remove_unused_layers) (keep_end_layers) (tstamp 62f9abcc-7c43-4497-933f-26e37b08952c))
  (group "" (id 9b0eb0f1-290b-43f1-b9be-cb24aa3046cc)
    (members
      12fabfc9-59ff-43b0-93fa-eb48d4ef9c7d
      5006f2d9-7c6a-433c-8795-f6a5582d891c
    )
  )
  (group "" (id be29ad89-a5e9-43fd-a54d-a042ff186c64)
    (members
      17a1bd0d-bc2c-416f-9d06-d4b35a5ddc63
      868885c7-e617-44e9-92ba-c578d095eb5d
    )
  )
  (model "${KICAD6_3DMODEL_DIR}/Connector_AMASS.3dshapes/MR60PW-M.STEP"
    (offset (xyz 1.9 -6.8 8.45))
    (scale (xyz 1 1 1))
    (rotate (xyz 0 0 -180))
  )
)
