(footprint "10055_A" (version 20210108) (generator pcbnew) (layer "F.Cu")
  (tedit 601040BF)
  (property "MPN" "HoLRS1050-0.2mR-1%")
  (property "Sheet file" "phase_driver.kicad_sch")
  (property "Sheet name" "Phase C")
  (property "USD_per_1" "0,08")
  (property "USD_per_1000" "0,024")
  (zone_connect 2)
  (attr smd)
  (fp_text reference "R2" (at 0 -3.525 unlocked) (layer "F.SilkS")
    (effects (font (size 0.8 0.8) (thickness 0.15)))
    (tstamp 0afa3c77-f17e-4417-8196-ff2b448007e3)
  )
  (fp_text value "0.2m" (at 0 -2.3 unlocked) (layer "F.Fab")
    (effects (font (size 0.5 0.5) (thickness 0.125)))
    (tstamp 1b0d9fec-90ad-42c7-a837-23e1b17f1296)
  )
  (fp_text user "${REF}" (at 0 -1.55 unlocked) (layer "F.Fab")
    (effects (font (size 0.5 0.5) (thickness 0.125)))
    (tstamp b5bff09a-545a-4264-8839-79c9a4646e93)
  )
  (fp_rect (start -2.65 -2.8) (end 2.65 -2.95) (layer "F.SilkS") (width 0) (fill solid) (tstamp 8253d026-f489-43b7-b428-15e1c2a26c88))
  (fp_rect (start -2.65 2.95) (end 2.65 2.8) (layer "F.SilkS") (width 0) (fill solid) (tstamp de8ba9be-22a4-4acc-af69-d96559bf7827))
  (fp_line (start -5 3.4) (end 5 3.4) (layer "F.CrtYd") (width 0.05) (tstamp 0f51a690-934f-4942-9ca6-291c1e171f54))
  (fp_line (start -5 -3.4) (end 5 -3.4) (layer "F.CrtYd") (width 0.05) (tstamp 2ae96aec-4390-4f27-b664-ca30eac8da63))
  (fp_line (start -5.65 2.75) (end -5.65 -2.75) (layer "F.CrtYd") (width 0.05) (tstamp c45d9abb-d16c-4c84-b922-00d37ba3a980))
  (fp_line (start 5.65 -2.75) (end 5.65 2.75) (layer "F.CrtYd") (width 0.05) (tstamp e57a1292-a416-4069-b483-0932fbdc1bcf))
  (fp_arc (start -5 2.75) (end -5.65 2.75) (angle -90) (layer "F.CrtYd") (width 0.05) (tstamp 1dcb96ba-0e2c-48d0-9da6-bfda03a75ee1))
  (fp_arc (start -5 -2.75) (end -5 -3.4) (angle -90) (layer "F.CrtYd") (width 0.05) (tstamp 3ac2b478-1bd7-4ad9-85de-a18c218dea48))
  (fp_arc (start 5 2.75) (end 5 3.4) (angle -90) (layer "F.CrtYd") (width 0.05) (tstamp 4dd1b1e6-b9b0-48cb-8585-adc050e8935e))
  (fp_arc (start 5 -2.75) (end 5.65 -2.75) (angle -90) (layer "F.CrtYd") (width 0.05) (tstamp e5c55623-260a-4564-9747-aeba048e9772))
  (fp_line (start -2.8 -2.7) (end -2.8 2.7) (layer "F.Fab") (width 0.1) (tstamp 1caf95aa-f005-489a-bee3-9e6e191b75d6))
  (fp_line (start 2.5 -2.75) (end 2.5 2.75) (layer "F.Fab") (width 0.1) (tstamp 3ba65139-aa55-41ad-a12b-e1a3b6e2771c))
  (fp_line (start 5 -2.75) (end 5 2.75) (layer "F.Fab") (width 0.1) (tstamp 4bd4b9a8-c223-467b-9ac4-7a6eee9a0da5))
  (fp_line (start -5 -2.75) (end 5 -2.75) (layer "F.Fab") (width 0.1) (tstamp 621ae2e6-89e8-4f72-b63e-ed5defc8ed04))
  (fp_line (start 2.8 -2.75) (end 2.8 2.7) (layer "F.Fab") (width 0.1) (tstamp 9f5d0f8f-e436-4c1c-b0b4-7384fff019d5))
  (fp_line (start -5 2.75) (end -5 -2.75) (layer "F.Fab") (width 0.1) (tstamp d6b900cd-1eff-42ac-bda7-ccf9a8d73867))
  (fp_line (start 5 2.75) (end -5 2.75) (layer "F.Fab") (width 0.1) (tstamp da712bbd-7611-4e58-869b-37b6267423b4))
  (fp_line (start -2.5 -2.75) (end -2.5 2.75) (layer "F.Fab") (width 0.1) (tstamp fab1298d-143d-4267-89ca-bd6f1617875c))
  (fp_arc (start 0 7.679344) (end -2.5 2.75) (angle 53.78522796) (layer "F.Fab") (width 0.1) (tstamp 55078158-70da-46be-96f9-97987ed8e004))
  (pad "1" smd roundrect (at -4.15 0) (size 2.7 6.5) (layers "F.Cu" "F.Paste" "F.Mask") (roundrect_rratio 0.185)
    (zone_connect 2) (tstamp 1484760a-7ec2-412e-9d8a-ec1a2fb48601))
  (pad "2" smd roundrect (at 4.15 0) (size 2.7 6.5) (layers "F.Cu" "F.Paste" "F.Mask") (roundrect_rratio 0.185)
    (zone_connect 2) (tstamp aee4c85a-82f8-47a0-99e1-21b5877d593b))
  (model "${KICAD6_3DMODEL_DIR}/Resistor_SMD.3dshapes/Resistor_SMD_10055.step"
    (offset (xyz 0 0 0))
    (scale (xyz 1 1 1))
    (rotate (xyz -90 0 0))
  )
)
