(footprint "SPDT_Slide_HRO_K3-1293S" (version 20210108) (generator pcbnew) (layer "F.Cu")
  (tedit 60007E62)
  (property "MPN" "K3-1293S")
  (property "Sheet file" "UniversalRoboticsController.kicad_sch")
  (property "Sheet name" "")
  (property "USD_per_1" "0.2108")
  (attr smd)
  (fp_text reference "SW2" (at 0 -0.775 unlocked) (layer "F.Fab")
    (effects (font (size 0.8 0.8) (thickness 0.15)))
    (tstamp de1abb0e-5770-401d-8e13-dbe4c6358757)
  )
  (fp_text value "RESET" (at 0 2.25 unlocked) (layer "F.SilkS")
    (effects (font (size 0.8 0.8) (thickness 0.15)) (justify right))
    (tstamp 267c6e8e-ab8a-40a6-b5e4-a046e35616dd)
  )
  (fp_text user "${REF}" (at 0 1 unlocked) (layer "F.Fab")
    (effects (font (size 0.2 0.2) (thickness 0.05)))
    (tstamp f2634faa-a94a-43e8-b394-37e4b02eb625)
  )
  (fp_poly (pts (xy -1.45 -1.5)
    (xy -2.5 -1.5)
    (xy -2.5 -1.65)
    (xy -1.45 -1.65)) (layer "F.SilkS") (width 0) (fill solid) (tstamp 0a5d1c4a-1777-4620-ad59-4b33fd1d63f0))
  (fp_poly (pts (xy 2.75 0.55)
    (xy 2.6 0.55)
    (xy 2.6 -0.55)
    (xy 2.75 -0.55)) (layer "F.SilkS") (width 0) (fill solid) (tstamp 6d601b76-1505-4bea-8e7c-ff9570322b7a))
  (fp_poly (pts (xy -2.6 0.55)
    (xy -2.75 0.55)
    (xy -2.75 -0.55)
    (xy -2.6 -0.55)) (layer "F.SilkS") (width 0) (fill solid) (tstamp c6bd7a16-122a-44d7-853b-90a43057764a))
  (fp_poly (pts (xy 2.5 -1.5)
    (xy 1.45 -1.5)
    (xy 1.45 -1.65)
    (xy 2.5 -1.65)) (layer "F.SilkS") (width 0) (fill solid) (tstamp d16f7d8c-5d2a-4a8d-ac78-ea62dd13f22a))
  (fp_line (start -3.15 0.4) (end -2.75 0.4) (layer "F.CrtYd") (width 0.05) (tstamp 0e895326-e7ea-47b7-9d29-18ad22980e4c))
  (fp_line (start 1.65 2.875) (end 1.65 1.8) (layer "F.CrtYd") (width 0.05) (tstamp 1a326189-a9a4-491a-b3d8-8c5b41d1f426))
  (fp_line (start 3.15 1.8) (end 1.65 1.8) (layer "F.CrtYd") (width 0.05) (tstamp 261508f6-5519-468c-802a-ced54d7b12d9))
  (fp_line (start -1.65 1.8) (end -3.15 1.8) (layer "F.CrtYd") (width 0.05) (tstamp 2aba0300-3acf-4eba-aaf8-d9f60d61bd99))
  (fp_line (start 2.75 0.4) (end 2.75 -0.4) (layer "F.CrtYd") (width 0.05) (tstamp 3cd6bc46-f4f3-49ee-bd85-95b0749beff2))
  (fp_line (start 3.6 0.85) (end 3.6 1.35) (layer "F.CrtYd") (width 0.05) (tstamp 491ed051-af40-48d3-8abf-ce90ece9b419))
  (fp_line (start 1.6 -1.8) (end 3.15 -1.8) (layer "F.CrtYd") (width 0.05) (tstamp 4e0f4ad6-b6f0-42c9-bb8b-41a92becd56c))
  (fp_line (start -1.65 2.875) (end -1.65 1.8) (layer "F.CrtYd") (width 0.05) (tstamp 72d3f71e-92e2-4475-9262-6c9ab20fdcff))
  (fp_line (start 3.15 0.4) (end 2.75 0.4) (layer "F.CrtYd") (width 0.05) (tstamp 8e4b5520-5a51-4422-a402-aa0c28fc0201))
  (fp_line (start -1.6 -1.8) (end -1.6 -2.5) (layer "F.CrtYd") (width 0.05) (tstamp 95795323-cc71-4e82-8432-d33a015d0e4d))
  (fp_line (start -3.15 -1.8) (end -1.6 -1.8) (layer "F.CrtYd") (width 0.05) (tstamp 97b855bb-b32f-4bbd-b750-c068186067b9))
  (fp_line (start 2.75 -0.4) (end 3.15 -0.4) (layer "F.CrtYd") (width 0.05) (tstamp 9f3040c6-8e40-49ae-8a36-61f50cfcc5ae))
  (fp_line (start -1.15 -2.95) (end 1.15 -2.95) (layer "F.CrtYd") (width 0.05) (tstamp 9f4764b0-69bd-4fd0-a529-3be6b1d01c8c))
  (fp_line (start 3.6 -1.375) (end 3.6 -0.85) (layer "F.CrtYd") (width 0.05) (tstamp a74f2848-eba7-4b52-a9a2-de8ffcb04c33))
  (fp_line (start 1.6 -2.5) (end 1.6 -1.8) (layer "F.CrtYd") (width 0.05) (tstamp bf006073-7318-4c6a-9766-91322fbad130))
  (fp_line (start -3.6 -0.85) (end -3.6 -1.35) (layer "F.CrtYd") (width 0.05) (tstamp d2364b9a-d944-4a0d-97f0-66723bb6c033))
  (fp_line (start -2.75 0.4) (end -2.75 -0.4) (layer "F.CrtYd") (width 0.05) (tstamp d41488e0-3616-469c-b0d9-e1221c619f50))
  (fp_line (start -2.75 -0.4) (end -3.15 -0.4) (layer "F.CrtYd") (width 0.05) (tstamp d8940288-62a0-48fe-b9c9-31d88cc67c71))
  (fp_line (start 1.4 3.125) (end -1.4 3.125) (layer "F.CrtYd") (width 0.05) (tstamp dafab32f-2416-4ec8-81f7-eb757353d4d1))
  (fp_line (start -3.6 1.35) (end -3.6 0.85) (layer "F.CrtYd") (width 0.05) (tstamp db8e5ca4-f39d-45c0-88d5-0c151af564f0))
  (fp_arc (start 1.4 2.875) (end 1.4 3.125) (angle -90) (layer "F.CrtYd") (width 0.05) (tstamp 05ce9e2d-8e0a-4b69-a4ca-cf2db20e6133))
  (fp_arc (start 3.15 0.85) (end 3.6 0.85) (angle -90) (layer "F.CrtYd") (width 0.05) (tstamp 12db5400-d2aa-49ed-8920-98ff1e70c78c))
  (fp_arc (start -3.15 1.35) (end -3.6 1.35) (angle -90) (layer "F.CrtYd") (width 0.05) (tstamp 27b064dd-bb69-48b0-ace5-73b5d47e9076))
  (fp_arc (start 3.15 1.35) (end 3.15 1.8) (angle -90) (layer "F.CrtYd") (width 0.05) (tstamp 282dd191-87b7-4d6d-bc49-6c7cffeae684))
  (fp_arc (start -1.15 -2.5) (end -1.15 -2.95) (angle -90) (layer "F.CrtYd") (width 0.05) (tstamp 2db343e4-2b12-4cc4-93e0-03d7db72769c))
  (fp_arc (start 3.15 -0.85) (end 3.15 -0.4) (angle -90) (layer "F.CrtYd") (width 0.05) (tstamp 51aa5a2c-b86b-4de4-ab61-d4babd23d74b))
  (fp_arc (start 1.15 -2.5) (end 1.6 -2.5) (angle -90) (layer "F.CrtYd") (width 0.05) (tstamp 54d3df28-ca23-4f40-a91c-27529af03990))
  (fp_arc (start -1.4 2.875) (end -1.4 3.125) (angle 90) (layer "F.CrtYd") (width 0.05) (tstamp 54de16d2-800f-4c3f-b6e8-258935639773))
  (fp_arc (start 3.15 -1.35) (end 3.599999 -1.374999) (angle -86.82016988) (layer "F.CrtYd") (width 0.05) (tstamp 9bf5be05-b268-4a41-817f-5aee5048a841))
  (fp_arc (start -3.15 -1.35) (end -3.15 -1.8) (angle -90) (layer "F.CrtYd") (width 0.05) (tstamp 9d5ba33a-4e18-40e7-9bb2-4d3e802cdd43))
  (fp_arc (start -3.15 -0.85) (end -3.6 -0.85) (angle -90) (layer "F.CrtYd") (width 0.05) (tstamp adbfce5a-e445-4c23-8436-559dfcf0e1e1))
  (fp_arc (start -3.15 0.85) (end -3.15 0.4) (angle -90) (layer "F.CrtYd") (width 0.05) (tstamp e28b4624-cd61-442f-8420-718ef80fa348))
  (fp_line (start 3 -0.9) (end 3 -1.3) (layer "F.Fab") (width 0.1) (tstamp 036516e7-7230-4d4c-bd82-81a78785e46f))
  (fp_line (start -0.1 1.825) (end -0.1 1.575) (layer "F.Fab") (width 0.1) (tstamp 0385f729-00d6-4200-95ea-4215e2d8051f))
  (fp_line (start 3 0.9) (end 3 1.3) (layer "F.Fab") (width 0.1) (tstamp 154f26e4-78b1-4834-9d81-e52b06e168f5))
  (fp_line (start 1.4 2.875) (end 0.1 2.875) (layer "F.Fab") (width 0.1) (tstamp 2e7067cc-5a8c-4adf-9929-0f44d82aebae))
  (fp_line (start 1.4 1.375) (end 1.4 2.875) (layer "F.Fab") (width 0.1) (tstamp 3115cbeb-8cb0-4f2d-a721-88ebe08aa2d4))
  (fp_line (start -1.4 2.1) (end -1.4 2.35) (layer "F.Fab") (width 0.1) (tstamp 383ebd56-c0ba-4c38-a89e-c27df731d729))
  (fp_line (start -0.8 -1.375) (end -0.8 -2.375) (layer "F.Fab") (width 0.1) (tstamp 3e32cccb-3837-461f-bc48-c413fa986c41))
  (fp_line (start -2.5 -0.9) (end -3 -0.9) (layer "F.Fab") (width 0.1) (tstamp 455bb48d-2466-4268-8aeb-5459f31c9776))
  (fp_line (start -0.1 2.35) (end -0.1 2.1) (layer "F.Fab") (width 0.1) (tstamp 4b139e96-6dd2-46d6-bf8a-a86b8ebf7c33))
  (fp_line (start -0.1 2.875) (end -0.35 2.875) (layer "F.Fab") (width 0.1) (tstamp 4e1544d4-6ca3-4c02-91f7-d55b41e2ea8c))
  (fp_line (start -0.1 2.875) (end -0.1 2.625) (layer "F.Fab") (width 0.1) (tstamp 62c810dc-3cfc-4b15-9941-920131769bb2))
  (fp_line (start 0.2 -1.375) (end 0.2 -2.375) (layer "F.Fab") (width 0.1) (tstamp 920b0ba6-7ccb-4ea8-b5f2-8211181ece30))
  (fp_line (start 1.2 -2.375) (end 1.2 -1.375) (layer "F.Fab") (width 0.1) (tstamp 93693ecd-0a85-49a5-8cc2-a92d43a85acf))
  (fp_line (start -0.2 -2.375) (end -0.2 -1.375) (layer "F.Fab") (width 0.1) (tstamp a444c785-b610-496b-8309-1691cdc2d570))
  (fp_line (start 0.2 -2.375) (end -0.2 -2.375) (layer "F.Fab") (width 0.1) (tstamp a6679c90-ec5a-4b7b-9933-efe5ab95880e))
  (fp_line (start 2.5 -0.9) (end 3 -0.9) (layer "F.Fab") (width 0.1) (tstamp a6af05cf-6db5-4267-a5ca-f828e264bf79))
  (fp_line (start -0.875 2.875) (end -0.625 2.875) (layer "F.Fab") (width 0.1) (tstamp a7f63d86-0c11-4be6-be73-cee8303c8cbf))
  (fp_line (start 3 -1.3) (end 2.5 -1.3) (layer "F.Fab") (width 0.1) (tstamp ab11a4c7-668b-4f4f-a311-56c8782bde02))
  (fp_line (start 0.8 -2.375) (end 1.2 -2.375) (layer "F.Fab") (width 0.1) (tstamp ab298444-921c-426e-aa98-952900f53d32))
  (fp_line (start -3 -0.9) (end -3 -1.3) (layer "F.Fab") (width 0.1) (tstamp ae95faf4-f18b-44f9-9165-6d12d4f07e0a))
  (fp_line (start -1.4 2.875) (end -1.15 2.875) (layer "F.Fab") (width 0.1) (tstamp af3fcd9d-64a7-451f-a42a-4e6b389ad717))
  (fp_line (start -3 1.3) (end -2.5 1.3) (layer "F.Fab") (width 0.1) (tstamp af460eed-599d-45f6-bd8a-07be91c6833f))
  (fp_line (start 0.8 -1.375) (end 0.8 -2.375) (layer "F.Fab") (width 0.1) (tstamp ba5edbb3-b0ba-45d6-97e1-94402fb5be3b))
  (fp_line (start 2.5 0.9) (end 3 0.9) (layer "F.Fab") (width 0.1) (tstamp c2f0b40d-497c-4a28-8633-5efceee13154))
  (fp_line (start -1.4 2.875) (end -1.4 2.625) (layer "F.Fab") (width 0.1) (tstamp c3379c1b-f34f-4d59-96fe-8573cf801905))
  (fp_line (start -2.5 0.9) (end -3 0.9) (layer "F.Fab") (width 0.1) (tstamp c595ad91-7551-4624-a270-ba9e06c95cbc))
  (fp_line (start 3 1.3) (end 2.5 1.3) (layer "F.Fab") (width 0.1) (tstamp ca4662a1-954f-4afc-b16c-98bd20fff17d))
  (fp_line (start -1.2 -2.375) (end -1.2 -1.375) (layer "F.Fab") (width 0.1) (tstamp d3d902f8-a483-49da-88a9-b4aee1285605))
  (fp_line (start -3 -1.3) (end -2.5 -1.3) (layer "F.Fab") (width 0.1) (tstamp db38d0d1-abdc-44e5-bc77-e02124c6e3e2))
  (fp_line (start -1.4 1.575) (end -1.4 1.825) (layer "F.Fab") (width 0.1) (tstamp e0058ebb-889f-4abb-afc0-015d57540af6))
  (fp_line (start 0.1 2.875) (end 0.1 1.375) (layer "F.Fab") (width 0.1) (tstamp eb61bcf7-b95b-4d0f-ac43-32d0a12ed33d))
  (fp_line (start -3 0.9) (end -3 1.3) (layer "F.Fab") (width 0.1) (tstamp f1a7d62f-1398-4269-bd47-b903b7eb1961))
  (fp_line (start -0.8 -2.375) (end -1.2 -2.375) (layer "F.Fab") (width 0.1) (tstamp f70fede8-8219-470d-b15d-59c13747a021))
  (fp_rect (start -2.5 -1.375) (end 2.5 1.375) (layer "F.Fab") (width 0.1) (fill none) (tstamp 76a4c86b-4680-4348-be87-cfb763780fe3))
  (pad "" np_thru_hole circle (at -1.5 0) (locked) (size 1.1 1.1) (drill 0.9) (layers *.Mask) (tstamp b70e28d0-c562-4b33-9496-cba76ee241b5))
  (pad "" np_thru_hole circle (at 1.5 0) (locked) (size 1.1 1.1) (drill 0.9) (layers *.Mask) (tstamp f8086492-c141-4f26-8eb2-5c2e12135ca0))
  (pad "1" smd roundrect (at 1 -2.05) (locked) (size 0.7 1.3) (layers "F.Cu" "F.Paste" "F.Mask") (roundrect_rratio 0.286) (tstamp 1ac014da-11d9-47ff-921b-caf9423a3bde))
  (pad "2" smd roundrect (at 0 -2.05) (locked) (size 0.7 1.3) (layers "F.Cu" "F.Paste" "F.Mask") (roundrect_rratio 0.286) (tstamp 92e31b8a-ddd5-4b92-8d65-b039031c1dcb))
  (pad "3" smd roundrect (at -1 -2.05) (locked) (size 0.7 1.3) (layers "F.Cu" "F.Paste" "F.Mask") (roundrect_rratio 0.286) (tstamp bc0f2d7a-9aa0-4abe-80b5-d0fc6590bb47))
  (pad "MP" smd roundrect (at 2.975 -1.1) (locked) (size 0.75 0.9) (layers "F.Cu" "F.Paste" "F.Mask") (roundrect_rratio 0.267) (tstamp 15eb01fe-6f55-45f6-81b0-733ccc4f2d62))
  (pad "MP" smd roundrect (at -2.975 1.1) (locked) (size 0.75 0.9) (layers "F.Cu" "F.Paste" "F.Mask") (roundrect_rratio 0.267) (tstamp 32660f9f-7289-4dbc-beba-7168b4d0d095))
  (pad "MP" smd roundrect (at -2.975 -1.1) (locked) (size 0.75 0.9) (layers "F.Cu" "F.Paste" "F.Mask") (roundrect_rratio 0.267) (tstamp c1b87aef-1b87-4aaa-8f97-d09b7247508c))
  (pad "MP" smd roundrect (at 2.975 1.1) (locked) (size 0.75 0.9) (layers "F.Cu" "F.Paste" "F.Mask") (roundrect_rratio 0.267) (tstamp e07aa05a-258c-410f-843a-05778a890bf9))
  (model "${KICAD6_3DMODEL_DIR}/Button_Switch_SMD.3dshapes/HRO_K3-1293S.step"
    (offset (xyz 0 0 0))
    (scale (xyz 1 1 1))
    (rotate (xyz -90 0 0))
  )
)
