(module Amphenol_10051922-2410EHLF (layer F.Cu) (tedit 5BCAD969)
  (attr smd)
  (fp_text reference J1 (at -8.3 -0.6) (layer F.SilkS)
    (effects (font (size 1 1) (thickness 0.15)))
  )
  (fp_text value DISP (at 0 -0.75) (layer F.Fab)
    (effects (font (size 1 1) (thickness 0.15)))
  )
  (fp_line (start -7.25 0) (end 7.25 0) (layer F.Fab) (width 0.12))
  (fp_line (start 7.25 0) (end 7.25 -3.4) (layer F.Fab) (width 0.12))
  (fp_line (start -7.25 0) (end -7.25 -3.4) (layer F.Fab) (width 0.12))
  (fp_line (start -7.25 -3.4) (end 7.25 -3.4) (layer F.Fab) (width 0.12))
  (fp_line (start -7.25 -3.4) (end -6.25 -3.4) (layer F.SilkS) (width 0.15))
  (fp_line (start -7.25 -3.4) (end -7.25 -1.7) (layer F.SilkS) (width 0.15))
  (fp_line (start -7.25 0) (end 7.25 0) (layer F.SilkS) (width 0.15))
  (fp_line (start 7.25 -3.4) (end 6.25 -3.4) (layer F.SilkS) (width 0.15))
  (fp_line (start 7.25 -3.4) (end 7.25 -1.7) (layer F.SilkS) (width 0.15))
  (pad 1 smd roundrect (at -5.75 -3.55) (size 0.3 0.8) (layers F.Cu F.Paste F.Mask) (roundrect_rratio 0.25))
  (pad 2 smd roundrect (at -5.25 -3.55) (size 0.3 0.8) (layers F.Cu F.Paste F.Mask) (roundrect_rratio 0.25))
  (pad 3 smd roundrect (at -4.75 -3.55) (size 0.3 0.8) (layers F.Cu F.Paste F.Mask) (roundrect_rratio 0.25))
  (pad 4 smd roundrect (at -4.25 -3.55) (size 0.3 0.8) (layers F.Cu F.Paste F.Mask) (roundrect_rratio 0.25))
  (pad 5 smd roundrect (at -3.75 -3.55) (size 0.3 0.8) (layers F.Cu F.Paste F.Mask) (roundrect_rratio 0.25))
  (pad 6 smd roundrect (at -3.25 -3.55) (size 0.3 0.8) (layers F.Cu F.Paste F.Mask) (roundrect_rratio 0.25))
  (pad 7 smd roundrect (at -2.75 -3.55) (size 0.3 0.8) (layers F.Cu F.Paste F.Mask) (roundrect_rratio 0.25))
  (pad 8 smd roundrect (at -2.25 -3.55) (size 0.3 0.8) (layers F.Cu F.Paste F.Mask) (roundrect_rratio 0.25))
  (pad 9 smd roundrect (at -1.75 -3.55) (size 0.3 0.8) (layers F.Cu F.Paste F.Mask) (roundrect_rratio 0.25))
  (pad 10 smd roundrect (at -1.25 -3.55) (size 0.3 0.8) (layers F.Cu F.Paste F.Mask) (roundrect_rratio 0.25))
  (pad 11 smd roundrect (at -0.75 -3.55) (size 0.3 0.8) (layers F.Cu F.Paste F.Mask) (roundrect_rratio 0.25))
  (pad 12 smd roundrect (at -0.25 -3.55) (size 0.3 0.8) (layers F.Cu F.Paste F.Mask) (roundrect_rratio 0.25))
  (pad 13 smd roundrect (at 0.25 -3.55) (size 0.3 0.8) (layers F.Cu F.Paste F.Mask) (roundrect_rratio 0.25))
  (pad 14 smd roundrect (at 0.75 -3.55) (size 0.3 0.8) (layers F.Cu F.Paste F.Mask) (roundrect_rratio 0.25))
  (pad 15 smd roundrect (at 1.25 -3.55) (size 0.3 0.8) (layers F.Cu F.Paste F.Mask) (roundrect_rratio 0.25))
  (pad 16 smd roundrect (at 1.75 -3.55) (size 0.3 0.8) (layers F.Cu F.Paste F.Mask) (roundrect_rratio 0.25))
  (pad 17 smd roundrect (at 2.25 -3.55) (size 0.3 0.8) (layers F.Cu F.Paste F.Mask) (roundrect_rratio 0.25))
  (pad 18 smd roundrect (at 2.75 -3.55) (size 0.3 0.8) (layers F.Cu F.Paste F.Mask) (roundrect_rratio 0.25))
  (pad 19 smd roundrect (at 3.25 -3.55) (size 0.3 0.8) (layers F.Cu F.Paste F.Mask) (roundrect_rratio 0.25))
  (pad 20 smd roundrect (at 3.75 -3.55) (size 0.3 0.8) (layers F.Cu F.Paste F.Mask) (roundrect_rratio 0.25))
  (pad 21 smd roundrect (at 4.25 -3.55) (size 0.3 0.8) (layers F.Cu F.Paste F.Mask) (roundrect_rratio 0.25))
  (pad 22 smd roundrect (at 4.75 -3.55) (size 0.3 0.8) (layers F.Cu F.Paste F.Mask) (roundrect_rratio 0.25))
  (pad 23 smd roundrect (at 5.25 -3.55) (size 0.3 0.8) (layers F.Cu F.Paste F.Mask) (roundrect_rratio 0.25))
  (pad 24 smd roundrect (at 5.75 -3.55) (size 0.3 0.8) (layers F.Cu F.Paste F.Mask) (roundrect_rratio 0.25))
  (pad MP smd roundrect (at -6.975 -0.85) (size 0.95 1) (layers F.Cu F.Paste F.Mask) (roundrect_rratio 0.105))
  (pad MP smd roundrect (at 6.975 -0.85) (size 0.95 1) (layers F.Cu F.Paste F.Mask) (roundrect_rratio 0.105))
  (model ${KICAD6_3DMODEL_DIR}/Connector_FFC-FPC.3dshapes/Amphenol_10051922-2410EHLF.stp
    (at (xyz 0 0 0))
    (scale (xyz 1 1 1))
    (rotate (xyz -90 0 -90))
  )
)
