(module Molex_501616-2775_2Rows_27Pins (layer F.Cu) (tedit 5B4A030A)
  (solder_mask_margin 0.025)
  (solder_paste_margin -0.025)
  (attr smd)
  (fp_text reference REF** (at -6 0 270) (layer F.SilkS)
    (effects (font (size 1 1) (thickness 0.15)))
  )
  (fp_text value Molex_501616-2775_2Rows_27Pins (at 0 -2.5) (layer F.Fab)
    (effects (font (size 0.25 0.25) (thickness 0.0625)))
  )
  (fp_line (start -5 -1.7) (end 5 -1.7) (layer F.Fab) (width 0.05))
  (fp_line (start 5 -1.7) (end 5 1.7) (layer F.Fab) (width 0.05))
  (fp_line (start 5 1.7) (end -5 1.7) (layer F.Fab) (width 0.05))
  (fp_line (start -5 1.7) (end -5 -1.7) (layer F.Fab) (width 0.05))
  (fp_line (start -5 -1.7) (end -5 -2) (layer F.Fab) (width 0.05))
  (fp_line (start -5 -2) (end 5 -2) (layer F.Fab) (width 0.05))
  (fp_line (start 5 -2) (end 5 -1.7) (layer F.Fab) (width 0.05))
  (fp_line (start -4.2 1.7) (end -4.2 -0.1) (layer F.Fab) (width 0.05))
  (fp_line (start -4.2 -0.1) (end 4.2 -0.1) (layer F.Fab) (width 0.05))
  (fp_line (start 4.2 -0.1) (end 4.2 1.7) (layer F.Fab) (width 0.05))
  (fp_line (start -4.7 -1.8) (end -5.1 -1.8) (layer F.SilkS) (width 0.15))
  (fp_line (start -5.1 -1.8) (end -5.1 -0.6) (layer F.SilkS) (width 0.15))
  (fp_line (start -5.1 1.2) (end -5.1 1.8) (layer F.SilkS) (width 0.15))
  (fp_line (start -5.1 1.8) (end -4.3 1.8) (layer F.SilkS) (width 0.15))
  (fp_line (start 4.3 1.8) (end 5.1 1.8) (layer F.SilkS) (width 0.15))
  (fp_line (start 5.1 1.8) (end 5.1 1.2) (layer F.SilkS) (width 0.15))
  (fp_line (start 5.1 -0.6) (end 5.1 -1.8) (layer F.SilkS) (width 0.15))
  (fp_line (start 5.1 -1.8) (end 4.7 -1.8) (layer F.SilkS) (width 0.15))
  (fp_line (start -3.9 2.2) (end -4 2.4) (layer F.SilkS) (width 0.15))
  (fp_line (start -4 2.4) (end -3.8 2.4) (layer F.SilkS) (width 0.15))
  (fp_line (start -3.8 2.4) (end -3.9 2.2) (layer F.SilkS) (width 0.15))
  (pad 1 smd roundrect (at -3.9 1.45) (size 0.3 1.1) (layers F.Cu F.Paste F.Mask) (roundrect_rratio 0.25))
  (pad 2 smd roundrect (at -3.6 -1.45) (size 0.3 1.1) (layers F.Cu F.Paste F.Mask) (roundrect_rratio 0.25))
  (pad 3 smd roundrect (at -3.3 1.45) (size 0.3 1.1) (layers F.Cu F.Paste F.Mask) (roundrect_rratio 0.25))
  (pad 4 smd roundrect (at -3 -1.45) (size 0.3 1.1) (layers F.Cu F.Paste F.Mask) (roundrect_rratio 0.25))
  (pad 5 smd roundrect (at -2.7 1.45) (size 0.3 1.1) (layers F.Cu F.Paste F.Mask) (roundrect_rratio 0.25))
  (pad 6 smd roundrect (at -2.4 -1.45) (size 0.3 1.1) (layers F.Cu F.Paste F.Mask) (roundrect_rratio 0.25))
  (pad 7 smd roundrect (at -2.1 1.45) (size 0.3 1.1) (layers F.Cu F.Paste F.Mask) (roundrect_rratio 0.25))
  (pad 8 smd roundrect (at -1.8 -1.45) (size 0.3 1.1) (layers F.Cu F.Paste F.Mask) (roundrect_rratio 0.25))
  (pad 9 smd roundrect (at -1.5 1.45) (size 0.3 1.1) (layers F.Cu F.Paste F.Mask) (roundrect_rratio 0.25))
  (pad 10 smd roundrect (at -1.2 -1.45) (size 0.3 1.1) (layers F.Cu F.Paste F.Mask) (roundrect_rratio 0.25))
  (pad 11 smd roundrect (at -0.9 1.45) (size 0.3 1.1) (layers F.Cu F.Paste F.Mask) (roundrect_rratio 0.25))
  (pad 12 smd roundrect (at -0.6 -1.45) (size 0.3 1.1) (layers F.Cu F.Paste F.Mask) (roundrect_rratio 0.25))
  (pad 13 smd roundrect (at -0.3 1.45) (size 0.3 1.1) (layers F.Cu F.Paste F.Mask) (roundrect_rratio 0.25))
  (pad 14 smd roundrect (at 0 -1.45) (size 0.3 1.1) (layers F.Cu F.Paste F.Mask) (roundrect_rratio 0.25))
  (pad 15 smd roundrect (at 0.3 1.45) (size 0.3 1.1) (layers F.Cu F.Paste F.Mask) (roundrect_rratio 0.25))
  (pad 16 smd roundrect (at 0.6 -1.45) (size 0.3 1.1) (layers F.Cu F.Paste F.Mask) (roundrect_rratio 0.25))
  (pad 17 smd roundrect (at 0.9 1.45) (size 0.3 1.1) (layers F.Cu F.Paste F.Mask) (roundrect_rratio 0.25))
  (pad 18 smd roundrect (at 1.2 -1.45) (size 0.3 1.1) (layers F.Cu F.Paste F.Mask) (roundrect_rratio 0.25))
  (pad 19 smd roundrect (at 1.5 1.45) (size 0.3 1.1) (layers F.Cu F.Paste F.Mask) (roundrect_rratio 0.25))
  (pad 20 smd roundrect (at 1.8 -1.45) (size 0.3 1.1) (layers F.Cu F.Paste F.Mask) (roundrect_rratio 0.25))
  (pad 21 smd roundrect (at 2.1 1.45) (size 0.3 1.1) (layers F.Cu F.Paste F.Mask) (roundrect_rratio 0.25))
  (pad 22 smd roundrect (at 2.4 -1.45) (size 0.3 1.1) (layers F.Cu F.Paste F.Mask) (roundrect_rratio 0.25))
  (pad 23 smd roundrect (at 2.7 1.45) (size 0.3 1.1) (layers F.Cu F.Paste F.Mask) (roundrect_rratio 0.25))
  (pad 24 smd roundrect (at 3 -1.45) (size 0.3 1.1) (layers F.Cu F.Paste F.Mask) (roundrect_rratio 0.25))
  (pad 25 smd roundrect (at 3.3 1.45) (size 0.3 1.1) (layers F.Cu F.Paste F.Mask) (roundrect_rratio 0.25))
  (pad 26 smd roundrect (at 3.6 -1.45) (size 0.3 1.1) (layers F.Cu F.Paste F.Mask) (roundrect_rratio 0.25))
  (pad 27 smd roundrect (at 3.9 1.45) (size 0.3 1.1) (layers F.Cu F.Paste F.Mask) (roundrect_rratio 0.25))
  (pad MP smd roundrect (at -4.775 0.275) (size 1.05 1.25) (layers F.Cu F.Paste F.Mask) (roundrect_rratio 0.05))
  (pad MP smd roundrect (at 4.775 0.275) (size 1.05 1.25) (layers F.Cu F.Paste F.Mask) (roundrect_rratio 0.05))
  (pad DNC connect rect (at -4.43 -1.225) (size 0.3 1.11) (layers F.Cu F.Mask))
  (pad DNC connect rect (at 4.43 -1.225) (size 0.3 1.11) (layers F.Cu F.Mask))
  (model ${KICAD6_3DMODEL_DIR}/Connector_FFC-FPC.3dshapes/Molex_501616-2775.step
    (offset (xyz 0 0 0.635))
    (scale (xyz 1 1 1))
    (rotate (xyz -90 0 0))
  )
)
