(module Honeywell_HMC5983 (layer F.Cu) (tedit 543521BD)
  (tags COMPASS)
  (attr smd)
  (fp_text reference U1 (at 0 -2.1) (layer F.SilkS)
    (effects (font (size 0.6 0.6) (thickness 0.127)))
  )
  (fp_text value HMC5983 (at 0 2.25) (layer Cmts.User)
    (effects (font (size 0.6 0.6) (thickness 0.127)))
  )
  (fp_line (start -1.75 -1.75) (end 1.75 -1.75) (layer F.CrtYd) (width 0.05))
  (fp_line (start 1.75 -1.75) (end 1.75 1.75) (layer F.CrtYd) (width 0.05))
  (fp_line (start 1.75 1.75) (end -1.75 1.75) (layer F.CrtYd) (width 0.05))
  (fp_line (start -1.75 1.75) (end -1.75 -1.75) (layer F.CrtYd) (width 0.05))
  (fp_line (start -1.25 -1.25) (end 1.25 -1.25) (layer Margin) (width 0.05))
  (fp_line (start 1.25 -1.25) (end 1.25 1.25) (layer Margin) (width 0.05))
  (fp_line (start 1.25 1.25) (end -1.25 1.25) (layer Margin) (width 0.05))
  (fp_line (start -1.25 1.25) (end -1.25 -1.25) (layer Margin) (width 0.05))
  (fp_line (start -1.7 -1.7) (end -1.7 -1.2) (layer F.SilkS) (width 0.127))
  (fp_line (start -1.2 -1.7) (end -1.7 -1.7) (layer F.SilkS) (width 0.127))
  (fp_line (start -1.2 1.7) (end -1.7 1.7) (layer F.SilkS) (width 0.127))
  (fp_line (start -1.7 1.7) (end -1.7 1.2) (layer F.SilkS) (width 0.127))
  (fp_line (start 1.7 1.2) (end 1.7 1.7) (layer F.SilkS) (width 0.127))
  (fp_line (start 1.7 1.7) (end 1.2 1.7) (layer F.SilkS) (width 0.127))
  (fp_line (start 1.2 -1.7) (end 1.7 -1.7) (layer F.SilkS) (width 0.127))
  (fp_line (start 1.7 -1.7) (end 1.7 -1.2) (layer F.SilkS) (width 0.127))
  (fp_text user 1 (at -2.1 -1) (layer F.SilkS)
    (effects (font (size 0.6 0.6) (thickness 0.127)))
  )
  (pad 1 smd oval (at -1.325 -0.75 90) (size 0.3 0.55) (layers F.Cu F.Paste F.Mask))
  (pad 2 smd oval (at -1.325 -0.25 90) (size 0.3 0.55) (layers F.Cu F.Paste F.Mask))
  (pad 3 smd oval (at -1.325 0.25 90) (size 0.3 0.55) (layers F.Cu F.Paste F.Mask))
  (pad 4 smd oval (at -1.325 0.75 90) (size 0.3 0.55) (layers F.Cu F.Paste F.Mask))
  (pad 5 smd oval (at -0.75 1.325) (size 0.3 0.55) (layers F.Cu F.Paste F.Mask))
  (pad 6 smd oval (at -0.25 1.325) (size 0.3 0.55) (layers F.Cu F.Paste F.Mask))
  (pad 7 smd oval (at 0.25 1.325) (size 0.3 0.55) (layers F.Cu F.Paste F.Mask))
  (pad 8 smd oval (at 0.75 1.325) (size 0.3 0.55) (layers F.Cu F.Paste F.Mask))
  (pad 9 smd oval (at 1.325 0.75 90) (size 0.3 0.55) (layers F.Cu F.Paste F.Mask))
  (pad 10 smd oval (at 1.325 0.25 90) (size 0.3 0.55) (layers F.Cu F.Paste F.Mask))
  (pad 11 smd oval (at 1.325 -0.25 90) (size 0.3 0.55) (layers F.Cu F.Paste F.Mask))
  (pad 12 smd oval (at 1.325 -0.75 90) (size 0.3 0.55) (layers F.Cu F.Paste F.Mask))
  (pad 13 smd oval (at 0.75 -1.325) (size 0.3 0.55) (layers F.Cu F.Paste F.Mask))
  (pad 14 smd oval (at 0.25 -1.325) (size 0.3 0.55) (layers F.Cu F.Paste F.Mask))
  (pad 15 smd oval (at -0.25 -1.325) (size 0.3 0.55) (layers F.Cu F.Paste F.Mask))
  (pad 16 smd oval (at -0.75 -1.325) (size 0.3 0.55) (layers F.Cu F.Paste F.Mask))
  (model ${KICAD6_3DMODEL_DIR}/Sensor_Motion.3dshapes/hmc5983.wrl
    (at (xyz 0 0 0))
    (scale (xyz 10 10 10))
    (rotate (xyz 270 0 0))
  )
)
