(module Barrel_Jack_5.5x2.1mm (layer F.Cu) (tedit 5818AB42)
  (solder_mask_margin -0.02)
  (fp_text reference CON2 (at -5 1.75 90) (layer F.SilkS)
    (effects (font (size 0.6 0.6) (thickness 0.125)))
  )
  (fp_text value BARREL_JACK (at 3.75 6.75 90) (layer F.Fab)
    (effects (font (size 0.4 0.4) (thickness 0.1)))
  )
  (fp_text user SW (at -3.75 8.5 90) (layer F.SilkS)
    (effects (font (size 0.6 0.6) (thickness 0.125)))
  )
  (fp_text user SIDE (at 0 10) (layer F.SilkS)
    (effects (font (size 0.6 0.6) (thickness 0.125)))
  )
  (fp_text user CNTR (at 3.25 13.5) (layer F.SilkS)
    (effects (font (size 0.6 0.6) (thickness 0.125)))
  )
  (fp_arc (start 0 2.25) (end -1 2.25) (angle 180) (layer F.SilkS) (width 0.125))
  (fp_line (start 1 9.25) (end 1 2.25) (layer F.SilkS) (width 0.125))
  (fp_line (start 2.75 9.25) (end 1 9.25) (layer F.SilkS) (width 0.125))
  (fp_line (start 2.75 0) (end 2.75 9.25) (layer F.SilkS) (width 0.125))
  (fp_line (start -1 9.25) (end -1 2.25) (layer F.SilkS) (width 0.125))
  (fp_line (start -2.75 9.25) (end -1 9.25) (layer F.SilkS) (width 0.125))
  (fp_line (start -2.75 0) (end -2.75 9.25) (layer F.SilkS) (width 0.125))
  (fp_line (start -4.5 14) (end -4.5 0) (layer F.SilkS) (width 0.125))
  (fp_line (start 4.5 14) (end -4.5 14) (layer F.SilkS) (width 0.125))
  (fp_line (start 4.5 0) (end 4.5 14) (layer F.SilkS) (width 0.125))
  (fp_line (start -4.5 0) (end 4.5 0) (layer F.SilkS) (width 0.125))
  (fp_line (start -5.5 4.6) (end -5.5 5.8) (layer F.SilkS) (width 0.125))
  (fp_circle (center -5.5 5.8) (end -5.4 5.8) (layer F.SilkS) (width 0.125))
  (fp_circle (center -5.5 5.8) (end -5.3 5.8) (layer F.SilkS) (width 0.125))
  (fp_circle (center -5.5 5.8) (end -5.2 5.8) (layer F.SilkS) (width 0.125))
  (fp_arc (start -5.5 5.8) (end -5.2 5.2) (angle 306.8699358) (layer F.SilkS) (width 0.2))
  (fp_line (start -5.5 6.5) (end -5.5 7.2) (layer F.SilkS) (width 0.125))
  (pad 2 thru_hole circle (at 0 7.5) (size 3.7 3.7) (drill 3.1) (layers *.Cu *.Mask))
  (pad 1 thru_hole circle (at 0 13.7) (size 3.7 3.7) (drill 3.1) (layers *.Cu *.Mask))
  (pad 3 thru_hole circle (at -4.9 11) (size 3.7 3.7) (drill 3.1) (layers *.Cu *.Mask))
  (model ${KICAD6_3DMODEL_DIR}/Connector_BarrelJack.3dshapes/dc_socket.wrl
    (at (xyz 0 -0.2864173228346457 0))
    (scale (xyz 1 1 1))
    (rotate (xyz 0 0 180))
  )
)
