(module "PinHeader_3x20_P2.54mm_Horizontal" (layer F.Cu) (tedit 5D2E26A5)
  (descr "Through hole angled pin header, 3x20, 2.54mm pitch, 6mm pin length, 3 rows")
  (tags "Through hole angled pin header THT 3x20 2.54mm 3 row")
  (fp_text reference "J2" (at 8.195 -2.27) (layer F.SilkS)
    (effects (font (size 1 1) (thickness 0.15)))
  )
  (fp_text value "Conn_03x20_Odd_Even" (at 8.195 50.53) (layer F.Fab)
    (effects (font (size 1 1) (thickness 0.15)))
  )
  (fp_line (start 7.215 -1.27) (end 9.12 -1.27) (layer F.Fab) (width 0.1))
  (fp_line (start 9.12 -1.27) (end 9.12 49.53) (layer F.Fab) (width 0.1))
  (fp_line (start 9.12 49.53) (end 6.58 49.53) (layer F.Fab) (width 0.1))
  (fp_line (start 6.58 49.53) (end 6.58 -0.635) (layer F.Fab) (width 0.1))
  (fp_line (start 6.58 -0.635) (end 7.215 -1.27) (layer F.Fab) (width 0.1))
  (fp_line (start 2.22 -0.32) (end 6.58 -0.32) (layer F.Fab) (width 0.1))
  (fp_line (start 2.22 0.32) (end 6.58 0.32) (layer F.Fab) (width 0.1))
  (fp_line (start 9.12 -0.32) (end 15.12 -0.32) (layer F.Fab) (width 0.1))
  (fp_line (start 15.12 -0.32) (end 15.12 0.32) (layer F.Fab) (width 0.1))
  (fp_line (start 9.12 0.32) (end 15.12 0.32) (layer F.Fab) (width 0.1))
  (fp_line (start 2.22 2.22) (end 6.58 2.22) (layer F.Fab) (width 0.1))
  (fp_line (start 2.22 2.86) (end 6.58 2.86) (layer F.Fab) (width 0.1))
  (fp_line (start 9.12 2.22) (end 15.12 2.22) (layer F.Fab) (width 0.1))
  (fp_line (start 15.12 2.22) (end 15.12 2.86) (layer F.Fab) (width 0.1))
  (fp_line (start 9.12 2.86) (end 15.12 2.86) (layer F.Fab) (width 0.1))
  (fp_line (start 2.22 4.76) (end 6.58 4.76) (layer F.Fab) (width 0.1))
  (fp_line (start 2.22 5.4) (end 6.58 5.4) (layer F.Fab) (width 0.1))
  (fp_line (start 9.12 4.76) (end 15.12 4.76) (layer F.Fab) (width 0.1))
  (fp_line (start 15.12 4.76) (end 15.12 5.4) (layer F.Fab) (width 0.1))
  (fp_line (start 9.12 5.4) (end 15.12 5.4) (layer F.Fab) (width 0.1))
  (fp_line (start 2.22 7.3) (end 6.58 7.3) (layer F.Fab) (width 0.1))
  (fp_line (start 2.22 7.94) (end 6.58 7.94) (layer F.Fab) (width 0.1))
  (fp_line (start 9.12 7.3) (end 15.12 7.3) (layer F.Fab) (width 0.1))
  (fp_line (start 15.12 7.3) (end 15.12 7.94) (layer F.Fab) (width 0.1))
  (fp_line (start 9.12 7.94) (end 15.12 7.94) (layer F.Fab) (width 0.1))
  (fp_line (start 2.22 9.84) (end 6.58 9.84) (layer F.Fab) (width 0.1))
  (fp_line (start 2.22 10.48) (end 6.58 10.48) (layer F.Fab) (width 0.1))
  (fp_line (start 9.12 9.84) (end 15.12 9.84) (layer F.Fab) (width 0.1))
  (fp_line (start 15.12 9.84) (end 15.12 10.48) (layer F.Fab) (width 0.1))
  (fp_line (start 9.12 10.48) (end 15.12 10.48) (layer F.Fab) (width 0.1))
  (fp_line (start 2.22 12.38) (end 6.58 12.38) (layer F.Fab) (width 0.1))
  (fp_line (start 2.22 13.02) (end 6.58 13.02) (layer F.Fab) (width 0.1))
  (fp_line (start 9.12 12.38) (end 15.12 12.38) (layer F.Fab) (width 0.1))
  (fp_line (start 15.12 12.38) (end 15.12 13.02) (layer F.Fab) (width 0.1))
  (fp_line (start 9.12 13.02) (end 15.12 13.02) (layer F.Fab) (width 0.1))
  (fp_line (start 2.22 14.92) (end 6.58 14.92) (layer F.Fab) (width 0.1))
  (fp_line (start 2.22 15.56) (end 6.58 15.56) (layer F.Fab) (width 0.1))
  (fp_line (start 9.12 14.92) (end 15.12 14.92) (layer F.Fab) (width 0.1))
  (fp_line (start 15.12 14.92) (end 15.12 15.56) (layer F.Fab) (width 0.1))
  (fp_line (start 9.12 15.56) (end 15.12 15.56) (layer F.Fab) (width 0.1))
  (fp_line (start 2.22 17.46) (end 6.58 17.46) (layer F.Fab) (width 0.1))
  (fp_line (start 2.22 18.1) (end 6.58 18.1) (layer F.Fab) (width 0.1))
  (fp_line (start 9.12 17.46) (end 15.12 17.46) (layer F.Fab) (width 0.1))
  (fp_line (start 15.12 17.46) (end 15.12 18.1) (layer F.Fab) (width 0.1))
  (fp_line (start 9.12 18.1) (end 15.12 18.1) (layer F.Fab) (width 0.1))
  (fp_line (start 2.22 20) (end 6.58 20) (layer F.Fab) (width 0.1))
  (fp_line (start 2.22 20.64) (end 6.58 20.64) (layer F.Fab) (width 0.1))
  (fp_line (start 9.12 20) (end 15.12 20) (layer F.Fab) (width 0.1))
  (fp_line (start 15.12 20) (end 15.12 20.64) (layer F.Fab) (width 0.1))
  (fp_line (start 9.12 20.64) (end 15.12 20.64) (layer F.Fab) (width 0.1))
  (fp_line (start 2.22 22.54) (end 6.58 22.54) (layer F.Fab) (width 0.1))
  (fp_line (start 2.22 23.18) (end 6.58 23.18) (layer F.Fab) (width 0.1))
  (fp_line (start 9.12 22.54) (end 15.12 22.54) (layer F.Fab) (width 0.1))
  (fp_line (start 15.12 22.54) (end 15.12 23.18) (layer F.Fab) (width 0.1))
  (fp_line (start 9.12 23.18) (end 15.12 23.18) (layer F.Fab) (width 0.1))
  (fp_line (start 2.22 25.08) (end 6.58 25.08) (layer F.Fab) (width 0.1))
  (fp_line (start 2.22 25.72) (end 6.58 25.72) (layer F.Fab) (width 0.1))
  (fp_line (start 9.12 25.08) (end 15.12 25.08) (layer F.Fab) (width 0.1))
  (fp_line (start 15.12 25.08) (end 15.12 25.72) (layer F.Fab) (width 0.1))
  (fp_line (start 9.12 25.72) (end 15.12 25.72) (layer F.Fab) (width 0.1))
  (fp_line (start 2.22 27.62) (end 6.58 27.62) (layer F.Fab) (width 0.1))
  (fp_line (start 2.22 28.26) (end 6.58 28.26) (layer F.Fab) (width 0.1))
  (fp_line (start 9.12 27.62) (end 15.12 27.62) (layer F.Fab) (width 0.1))
  (fp_line (start 15.12 27.62) (end 15.12 28.26) (layer F.Fab) (width 0.1))
  (fp_line (start 9.12 28.26) (end 15.12 28.26) (layer F.Fab) (width 0.1))
  (fp_line (start 2.22 30.16) (end 6.58 30.16) (layer F.Fab) (width 0.1))
  (fp_line (start 2.22 30.8) (end 6.58 30.8) (layer F.Fab) (width 0.1))
  (fp_line (start 9.12 30.16) (end 15.12 30.16) (layer F.Fab) (width 0.1))
  (fp_line (start 15.12 30.16) (end 15.12 30.8) (layer F.Fab) (width 0.1))
  (fp_line (start 9.12 30.8) (end 15.12 30.8) (layer F.Fab) (width 0.1))
  (fp_line (start 2.22 32.7) (end 6.58 32.7) (layer F.Fab) (width 0.1))
  (fp_line (start 2.22 33.34) (end 6.58 33.34) (layer F.Fab) (width 0.1))
  (fp_line (start 9.12 32.7) (end 15.12 32.7) (layer F.Fab) (width 0.1))
  (fp_line (start 15.12 32.7) (end 15.12 33.34) (layer F.Fab) (width 0.1))
  (fp_line (start 9.12 33.34) (end 15.12 33.34) (layer F.Fab) (width 0.1))
  (fp_line (start 2.22 35.24) (end 6.58 35.24) (layer F.Fab) (width 0.1))
  (fp_line (start 2.22 35.88) (end 6.58 35.88) (layer F.Fab) (width 0.1))
  (fp_line (start 9.12 35.24) (end 15.12 35.24) (layer F.Fab) (width 0.1))
  (fp_line (start 15.12 35.24) (end 15.12 35.88) (layer F.Fab) (width 0.1))
  (fp_line (start 9.12 35.88) (end 15.12 35.88) (layer F.Fab) (width 0.1))
  (fp_line (start 2.22 37.78) (end 6.58 37.78) (layer F.Fab) (width 0.1))
  (fp_line (start 2.22 38.42) (end 6.58 38.42) (layer F.Fab) (width 0.1))
  (fp_line (start 9.12 37.78) (end 15.12 37.78) (layer F.Fab) (width 0.1))
  (fp_line (start 15.12 37.78) (end 15.12 38.42) (layer F.Fab) (width 0.1))
  (fp_line (start 9.12 38.42) (end 15.12 38.42) (layer F.Fab) (width 0.1))
  (fp_line (start 2.22 40.32) (end 6.58 40.32) (layer F.Fab) (width 0.1))
  (fp_line (start 2.22 40.96) (end 6.58 40.96) (layer F.Fab) (width 0.1))
  (fp_line (start 9.12 40.32) (end 15.12 40.32) (layer F.Fab) (width 0.1))
  (fp_line (start 15.12 40.32) (end 15.12 40.96) (layer F.Fab) (width 0.1))
  (fp_line (start 9.12 40.96) (end 15.12 40.96) (layer F.Fab) (width 0.1))
  (fp_line (start 2.22 42.86) (end 6.58 42.86) (layer F.Fab) (width 0.1))
  (fp_line (start 2.22 43.5) (end 6.58 43.5) (layer F.Fab) (width 0.1))
  (fp_line (start 9.12 42.86) (end 15.12 42.86) (layer F.Fab) (width 0.1))
  (fp_line (start 15.12 42.86) (end 15.12 43.5) (layer F.Fab) (width 0.1))
  (fp_line (start 9.12 43.5) (end 15.12 43.5) (layer F.Fab) (width 0.1))
  (fp_line (start 2.22 45.4) (end 6.58 45.4) (layer F.Fab) (width 0.1))
  (fp_line (start 2.22 46.04) (end 6.58 46.04) (layer F.Fab) (width 0.1))
  (fp_line (start 9.12 45.4) (end 15.12 45.4) (layer F.Fab) (width 0.1))
  (fp_line (start 15.12 45.4) (end 15.12 46.04) (layer F.Fab) (width 0.1))
  (fp_line (start 9.12 46.04) (end 15.12 46.04) (layer F.Fab) (width 0.1))
  (fp_line (start 2.22 47.94) (end 6.58 47.94) (layer F.Fab) (width 0.1))
  (fp_line (start 2.22 48.58) (end 6.58 48.58) (layer F.Fab) (width 0.1))
  (fp_line (start 9.12 47.94) (end 15.12 47.94) (layer F.Fab) (width 0.1))
  (fp_line (start 15.12 47.94) (end 15.12 48.58) (layer F.Fab) (width 0.1))
  (fp_line (start 9.12 48.58) (end 15.12 48.58) (layer F.Fab) (width 0.1))
  (fp_line (start 6.52 -1.33) (end 6.52 49.59) (layer F.SilkS) (width 0.12))
  (fp_line (start 6.52 49.59) (end 9.18 49.59) (layer F.SilkS) (width 0.12))
  (fp_line (start 9.18 49.59) (end 9.18 -1.33) (layer F.SilkS) (width 0.12))
  (fp_line (start 9.18 -1.33) (end 6.52 -1.33) (layer F.SilkS) (width 0.12))
  (fp_line (start 9.18 -0.38) (end 15.18 -0.38) (layer F.SilkS) (width 0.12))
  (fp_line (start 15.18 -0.38) (end 15.18 0.38) (layer F.SilkS) (width 0.12))
  (fp_line (start 15.18 0.38) (end 9.18 0.38) (layer F.SilkS) (width 0.12))
  (fp_line (start 9.18 -0.32) (end 15.18 -0.32) (layer F.SilkS) (width 0.12))
  (fp_line (start 9.18 -0.2) (end 15.18 -0.2) (layer F.SilkS) (width 0.12))
  (fp_line (start 9.18 -0.08) (end 15.18 -0.08) (layer F.SilkS) (width 0.12))
  (fp_line (start 9.18 0.04) (end 15.18 0.04) (layer F.SilkS) (width 0.12))
  (fp_line (start 9.18 0.16) (end 15.18 0.16) (layer F.SilkS) (width 0.12))
  (fp_line (start 9.18 0.28) (end 15.18 0.28) (layer F.SilkS) (width 0.12))
  (fp_line (start 6.52 1.27) (end 9.18 1.27) (layer F.SilkS) (width 0.12))
  (fp_line (start 9.18 2.16) (end 15.18 2.16) (layer F.SilkS) (width 0.12))
  (fp_line (start 15.18 2.16) (end 15.18 2.92) (layer F.SilkS) (width 0.12))
  (fp_line (start 15.18 2.92) (end 9.18 2.92) (layer F.SilkS) (width 0.12))
  (fp_line (start 6.52 3.81) (end 9.18 3.81) (layer F.SilkS) (width 0.12))
  (fp_line (start 9.18 4.7) (end 15.18 4.7) (layer F.SilkS) (width 0.12))
  (fp_line (start 15.18 4.7) (end 15.18 5.46) (layer F.SilkS) (width 0.12))
  (fp_line (start 15.18 5.46) (end 9.18 5.46) (layer F.SilkS) (width 0.12))
  (fp_line (start 6.52 6.35) (end 9.18 6.35) (layer F.SilkS) (width 0.12))
  (fp_line (start 9.18 7.24) (end 15.18 7.24) (layer F.SilkS) (width 0.12))
  (fp_line (start 15.18 7.24) (end 15.18 8) (layer F.SilkS) (width 0.12))
  (fp_line (start 15.18 8) (end 9.18 8) (layer F.SilkS) (width 0.12))
  (fp_line (start 6.52 8.89) (end 9.18 8.89) (layer F.SilkS) (width 0.12))
  (fp_line (start 9.18 9.78) (end 15.18 9.78) (layer F.SilkS) (width 0.12))
  (fp_line (start 15.18 9.78) (end 15.18 10.54) (layer F.SilkS) (width 0.12))
  (fp_line (start 15.18 10.54) (end 9.18 10.54) (layer F.SilkS) (width 0.12))
  (fp_line (start 6.52 11.43) (end 9.18 11.43) (layer F.SilkS) (width 0.12))
  (fp_line (start 9.18 12.32) (end 15.18 12.32) (layer F.SilkS) (width 0.12))
  (fp_line (start 15.18 12.32) (end 15.18 13.08) (layer F.SilkS) (width 0.12))
  (fp_line (start 15.18 13.08) (end 9.18 13.08) (layer F.SilkS) (width 0.12))
  (fp_line (start 6.52 13.97) (end 9.18 13.97) (layer F.SilkS) (width 0.12))
  (fp_line (start 9.18 14.86) (end 15.18 14.86) (layer F.SilkS) (width 0.12))
  (fp_line (start 15.18 14.86) (end 15.18 15.62) (layer F.SilkS) (width 0.12))
  (fp_line (start 15.18 15.62) (end 9.18 15.62) (layer F.SilkS) (width 0.12))
  (fp_line (start 6.52 16.51) (end 9.18 16.51) (layer F.SilkS) (width 0.12))
  (fp_line (start 9.18 17.4) (end 15.18 17.4) (layer F.SilkS) (width 0.12))
  (fp_line (start 15.18 17.4) (end 15.18 18.16) (layer F.SilkS) (width 0.12))
  (fp_line (start 15.18 18.16) (end 9.18 18.16) (layer F.SilkS) (width 0.12))
  (fp_line (start 6.52 19.05) (end 9.18 19.05) (layer F.SilkS) (width 0.12))
  (fp_line (start 9.18 19.94) (end 15.18 19.94) (layer F.SilkS) (width 0.12))
  (fp_line (start 15.18 19.94) (end 15.18 20.7) (layer F.SilkS) (width 0.12))
  (fp_line (start 15.18 20.7) (end 9.18 20.7) (layer F.SilkS) (width 0.12))
  (fp_line (start 6.52 21.59) (end 9.18 21.59) (layer F.SilkS) (width 0.12))
  (fp_line (start 9.18 22.48) (end 15.18 22.48) (layer F.SilkS) (width 0.12))
  (fp_line (start 15.18 22.48) (end 15.18 23.24) (layer F.SilkS) (width 0.12))
  (fp_line (start 15.18 23.24) (end 9.18 23.24) (layer F.SilkS) (width 0.12))
  (fp_line (start 6.52 24.13) (end 9.18 24.13) (layer F.SilkS) (width 0.12))
  (fp_line (start 9.18 25.02) (end 15.18 25.02) (layer F.SilkS) (width 0.12))
  (fp_line (start 15.18 25.02) (end 15.18 25.78) (layer F.SilkS) (width 0.12))
  (fp_line (start 15.18 25.78) (end 9.18 25.78) (layer F.SilkS) (width 0.12))
  (fp_line (start 6.52 26.67) (end 9.18 26.67) (layer F.SilkS) (width 0.12))
  (fp_line (start 9.18 27.56) (end 15.18 27.56) (layer F.SilkS) (width 0.12))
  (fp_line (start 15.18 27.56) (end 15.18 28.32) (layer F.SilkS) (width 0.12))
  (fp_line (start 15.18 28.32) (end 9.18 28.32) (layer F.SilkS) (width 0.12))
  (fp_line (start 6.52 29.21) (end 9.18 29.21) (layer F.SilkS) (width 0.12))
  (fp_line (start 9.18 30.1) (end 15.18 30.1) (layer F.SilkS) (width 0.12))
  (fp_line (start 15.18 30.1) (end 15.18 30.86) (layer F.SilkS) (width 0.12))
  (fp_line (start 15.18 30.86) (end 9.18 30.86) (layer F.SilkS) (width 0.12))
  (fp_line (start 6.52 31.75) (end 9.18 31.75) (layer F.SilkS) (width 0.12))
  (fp_line (start 9.18 32.64) (end 15.18 32.64) (layer F.SilkS) (width 0.12))
  (fp_line (start 15.18 32.64) (end 15.18 33.4) (layer F.SilkS) (width 0.12))
  (fp_line (start 15.18 33.4) (end 9.18 33.4) (layer F.SilkS) (width 0.12))
  (fp_line (start 6.52 34.29) (end 9.18 34.29) (layer F.SilkS) (width 0.12))
  (fp_line (start 9.18 35.18) (end 15.18 35.18) (layer F.SilkS) (width 0.12))
  (fp_line (start 15.18 35.18) (end 15.18 35.94) (layer F.SilkS) (width 0.12))
  (fp_line (start 15.18 35.94) (end 9.18 35.94) (layer F.SilkS) (width 0.12))
  (fp_line (start 6.52 36.83) (end 9.18 36.83) (layer F.SilkS) (width 0.12))
  (fp_line (start 9.18 37.72) (end 15.18 37.72) (layer F.SilkS) (width 0.12))
  (fp_line (start 15.18 37.72) (end 15.18 38.48) (layer F.SilkS) (width 0.12))
  (fp_line (start 15.18 38.48) (end 9.18 38.48) (layer F.SilkS) (width 0.12))
  (fp_line (start 6.52 39.37) (end 9.18 39.37) (layer F.SilkS) (width 0.12))
  (fp_line (start 9.18 40.26) (end 15.18 40.26) (layer F.SilkS) (width 0.12))
  (fp_line (start 15.18 40.26) (end 15.18 41.02) (layer F.SilkS) (width 0.12))
  (fp_line (start 15.18 41.02) (end 9.18 41.02) (layer F.SilkS) (width 0.12))
  (fp_line (start 6.52 41.91) (end 9.18 41.91) (layer F.SilkS) (width 0.12))
  (fp_line (start 9.18 42.8) (end 15.18 42.8) (layer F.SilkS) (width 0.12))
  (fp_line (start 15.18 42.8) (end 15.18 43.56) (layer F.SilkS) (width 0.12))
  (fp_line (start 15.18 43.56) (end 9.18 43.56) (layer F.SilkS) (width 0.12))
  (fp_line (start 6.52 44.45) (end 9.18 44.45) (layer F.SilkS) (width 0.12))
  (fp_line (start 9.18 45.34) (end 15.18 45.34) (layer F.SilkS) (width 0.12))
  (fp_line (start 15.18 45.34) (end 15.18 46.1) (layer F.SilkS) (width 0.12))
  (fp_line (start 15.18 46.1) (end 9.18 46.1) (layer F.SilkS) (width 0.12))
  (fp_line (start 6.52 46.99) (end 9.18 46.99) (layer F.SilkS) (width 0.12))
  (fp_line (start 9.18 47.88) (end 15.18 47.88) (layer F.SilkS) (width 0.12))
  (fp_line (start 15.18 47.88) (end 15.18 48.64) (layer F.SilkS) (width 0.12))
  (fp_line (start 15.18 48.64) (end 9.18 48.64) (layer F.SilkS) (width 0.12))
  (fp_line (start -1.27 0) (end -1.27 -1.27) (layer F.SilkS) (width 0.12))
  (fp_line (start -1.27 -1.27) (end 0 -1.27) (layer F.SilkS) (width 0.12))
  (fp_line (start -1.8 -1.8) (end -1.8 50.05) (layer F.CrtYd) (width 0.05))
  (fp_line (start -1.8 50.05) (end 15.64 50.05) (layer F.CrtYd) (width 0.05))
  (fp_line (start 15.64 50.05) (end 15.64 -1.8) (layer F.CrtYd) (width 0.05))
  (fp_line (start 15.64 -1.8) (end -1.8 -1.8) (layer F.CrtYd) (width 0.05))
  (fp_text user "%R" (at 7.85 24.13 90) (layer F.Fab)
    (effects (font (size 1 1) (thickness 0.15)))
  )
  (pad "1" thru_hole circle (at 0 0) (size 1.7 1.7) (drill 1) (layers *.Cu *.Mask))
  (pad "2" thru_hole circle (at 2.54 0) (size 1.7 1.7) (drill 1) (layers *.Cu *.Mask))
  (pad "3" thru_hole circle (at 5.08 0) (size 1.7 1.7) (drill 1) (layers *.Cu *.Mask))
  (pad "4" thru_hole circle (at 0 2.54) (size 1.7 1.7) (drill 1) (layers *.Cu *.Mask))
  (pad "5" thru_hole circle (at 2.54 2.54) (size 1.7 1.7) (drill 1) (layers *.Cu *.Mask))
  (pad "6" thru_hole circle (at 5.08 2.54) (size 1.7 1.7) (drill 1) (layers *.Cu *.Mask))
  (pad "7" thru_hole circle (at 0 5.08) (size 1.7 1.7) (drill 1) (layers *.Cu *.Mask))
  (pad "8" thru_hole circle (at 2.54 5.08) (size 1.7 1.7) (drill 1) (layers *.Cu *.Mask))
  (pad "9" thru_hole circle (at 5.08 5.08) (size 1.7 1.7) (drill 1) (layers *.Cu *.Mask))
  (pad "10" thru_hole circle (at 0 7.62) (size 1.7 1.7) (drill 1) (layers *.Cu *.Mask))
  (pad "11" thru_hole circle (at 2.54 7.62) (size 1.7 1.7) (drill 1) (layers *.Cu *.Mask))
  (pad "12" thru_hole circle (at 5.08 7.62) (size 1.7 1.7) (drill 1) (layers *.Cu *.Mask))
  (pad "13" thru_hole circle (at 0 10.16) (size 1.7 1.7) (drill 1) (layers *.Cu *.Mask))
  (pad "14" thru_hole circle (at 2.54 10.16) (size 1.7 1.7) (drill 1) (layers *.Cu *.Mask))
  (pad "15" thru_hole circle (at 5.08 10.16) (size 1.7 1.7) (drill 1) (layers *.Cu *.Mask))
  (pad "16" thru_hole circle (at 0 12.7) (size 1.7 1.7) (drill 1) (layers *.Cu *.Mask))
  (pad "17" thru_hole circle (at 2.54 12.7) (size 1.7 1.7) (drill 1) (layers *.Cu *.Mask))
  (pad "18" thru_hole circle (at 5.08 12.7) (size 1.7 1.7) (drill 1) (layers *.Cu *.Mask))
  (pad "19" thru_hole circle (at 0 15.24) (size 1.7 1.7) (drill 1) (layers *.Cu *.Mask))
  (pad "20" thru_hole circle (at 2.54 15.24) (size 1.7 1.7) (drill 1) (layers *.Cu *.Mask))
  (pad "21" thru_hole circle (at 5.08 15.24) (size 1.7 1.7) (drill 1) (layers *.Cu *.Mask))
  (pad "22" thru_hole circle (at 0 17.78) (size 1.7 1.7) (drill 1) (layers *.Cu *.Mask))
  (pad "23" thru_hole circle (at 2.54 17.78) (size 1.7 1.7) (drill 1) (layers *.Cu *.Mask))
  (pad "24" thru_hole circle (at 5.08 17.78) (size 1.7 1.7) (drill 1) (layers *.Cu *.Mask))
  (pad "25" thru_hole circle (at 0 20.32) (size 1.7 1.7) (drill 1) (layers *.Cu *.Mask))
  (pad "26" thru_hole circle (at 2.54 20.32) (size 1.7 1.7) (drill 1) (layers *.Cu *.Mask))
  (pad "27" thru_hole circle (at 5.08 20.32) (size 1.7 1.7) (drill 1) (layers *.Cu *.Mask))
  (pad "28" thru_hole circle (at 0 22.86) (size 1.7 1.7) (drill 1) (layers *.Cu *.Mask))
  (pad "29" thru_hole circle (at 2.54 22.86) (size 1.7 1.7) (drill 1) (layers *.Cu *.Mask))
  (pad "30" thru_hole circle (at 5.08 22.86) (size 1.7 1.7) (drill 1) (layers *.Cu *.Mask))
  (pad "31" thru_hole circle (at 0 25.4) (size 1.7 1.7) (drill 1) (layers *.Cu *.Mask))
  (pad "32" thru_hole circle (at 2.54 25.4) (size 1.7 1.7) (drill 1) (layers *.Cu *.Mask))
  (pad "33" thru_hole circle (at 5.08 25.4) (size 1.7 1.7) (drill 1) (layers *.Cu *.Mask))
  (pad "34" thru_hole circle (at 0 27.94) (size 1.7 1.7) (drill 1) (layers *.Cu *.Mask))
  (pad "35" thru_hole circle (at 2.54 27.94) (size 1.7 1.7) (drill 1) (layers *.Cu *.Mask))
  (pad "36" thru_hole circle (at 5.08 27.94) (size 1.7 1.7) (drill 1) (layers *.Cu *.Mask))
  (pad "37" thru_hole circle (at 0 30.48) (size 1.7 1.7) (drill 1) (layers *.Cu *.Mask))
  (pad "38" thru_hole circle (at 2.54 30.48) (size 1.7 1.7) (drill 1) (layers *.Cu *.Mask))
  (pad "39" thru_hole circle (at 5.08 30.48) (size 1.7 1.7) (drill 1) (layers *.Cu *.Mask))
  (pad "40" thru_hole circle (at 0 33.02) (size 1.7 1.7) (drill 1) (layers *.Cu *.Mask))
  (pad "41" thru_hole circle (at 2.54 33.02) (size 1.7 1.7) (drill 1) (layers *.Cu *.Mask))
  (pad "42" thru_hole circle (at 5.08 33.02) (size 1.7 1.7) (drill 1) (layers *.Cu *.Mask))
  (pad "43" thru_hole circle (at 0 35.56) (size 1.7 1.7) (drill 1) (layers *.Cu *.Mask))
  (pad "44" thru_hole circle (at 2.54 35.56) (size 1.7 1.7) (drill 1) (layers *.Cu *.Mask))
  (pad "45" thru_hole circle (at 5.08 35.56) (size 1.7 1.7) (drill 1) (layers *.Cu *.Mask))
  (pad "46" thru_hole circle (at 0 38.1) (size 1.7 1.7) (drill 1) (layers *.Cu *.Mask))
  (pad "47" thru_hole circle (at 2.54 38.1) (size 1.7 1.7) (drill 1) (layers *.Cu *.Mask))
  (pad "48" thru_hole circle (at 5.08 38.1) (size 1.7 1.7) (drill 1) (layers *.Cu *.Mask))
  (pad "49" thru_hole circle (at 0 40.64) (size 1.7 1.7) (drill 1) (layers *.Cu *.Mask))
  (pad "50" thru_hole circle (at 2.54 40.64) (size 1.7 1.7) (drill 1) (layers *.Cu *.Mask))
  (pad "51" thru_hole circle (at 5.08 40.64) (size 1.7 1.7) (drill 1) (layers *.Cu *.Mask))
  (pad "52" thru_hole circle (at 0 43.18) (size 1.7 1.7) (drill 1) (layers *.Cu *.Mask))
  (pad "53" thru_hole circle (at 2.54 43.18) (size 1.7 1.7) (drill 1) (layers *.Cu *.Mask))
  (pad "54" thru_hole circle (at 5.08 43.18) (size 1.7 1.7) (drill 1) (layers *.Cu *.Mask))
  (pad "55" thru_hole circle (at 0 45.72) (size 1.7 1.7) (drill 1) (layers *.Cu *.Mask))
  (pad "56" thru_hole circle (at 2.54 45.72) (size 1.7 1.7) (drill 1) (layers *.Cu *.Mask))
  (pad "57" thru_hole circle (at 5.08 45.72) (size 1.7 1.7) (drill 1) (layers *.Cu *.Mask))
  (pad "58" thru_hole circle (at 0 48.26) (size 1.7 1.7) (drill 1) (layers *.Cu *.Mask))
  (pad "59" thru_hole circle (at 2.54 48.26) (size 1.7 1.7) (drill 1) (layers *.Cu *.Mask))
  (pad "60" thru_hole circle (at 5.08 48.26) (size 1.7 1.7) (drill 1) (layers *.Cu *.Mask))
  (model "${KICAD6_3DMODEL_DIR}/Connector_PinHeader_2.54mm.3dshapes/PinHeader_2x20_P2.54mm_Horizontal.wrl"
    (offset (xyz 2.54 0 0))
    (scale (xyz 1 1 1))
    (rotate (xyz 0 0 0))
  )
)
