(module KF7.62_4P (layer F.Cu) (tedit 59031523)
  (fp_text reference M1 (at -15.748 0 -270) (layer F.SilkS)
    (effects (font (size 0.6 0.6) (thickness 0.125)))
  )
  (fp_text value Bipolar_Stepper_Motor (at 0 -7) (layer F.SilkS)
    (effects (font (size 0.6 0.6) (thickness 0.125)))
  )
  (fp_line (start -16.24 -7) (end 16.24 -7) (layer F.CrtYd) (width 0.05))
  (fp_line (start 16.24 7) (end -16.24 7) (layer F.CrtYd) (width 0.05))
  (fp_line (start -16.24 -7) (end -16.24 7) (layer F.CrtYd) (width 0.05))
  (fp_line (start -7.62 -6) (end 0 -6) (layer F.SilkS) (width 0.125))
  (fp_line (start 0 -6) (end 0 6) (layer F.SilkS) (width 0.125))
  (fp_line (start 0 6) (end -7.62 6) (layer F.SilkS) (width 0.125))
  (fp_line (start -15.24 6) (end -7.62 6) (layer F.SilkS) (width 0.125))
  (fp_line (start -7.62 5) (end -7.62 -5) (layer F.SilkS) (width 0.125))
  (fp_line (start -7.62 -6) (end -15.24 -6) (layer F.SilkS) (width 0.125))
  (fp_line (start -15.24 -6) (end -15.24 6) (layer F.SilkS) (width 0.125))
  (fp_line (start 16.24 -7) (end 16.24 7) (layer F.CrtYd) (width 0.05))
  (fp_line (start 0 6) (end 7.62 6) (layer F.SilkS) (width 0.125))
  (fp_line (start 0 -6) (end 0 6) (layer F.SilkS) (width 0.125))
  (fp_line (start 7.62 -6) (end 15.24 -6) (layer F.SilkS) (width 0.125))
  (fp_line (start 15.24 6) (end 7.62 6) (layer F.SilkS) (width 0.125))
  (fp_line (start 7.62 5) (end 7.62 -5) (layer F.SilkS) (width 0.125))
  (fp_line (start 7.62 -6) (end 0 -6) (layer F.SilkS) (width 0.125))
  (fp_line (start 15.24 -6) (end 15.24 6) (layer F.SilkS) (width 0.125))
  (pad 2 thru_hole circle (at -3.81 4) (size 3 3) (drill 1.4) (layers *.Cu *.Mask))
  (pad 1 thru_hole circle (at -11.43 4) (size 3 3) (drill 1.4) (layers *.Cu *.Mask))
  (pad 3 thru_hole circle (at 3.81 4) (size 3 3) (drill 1.4) (layers *.Cu *.Mask))
  (pad 4 thru_hole circle (at 11.43 4) (size 3 3) (drill 1.4) (layers *.Cu *.Mask))
  (model ${KICAD6_3DMODEL_DIR}/TerminalBlock.3dshapes/Terminal_7.62.step
    (at (xyz 0.45 0 0))
    (scale (xyz 1 1 1))
    (rotate (xyz -90 0 0))
  )
  (model ${KICAD6_3DMODEL_DIR}/TerminalBlock.3dshapes/Terminal_7.62.step
    (at (xyz -0.45 0 0))
    (scale (xyz 1 1 1))
    (rotate (xyz -90 0 0))
  )
  (model ${KICAD6_3DMODEL_DIR}/TerminalBlock.3dshapes/Terminal_7.62.step
    (at (xyz 0.15 0 0))
    (scale (xyz 1 1 1))
    (rotate (xyz -90 0 0))
  )
  (model ${KICAD6_3DMODEL_DIR}/TerminalBlock.3dshapes/Terminal_7.62.step
    (at (xyz -0.15 0 0))
    (scale (xyz 1 1 1))
    (rotate (xyz -90 0 0))
  )
)
