(module CP_Radial_D8.0mm_P3.50mm (layer F.Cu) (tedit 5C2CED3B)
  (descr "CP, Radial series, Radial, pin pitch=3.50mm, , diameter=8mm, Electrolytic Capacitor")
  (tags "CP Radial series Radial pin pitch 3.50mm  diameter 8mm Electrolytic Capacitor")
  (fp_text reference C8 (at -0.53033 2.156676 -270) (layer F.SilkS)
    (effects (font (size 0.6 0.6) (thickness 0.15)))
  )
  (fp_text value 47uF (at 1.75 5.06) (layer F.Fab)
    (effects (font (size 0.6 0.6) (thickness 0.15)))
  )
  (fp_text user %R (at 1.75 0) (layer F.Fab)
    (effects (font (size 1 1) (thickness 0.15)))
  )
  (fp_line (start -0.609699 -0.685) (end -0.609698 -1.485) (layer B.SilkS) (width 0.12))
  (fp_line (start -1.009698 -1.085) (end -0.209698 -1.085) (layer B.SilkS) (width 0.12))
  (fp_line (start 4.081 -0.533) (end 4.081 0.533) (layer F.SilkS) (width 0.12))
  (fp_line (start 4.041 -0.768001) (end 4.041 0.768001) (layer F.SilkS) (width 0.12))
  (fp_line (start 4.001 -0.948) (end 4.001 0.948) (layer F.SilkS) (width 0.12))
  (fp_line (start 3.961 -1.098) (end 3.961 1.098) (layer F.SilkS) (width 0.12))
  (fp_line (start 3.921 -1.229) (end 3.921 1.229) (layer F.SilkS) (width 0.12))
  (fp_line (start 3.881 -1.346) (end 3.881 1.346) (layer F.SilkS) (width 0.12))
  (fp_line (start 3.841 -1.453) (end 3.841 1.453) (layer F.SilkS) (width 0.12))
  (fp_line (start 3.801 -1.552) (end 3.801 1.552) (layer F.SilkS) (width 0.12))
  (fp_line (start 3.761 -1.645) (end 3.761 1.645) (layer F.SilkS) (width 0.12))
  (fp_line (start 3.721 -1.731) (end 3.721 1.731) (layer F.SilkS) (width 0.12))
  (fp_line (start 3.681 -1.813001) (end 3.681 1.813001) (layer F.SilkS) (width 0.12))
  (fp_line (start 3.641 -1.89) (end 3.641 1.89) (layer F.SilkS) (width 0.12))
  (fp_line (start 3.601 -1.964) (end 3.601 1.964) (layer F.SilkS) (width 0.12))
  (fp_line (start 3.561 -2.034) (end 3.561 2.034) (layer F.SilkS) (width 0.12))
  (fp_line (start 3.521 -2.101999) (end 3.521 2.101999) (layer F.SilkS) (width 0.12))
  (fp_line (start 3.481 -2.166) (end 3.481 2.166) (layer F.SilkS) (width 0.12))
  (fp_line (start 3.441 -2.227999) (end 3.441 2.227999) (layer F.SilkS) (width 0.12))
  (fp_line (start 3.401 -2.287) (end 3.401 2.287) (layer F.SilkS) (width 0.12))
  (fp_line (start 3.360999 -2.345) (end 3.360999 2.345) (layer F.SilkS) (width 0.12))
  (fp_line (start 3.321 -2.4) (end 3.321 2.4) (layer F.SilkS) (width 0.12))
  (fp_line (start 3.281 -2.454) (end 3.281 2.454) (layer F.SilkS) (width 0.12))
  (fp_line (start 3.241001 -2.505) (end 3.241001 2.505) (layer F.SilkS) (width 0.12))
  (fp_line (start 3.201 -2.556) (end 3.201 2.556) (layer F.SilkS) (width 0.12))
  (fp_line (start 3.161 -2.604001) (end 3.161 2.604001) (layer F.SilkS) (width 0.12))
  (fp_line (start 3.121 -2.651) (end 3.121 2.651) (layer F.SilkS) (width 0.12))
  (fp_line (start 3.081 -2.697) (end 3.081 2.697) (layer F.SilkS) (width 0.12))
  (fp_line (start 3.041 -2.741) (end 3.041 2.741) (layer F.SilkS) (width 0.12))
  (fp_line (start 3.001 -2.784) (end 3.001 2.784) (layer F.SilkS) (width 0.12))
  (fp_line (start 2.961 -2.826) (end 2.961 2.826) (layer F.SilkS) (width 0.12))
  (fp_line (start 2.921 -2.867) (end 2.921 2.867) (layer F.SilkS) (width 0.12))
  (fp_line (start 2.881 -2.907) (end 2.881 2.907) (layer F.SilkS) (width 0.12))
  (fp_line (start 2.841 -2.945) (end 2.841 2.945) (layer F.SilkS) (width 0.12))
  (fp_line (start 2.801001 -2.983) (end 2.801001 2.983) (layer F.SilkS) (width 0.12))
  (fp_line (start 2.761 1.04) (end 2.761 3.019) (layer F.SilkS) (width 0.12))
  (fp_line (start 2.761 -3.019) (end 2.761 -1.04) (layer F.SilkS) (width 0.12))
  (fp_line (start 2.721 1.040001) (end 2.721 3.055) (layer F.SilkS) (width 0.12))
  (fp_line (start 2.721 -3.055) (end 2.721 -1.040001) (layer F.SilkS) (width 0.12))
  (fp_line (start 2.681 1.04) (end 2.681 3.09) (layer F.SilkS) (width 0.12))
  (fp_line (start 2.681 -3.09) (end 2.681 -1.04) (layer F.SilkS) (width 0.12))
  (fp_line (start 2.641 1.04) (end 2.641 3.124001) (layer F.SilkS) (width 0.12))
  (fp_line (start 2.641 -3.124001) (end 2.641 -1.04) (layer F.SilkS) (width 0.12))
  (fp_line (start 2.601 1.04) (end 2.601 3.156) (layer F.SilkS) (width 0.12))
  (fp_line (start 2.601 -3.156) (end 2.601 -1.04) (layer F.SilkS) (width 0.12))
  (fp_line (start 2.561 1.040001) (end 2.561 3.189) (layer F.SilkS) (width 0.12))
  (fp_line (start 2.561 -3.189) (end 2.561 -1.040001) (layer F.SilkS) (width 0.12))
  (fp_line (start 2.521 1.04) (end 2.521 3.22) (layer F.SilkS) (width 0.12))
  (fp_line (start 2.521 -3.22) (end 2.521 -1.04) (layer F.SilkS) (width 0.12))
  (fp_line (start 2.481 1.04) (end 2.481 3.25) (layer F.SilkS) (width 0.12))
  (fp_line (start 2.481 -3.25) (end 2.481 -1.04) (layer F.SilkS) (width 0.12))
  (fp_line (start 2.441 1.04) (end 2.441 3.28) (layer F.SilkS) (width 0.12))
  (fp_line (start 2.441 -3.28) (end 2.441 -1.04) (layer F.SilkS) (width 0.12))
  (fp_line (start 2.400999 1.04) (end 2.401 3.309) (layer F.SilkS) (width 0.12))
  (fp_line (start 2.401 -3.309) (end 2.400999 -1.04) (layer F.SilkS) (width 0.12))
  (fp_line (start 2.361 1.04) (end 2.361001 3.338) (layer F.SilkS) (width 0.12))
  (fp_line (start 2.361001 -3.338) (end 2.361 -1.04) (layer F.SilkS) (width 0.12))
  (fp_line (start 2.321 1.04) (end 2.321 3.365) (layer F.SilkS) (width 0.12))
  (fp_line (start 2.321 -3.365) (end 2.321 -1.04) (layer F.SilkS) (width 0.12))
  (fp_line (start 2.281001 1.04) (end 2.281 3.392) (layer F.SilkS) (width 0.12))
  (fp_line (start 2.281 -3.392) (end 2.281001 -1.04) (layer F.SilkS) (width 0.12))
  (fp_line (start 2.241 1.04) (end 2.241 3.418) (layer F.SilkS) (width 0.12))
  (fp_line (start 2.241 -3.418) (end 2.241 -1.04) (layer F.SilkS) (width 0.12))
  (fp_line (start 2.201 1.04) (end 2.201 3.444) (layer F.SilkS) (width 0.12))
  (fp_line (start 2.201 -3.444) (end 2.201 -1.04) (layer F.SilkS) (width 0.12))
  (fp_line (start 2.161 1.04) (end 2.161 3.469) (layer F.SilkS) (width 0.12))
  (fp_line (start 2.161 -3.469) (end 2.161 -1.04) (layer F.SilkS) (width 0.12))
  (fp_line (start 2.121 1.040001) (end 2.120999 3.493) (layer F.SilkS) (width 0.12))
  (fp_line (start 2.120999 -3.493) (end 2.121 -1.040001) (layer F.SilkS) (width 0.12))
  (fp_line (start 2.081 1.04) (end 2.081 3.517) (layer F.SilkS) (width 0.12))
  (fp_line (start 2.081 -3.517) (end 2.081 -1.04) (layer F.SilkS) (width 0.12))
  (fp_line (start 2.041 1.04) (end 2.041 3.54) (layer F.SilkS) (width 0.12))
  (fp_line (start 2.041 -3.54) (end 2.041 -1.04) (layer F.SilkS) (width 0.12))
  (fp_line (start 2.001 1.04) (end 2.001 3.562) (layer F.SilkS) (width 0.12))
  (fp_line (start 2.001 -3.562) (end 2.001 -1.04) (layer F.SilkS) (width 0.12))
  (fp_line (start 1.960999 1.04) (end 1.961 3.584) (layer F.SilkS) (width 0.12))
  (fp_line (start 1.961 -3.584) (end 1.960999 -1.04) (layer F.SilkS) (width 0.12))
  (fp_line (start 1.921 1.04) (end 1.921 3.606) (layer F.SilkS) (width 0.12))
  (fp_line (start 1.921 -3.606) (end 1.921 -1.04) (layer F.SilkS) (width 0.12))
  (fp_line (start 1.881 1.04) (end 1.881 3.627) (layer F.SilkS) (width 0.12))
  (fp_line (start 1.881 -3.627) (end 1.881 -1.04) (layer F.SilkS) (width 0.12))
  (fp_line (start 1.841001 1.04) (end 1.841 3.647) (layer F.SilkS) (width 0.12))
  (fp_line (start 1.841 -3.647) (end 1.841001 -1.04) (layer F.SilkS) (width 0.12))
  (fp_line (start 1.801 1.04) (end 1.801 3.666) (layer F.SilkS) (width 0.12))
  (fp_line (start 1.801 -3.666) (end 1.801 -1.04) (layer F.SilkS) (width 0.12))
  (fp_line (start 1.761 1.04) (end 1.761 3.686001) (layer F.SilkS) (width 0.12))
  (fp_line (start 1.761 -3.686001) (end 1.761 -1.04) (layer F.SilkS) (width 0.12))
  (fp_line (start 1.721 1.04) (end 1.721 3.704) (layer F.SilkS) (width 0.12))
  (fp_line (start 1.721 -3.704) (end 1.721 -1.04) (layer F.SilkS) (width 0.12))
  (fp_line (start 1.681 1.040001) (end 1.681 3.722) (layer F.SilkS) (width 0.12))
  (fp_line (start 1.681 -3.722) (end 1.681 -1.040001) (layer F.SilkS) (width 0.12))
  (fp_line (start 1.641 1.04) (end 1.641 3.74) (layer F.SilkS) (width 0.12))
  (fp_line (start 1.641 -3.74) (end 1.641 -1.04) (layer F.SilkS) (width 0.12))
  (fp_line (start 1.601 1.04) (end 1.601 3.757) (layer F.SilkS) (width 0.12))
  (fp_line (start 1.601 -3.757) (end 1.601 -1.04) (layer F.SilkS) (width 0.12))
  (fp_line (start 1.561 1.04) (end 1.561 3.774) (layer F.SilkS) (width 0.12))
  (fp_line (start 1.561 -3.774) (end 1.561 -1.04) (layer F.SilkS) (width 0.12))
  (fp_line (start 1.520999 1.04) (end 1.521 3.79) (layer F.SilkS) (width 0.12))
  (fp_line (start 1.521 -3.79) (end 1.520999 -1.04) (layer F.SilkS) (width 0.12))
  (fp_line (start 1.481 1.04) (end 1.481 3.805) (layer F.SilkS) (width 0.12))
  (fp_line (start 1.481 -3.805) (end 1.481 -1.04) (layer F.SilkS) (width 0.12))
  (fp_line (start 1.441 1.04) (end 1.441 3.821) (layer F.SilkS) (width 0.12))
  (fp_line (start 1.441 -3.821) (end 1.441 -1.04) (layer F.SilkS) (width 0.12))
  (fp_line (start 1.401001 1.04) (end 1.401 3.835) (layer F.SilkS) (width 0.12))
  (fp_line (start 1.401 -3.835) (end 1.401001 -1.04) (layer F.SilkS) (width 0.12))
  (fp_line (start 1.361 1.04) (end 1.361 3.85) (layer F.SilkS) (width 0.12))
  (fp_line (start 1.361 -3.85) (end 1.361 -1.04) (layer F.SilkS) (width 0.12))
  (fp_line (start 1.321 1.04) (end 1.321001 3.863) (layer F.SilkS) (width 0.12))
  (fp_line (start 1.321001 -3.863) (end 1.321 -1.04) (layer F.SilkS) (width 0.12))
  (fp_line (start 1.281 1.04) (end 1.281 3.877) (layer F.SilkS) (width 0.12))
  (fp_line (start 1.281 -3.877) (end 1.281 -1.04) (layer F.SilkS) (width 0.12))
  (fp_line (start 1.241 1.040001) (end 1.241 3.889) (layer F.SilkS) (width 0.12))
  (fp_line (start 1.241 -3.889) (end 1.241 -1.040001) (layer F.SilkS) (width 0.12))
  (fp_line (start 1.201 1.04) (end 1.201 3.902) (layer F.SilkS) (width 0.12))
  (fp_line (start 1.201 -3.902) (end 1.201 -1.04) (layer F.SilkS) (width 0.12))
  (fp_line (start 1.161 1.04) (end 1.161 3.914) (layer F.SilkS) (width 0.12))
  (fp_line (start 1.161 -3.914) (end 1.161 -1.04) (layer F.SilkS) (width 0.12))
  (fp_line (start 1.121 1.04) (end 1.121 3.925) (layer F.SilkS) (width 0.12))
  (fp_line (start 1.121 -3.925) (end 1.121 -1.04) (layer F.SilkS) (width 0.12))
  (fp_line (start 1.080999 1.04) (end 1.081 3.936) (layer F.SilkS) (width 0.12))
  (fp_line (start 1.081 -3.936) (end 1.080999 -1.04) (layer F.SilkS) (width 0.12))
  (fp_line (start 1.041 1.04) (end 1.041 3.947) (layer F.SilkS) (width 0.12))
  (fp_line (start 1.041 -3.947) (end 1.041 -1.04) (layer F.SilkS) (width 0.12))
  (fp_line (start 1.001 1.04) (end 1.000999 3.957) (layer F.SilkS) (width 0.12))
  (fp_line (start 1.000999 -3.957) (end 1.001 -1.04) (layer F.SilkS) (width 0.12))
  (fp_line (start 0.961001 1.04) (end 0.961 3.967) (layer F.SilkS) (width 0.12))
  (fp_line (start 0.961 -3.967) (end 0.961001 -1.04) (layer F.SilkS) (width 0.12))
  (fp_line (start 0.921 1.04) (end 0.921 3.976) (layer F.SilkS) (width 0.12))
  (fp_line (start 0.921 -3.976) (end 0.921 -1.04) (layer F.SilkS) (width 0.12))
  (fp_line (start 0.881 1.04) (end 0.881001 3.985) (layer F.SilkS) (width 0.12))
  (fp_line (start 0.881001 -3.985) (end 0.881 -1.04) (layer F.SilkS) (width 0.12))
  (fp_line (start 0.841 1.04) (end 0.841 3.994) (layer F.SilkS) (width 0.12))
  (fp_line (start 0.841 -3.994) (end 0.841 -1.04) (layer F.SilkS) (width 0.12))
  (fp_line (start 0.801 1.040001) (end 0.801 4.002) (layer F.SilkS) (width 0.12))
  (fp_line (start 0.801 -4.002) (end 0.801 -1.040001) (layer F.SilkS) (width 0.12))
  (fp_line (start 0.761 1.04) (end 0.761 4.01) (layer F.SilkS) (width 0.12))
  (fp_line (start 0.761 -4.01) (end 0.761 -1.04) (layer F.SilkS) (width 0.12))
  (fp_line (start 0.721 1.04) (end 0.721 4.017) (layer F.SilkS) (width 0.12))
  (fp_line (start 0.721 -4.017) (end 0.721 -1.04) (layer F.SilkS) (width 0.12))
  (fp_line (start 0.68 -4.024) (end 0.68 4.024) (layer F.SilkS) (width 0.12))
  (fp_line (start 0.64 -4.03) (end 0.64 4.03) (layer F.SilkS) (width 0.12))
  (fp_line (start 0.6 -4.037) (end 0.6 4.037) (layer F.SilkS) (width 0.12))
  (fp_line (start 0.56 -4.042) (end 0.56 4.042) (layer F.SilkS) (width 0.12))
  (fp_line (start 0.52 -4.048) (end 0.52 4.048) (layer F.SilkS) (width 0.12))
  (fp_line (start 0.48 -4.052) (end 0.48 4.052) (layer F.SilkS) (width 0.12))
  (fp_line (start 0.44 -4.057) (end 0.44 4.057) (layer F.SilkS) (width 0.12))
  (fp_line (start 0.4 -4.061) (end 0.4 4.061) (layer F.SilkS) (width 0.12))
  (fp_line (start 0.36 -4.065001) (end 0.36 4.065001) (layer F.SilkS) (width 0.12))
  (fp_line (start 0.32 -4.068) (end 0.32 4.068) (layer F.SilkS) (width 0.12))
  (fp_line (start 0.28 -4.071) (end 0.28 4.071) (layer F.SilkS) (width 0.12))
  (fp_line (start 0.240001 -4.074) (end 0.240001 4.074) (layer F.SilkS) (width 0.12))
  (fp_line (start 0.2 -4.076) (end 0.2 4.076) (layer F.SilkS) (width 0.12))
  (fp_line (start 0.16 -4.077) (end 0.16 4.077) (layer F.SilkS) (width 0.12))
  (fp_line (start 0.12 -4.079) (end 0.12 4.079) (layer F.SilkS) (width 0.12))
  (fp_line (start 0.08 -4.08) (end 0.08 4.08) (layer F.SilkS) (width 0.12))
  (fp_line (start 0.04 -4.08) (end 0.04 4.08) (layer F.SilkS) (width 0.12))
  (fp_line (start 0 -4.08) (end 0 4.08) (layer F.SilkS) (width 0.12))
  (fp_line (start -3.026759 -2.1475) (end -3.026759 -1.3475) (layer F.Fab) (width 0.1))
  (fp_line (start -3.426759 -1.747501) (end -2.626759 -1.7475) (layer F.Fab) (width 0.1))
  (fp_circle (center 0 0) (end 4.25 0) (layer F.CrtYd) (width 0.05))
  (fp_circle (center 0 0) (end 4.12 0) (layer F.SilkS) (width 0.12))
  (fp_circle (center 0 0) (end 4 0) (layer F.Fab) (width 0.1))
  (pad 2 thru_hole circle (at 1.75 0) (size 1.6 1.6) (drill 0.8) (layers *.Cu *.Mask))
  (pad 1 thru_hole roundrect (at -1.75 0) (size 1.6 1.6) (drill 0.8) (layers *.Cu *.Mask) (roundrect_rratio 0.206))
  (model ${KICAD6_3DMODEL_DIR}/Capacitor_THT.3dshapes/CP_Radial_D8.0mm_P3.50mm.wrl
    (offset (xyz -1.75 0 0))
    (scale (xyz 1 1 1))
    (rotate (xyz 0 0 0))
  )
)
