(footprint "CP_Radial_D10.0mm_P5.00mm" (version 20210108) (generator pcbnew) (layer "F.Cu")
  (tedit 60074338)
  (descr "CP, Radial series, Radial, pin pitch=5.00mm, , diameter=10mm, Electrolytic Capacitor")
  (tags "CP Radial series Radial pin pitch 5.00mm  diameter 10mm Electrolytic Capacitor")
  (property "MPN" "EEUFR1V331U")
  (property "Sheet file" "BrushedMotorController18V15A.kicad_sch")
  (property "Sheet name" "")
  (attr through_hole)
  (fp_text reference "C40" (at -0.25 -3 unlocked) (layer "F.SilkS")
    (effects (font (size 1 1) (thickness 0.15)) (justify right))
    (tstamp b985b69d-668c-490d-8b4e-477d2dd7e230)
  )
  (fp_text value "330uF" (at -2.5 1.5) (layer "F.Fab")
    (effects (font (size 0.2 0.2) (thickness 0.05)))
    (tstamp 0a133759-4612-432a-bfd9-c123aefd6221)
  )
  (fp_text user "${REFERENCE}" (at -2.5 -1.5) (layer "F.Fab")
    (effects (font (size 0.2 0.2) (thickness 0.05)))
    (tstamp 0f451c8e-c072-460b-8a5a-8188974edd00)
  )
  (fp_line (start 0.6 -5.045) (end 0.6 5.045) (layer "F.SilkS") (width 0.12) (tstamp 004aeb97-2ae5-4b88-84bc-4bffd75e9e98))
  (fp_line (start 3.001 -4.11) (end 3.001 -1.241) (layer "F.SilkS") (width 0.12) (tstamp 016f133b-4389-499b-b1e0-03e3cbde19aa))
  (fp_line (start 5.041 -0.862) (end 5.041 0.862) (layer "F.SilkS") (width 0.12) (tstamp 028daf9c-500a-4ecf-87ae-a82a74291c4d))
  (fp_line (start 0.44 -5.062) (end 0.44 5.062) (layer "F.SilkS") (width 0.12) (tstamp 06549de8-6f24-46b8-83ac-9afa0456c741))
  (fp_line (start 1.801 -4.754) (end 1.801 -1.241) (layer "F.SilkS") (width 0.12) (tstamp 0782d038-c797-44b9-ac34-863c9d036ed3))
  (fp_line (start 0.2 -5.077) (end 0.2 5.077) (layer "F.SilkS") (width 0.12) (tstamp 0870fdce-71d6-43ed-b88a-4bb4556d7963))
  (fp_line (start 2.201 1.241) (end 2.201 4.584) (layer "F.SilkS") (width 0.12) (tstamp 095f42be-d0bd-40cc-9b37-003fb33e99d0))
  (fp_line (start 3.721 -3.478) (end 3.721 -1.241) (layer "F.SilkS") (width 0.12) (tstamp 0a38d096-1d3a-4bea-92c0-940d03342ad9))
  (fp_line (start 1.601 1.241) (end 1.601 4.824) (layer "F.SilkS") (width 0.12) (tstamp 0ab2a8ba-8618-4006-ae73-f3622912686a))
  (fp_line (start 1.561 1.241) (end 1.561 4.837) (layer "F.SilkS") (width 0.12) (tstamp 0e2971ad-b77d-4c22-b1a9-3e889c46a90c))
  (fp_line (start 2.401 -4.483) (end 2.401 -1.241) (layer "F.SilkS") (width 0.12) (tstamp 0e940d18-619f-4b13-8060-95639506ebfc))
  (fp_line (start 2.361 -4.504) (end 2.361 -1.241) (layer "F.SilkS") (width 0.12) (tstamp 107e473a-a1e7-439f-b4a1-a2407e8f9fdc))
  (fp_line (start 4.121 -3) (end 4.121 3) (layer "F.SilkS") (width 0.12) (tstamp 15c3ec85-68a4-4745-8f9a-04ec8443c638))
  (fp_line (start 3.561 -3.64) (end 3.561 -1.241) (layer "F.SilkS") (width 0.12) (tstamp 17adfbe9-34b5-412f-a3bd-d56e514f31d1))
  (fp_line (start 4.361 -2.645) (end 4.361 2.645) (layer "F.SilkS") (width 0.12) (tstamp 186a891e-daba-4f12-9284-07a329980ecc))
  (fp_line (start 0.16 -5.078) (end 0.16 5.078) (layer "F.SilkS") (width 0.12) (tstamp 1912288e-6d95-48ba-829d-ced4a4a0892e))
  (fp_line (start 3.161 1.241) (end 3.161 3.989) (layer "F.SilkS") (width 0.12) (tstamp 1bf832bb-e521-43eb-9fd8-d172ccfdcb97))
  (fp_line (start 3.481 1.241) (end 3.481 3.716) (layer "F.SilkS") (width 0.12) (tstamp 1c2a2768-f4bd-4a53-b1c6-98c06f0988dc))
  (fp_line (start 4.041 -3.106) (end 4.041 3.106) (layer "F.SilkS") (width 0.12) (tstamp 20361e59-312c-421c-9acc-3390b1094164))
  (fp_line (start 0.64 -5.04) (end 0.64 5.04) (layer "F.SilkS") (width 0.12) (tstamp 2a7a87f8-6580-4e02-b579-79d3c34bcd4d))
  (fp_line (start 2.881 -4.194) (end 2.881 -1.241) (layer "F.SilkS") (width 0.12) (tstamp 2aea964e-5911-41c0-a294-e3b97d8ec918))
  (fp_line (start 2.641 1.241) (end 2.641 4.347) (layer "F.SilkS") (width 0.12) (tstamp 2b87392f-d533-47e1-acff-3b26259a16b3))
  (fp_line (start 4.641 -2.125) (end 4.641 2.125) (layer "F.SilkS") (width 0.12) (tstamp 2bd989cc-3646-42cc-a778-84bc60e05838))
  (fp_line (start 2.161 -4.603) (end 2.161 -1.241) (layer "F.SilkS") (width 0.12) (tstamp 2c1cf03e-e74b-432c-9d5d-0b5bd3585b48))
  (fp_line (start 3.721 1.241) (end 3.721 3.478) (layer "F.SilkS") (width 0.12) (tstamp 2d0b0361-909a-49eb-873e-a32d3ad57541))
  (fp_line (start 2.921 1.241) (end 2.921 4.166) (layer "F.SilkS") (width 0.12) (tstamp 2d7622cc-7598-4fd4-a474-7ec41b8c1cb0))
  (fp_line (start 0.4 -5.065) (end 0.4 5.065) (layer "F.SilkS") (width 0.12) (tstamp 2e8ef455-7daa-4d90-a6f8-959f588b38b0))
  (fp_line (start 2.921 -4.166) (end 2.921 -1.241) (layer "F.SilkS") (width 0.12) (tstamp 2f456c77-45cb-4cbc-a049-b45b9b06590d))
  (fp_line (start 2.041 1.241) (end 2.041 4.657) (layer "F.SilkS") (width 0.12) (tstamp 34a09fbf-3abd-478c-a4c1-5a4f5908dadc))
  (fp_line (start 2.601 -4.371) (end 2.601 -1.241) (layer "F.SilkS") (width 0.12) (tstamp 372e7295-55ec-4d89-ac39-d027743752fe))
  (fp_line (start 2.681 -4.323) (end 2.681 -1.241) (layer "F.SilkS") (width 0.12) (tstamp 37d0da33-ff46-4374-b86c-c099b57df1b5))
  (fp_line (start 1.401 -4.885) (end 1.401 -1.241) (layer "F.SilkS") (width 0.12) (tstamp 380477bc-82e0-49e3-8656-720068431af8))
  (fp_line (start 3.161 -3.989) (end 3.161 -1.241) (layer "F.SilkS") (width 0.12) (tstamp 3b36de5a-1ca1-47b8-9543-f8ee8eda307f))
  (fp_line (start 2.721 1.241) (end 2.721 4.298) (layer "F.SilkS") (width 0.12) (tstamp 3b6b3892-cb53-48fc-9cad-52fbdcce6e70))
  (fp_line (start 2.321 1.241) (end 2.321 4.525) (layer "F.SilkS") (width 0.12) (tstamp 3c121501-0c55-4924-a562-1a90d475c8b9))
  (fp_line (start 1.321 -4.907) (end 1.321 -1.241) (layer "F.SilkS") (width 0.12) (tstamp 3ced2ed9-6f45-41bf-8bd7-f7dac69333cb))
  (fp_line (start 1.081 -4.965) (end 1.081 4.965) (layer "F.SilkS") (width 0.12) (tstamp 3d31e040-2b83-4e14-9b54-e4cdcd7b3c54))
  (fp_line (start 3.401 -3.789) (end 3.401 -1.241) (layer "F.SilkS") (width 0.12) (tstamp 3e2154f8-550f-4c7c-810f-8578f2f3fa2a))
  (fp_line (start 1.881 1.241) (end 1.881 4.723) (layer "F.SilkS") (width 0.12) (tstamp 3f76dd60-4965-4c11-92ba-697fd95a6423))
  (fp_line (start 2.841 1.241) (end 2.841 4.221) (layer "F.SilkS") (width 0.12) (tstamp 41abb973-6905-42bf-b056-501745d16afa))
  (fp_line (start 4.241 -2.83) (end 4.241 2.83) (layer "F.SilkS") (width 0.12) (tstamp 428e7eb6-a59d-4a2a-ad24-3259cdbb94f2))
  (fp_line (start 0.961 -4.99) (end 0.961 4.99) (layer "F.SilkS") (width 0.12) (tstamp 433e904a-99a7-4745-bab2-9e3768a77e3a))
  (fp_line (start 1.721 -4.783) (end 1.721 -1.241) (layer "F.SilkS") (width 0.12) (tstamp 43b9d6c9-8e0c-4ffd-9def-ca6185a00892))
  (fp_line (start 2.521 1.241) (end 2.521 4.417) (layer "F.SilkS") (width 0.12) (tstamp 478baa03-0137-4f07-894f-cb9ff3ed32ea))
  (fp_line (start 0.24 -5.075) (end 0.24 5.075) (layer "F.SilkS") (width 0.12) (tstamp 482dd33d-e147-4d08-9edf-5431a758227c))
  (fp_line (start 1.001 -4.982) (end 1.001 4.982) (layer "F.SilkS") (width 0.12) (tstamp 49d34148-365e-4e67-95bd-70c9b942a988))
  (fp_line (start 3.921 -3.254) (end 3.921 3.254) (layer "F.SilkS") (width 0.12) (tstamp 4b202989-2081-4d77-8a5b-5daff3707adb))
  (fp_line (start 4.881 -1.51) (end 4.881 1.51) (layer "F.SilkS") (width 0.12) (tstamp 4c4ce680-4c5e-4546-8ce2-e53e555b9d1d))
  (fp_line (start 2.801 -4.247) (end 2.801 -1.241) (layer "F.SilkS") (width 0.12) (tstamp 4c5ed1a1-6486-44f4-b4e8-dfdaacc2eb9c))
  (fp_line (start 3.601 -3.601) (end 3.601 -1.241) (layer "F.SilkS") (width 0.12) (tstamp 4cb06e0d-4646-485d-ac04-0bd9a4c30f73))
  (fp_line (start 0.52 -5.054) (end 0.52 5.054) (layer "F.SilkS") (width 0.12) (tstamp 4d660ce8-c28c-41e2-ba3d-9a1f3e606796))
  (fp_line (start 2.361 1.241) (end 2.361 4.504) (layer "F.SilkS") (width 0.12) (tstamp 4dba166a-2aba-4e74-86f4-eb4184434336))
  (fp_line (start 1.161 -4.947) (end 1.161 4.947) (layer "F.SilkS") (width 0.12) (tstamp 4dcfc82b-deb4-4777-9260-e4f670cff979))
  (fp_line (start 1.321 1.241) (end 1.321 4.907) (layer "F.SilkS") (width 0.12) (tstamp 4edc519c-d9e8-4ae3-a38b-1be3a0547d1d))
  (fp_line (start 5.081 -0.599) (end 5.081 0.599) (layer "F.SilkS") (width 0.12) (tstamp 52cdd5f3-6165-4a03-8c2a-1b2f8f3402a3))
  (fp_line (start 4.561 -2.289) (end 4.561 2.289) (layer "F.SilkS") (width 0.12) (tstamp 52e5af6c-bcc9-4f60-8c26-d6b8a3ce5ae5))
  (fp_line (start 4.161 -2.945) (end 4.161 2.945) (layer "F.SilkS") (width 0.12) (tstamp 53829e24-1c92-4494-a19a-2b1df6bf1fdf))
  (fp_line (start 1.281 1.241) (end 1.281 4.918) (layer "F.SilkS") (width 0.12) (tstamp 5455225b-2d33-41a5-80f5-86f979b655f7))
  (fp_line (start 2.001 1.241) (end 2.001 4.674) (layer "F.SilkS") (width 0.12) (tstamp 5651bcdf-7d4c-45c7-a2d5-bcbc799ba842))
  (fp_line (start 1.201 -4.938) (end 1.201 4.938) (layer "F.SilkS") (width 0.12) (tstamp 59e1057a-d4c8-4d98-8d60-4f55557ea819))
  (fp_line (start 3.641 -3.561) (end 3.641 -1.241) (layer "F.SilkS") (width 0.12) (tstamp 5b3b58a2-2dd5-4082-b45a-1dec3b9aa3a9))
  (fp_line (start 3.441 1.241) (end 3.441 3.753) (layer "F.SilkS") (width 0.12) (tstamp 5b60d5b4-60af-4ae2-ad2a-bf156d37c584))
  (fp_line (start 0.68 -5.035) (end 0.68 5.035) (layer "F.SilkS") (width 0.12) (tstamp 5bc802ee-561c-4f55-a355-c857614c2014))
  (fp_line (start 2.041 -4.657) (end 2.041 -1.241) (layer "F.SilkS") (width 0.12) (tstamp 5c1b184f-7895-4f58-9f4c-98c302a94b51))
  (fp_line (start 1.361 -4.897) (end 1.361 -1.241) (layer "F.SilkS") (width 0.12) (tstamp 5c3d4919-976f-4f8a-a6e6-9f82e9ff5d3f))
  (fp_line (start 4.401 -2.579) (end 4.401 2.579) (layer "F.SilkS") (width 0.12) (tstamp 5d74fe11-f2e6-4481-af38-98829614e03e))
  (fp_line (start 4.841 -1.63) (end 4.841 1.63) (layer "F.SilkS") (width 0.12) (tstamp 5e1b8382-f22b-41b8-b04f-ad66d0a5309a))
  (fp_line (start 3.321 -3.858) (end 3.321 -1.241) (layer "F.SilkS") (width 0.12) (tstamp 5ef6e275-7ece-4da7-a2e9-268649e8b293))
  (fp_line (start 3.641 1.241) (end 3.641 3.561) (layer "F.SilkS") (width 0.12) (tstamp 5f9ac5ec-2763-4aa0-9c99-f303358da721))
  (fp_line (start 3.001 1.241) (end 3.001 4.11) (layer "F.SilkS") (width 0.12) (tstamp 60f4ee9d-a18b-4953-9396-7b205d95f040))
  (fp_line (start 3.241 -3.925) (end 3.241 -1.241) (layer "F.SilkS") (width 0.12) (tstamp 61f3f640-f881-4c2c-ba4e-e9803c772a65))
  (fp_line (start 1.681 1.241) (end 1.681 4.797) (layer "F.SilkS") (width 0.12) (tstamp 626c830d-372f-466e-b28d-44086793be99))
  (fp_line (start 1.761 1.241) (end 1.761 4.768) (layer "F.SilkS") (width 0.12) (tstamp 62fce9c4-dcdb-48e4-acfa-c621ac66106f))
  (fp_line (start 4.441 -2.51) (end 4.441 2.51) (layer "F.SilkS") (width 0.12) (tstamp 6314b994-f9ba-445a-b615-d1869ba9c1d3))
  (fp_line (start 3.881 -3.301) (end 3.881 3.301) (layer "F.SilkS") (width 0.12) (tstamp 6403e98b-7f1d-4f59-8254-4b8a3eb70eb7))
  (fp_line (start 1.921 1.241) (end 1.921 4.707) (layer "F.SilkS") (width 0.12) (tstamp 655b7703-fb49-4527-ac1b-b655daa762ec))
  (fp_line (start 0.28 -5.073) (end 0.28 5.073) (layer "F.SilkS") (width 0.12) (tstamp 669acac4-7974-493f-8276-886962741363))
  (fp_line (start 1.561 -4.837) (end 1.561 -1.241) (layer "F.SilkS") (width 0.12) (tstamp 66b9af9b-9305-432c-a2b9-74e99e36f978))
  (fp_line (start 3.521 -3.679) (end 3.521 -1.241) (layer "F.SilkS") (width 0.12) (tstamp 66f5b408-560e-4472-bf06-216a8c7ed915))
  (fp_line (start 4.521 -2.365) (end 4.521 2.365) (layer "F.SilkS") (width 0.12) (tstamp 6b1db1f5-3b06-419f-bb1b-1658053f5755))
  (fp_line (start 0.921 -4.997) (end 0.921 4.997) (layer "F.SilkS") (width 0.12) (tstamp 6bac35ff-ab77-4a13-96c5-0e1bcba4e113))
  (fp_line (start 2.121 -4.621) (end 2.121 -1.241) (layer "F.SilkS") (width 0.12) (tstamp 6e2ece3e-899c-4a45-8846-c593f7c381cf))
  (fp_line (start 3.521 1.241) (end 3.521 3.679) (layer "F.SilkS") (width 0.12) (tstamp 6f5f9a72-5ce1-4272-908a-3c21718dd2d0))
  (fp_line (start 3.441 -3.753) (end 3.441 -1.241) (layer "F.SilkS") (width 0.12) (tstamp 72c4265f-fb85-429f-ad21-08f964b2f28d))
  (fp_line (start 4.761 -1.846) (end 4.761 1.846) (layer "F.SilkS") (width 0.12) (tstamp 7418541e-aad5-45b2-b100-a8081e455ad8))
  (fp_line (start 3.961 -3.206) (end 3.961 3.206) (layer "F.SilkS") (width 0.12) (tstamp 7426e670-7d53-4e7d-841e-108564f67a04))
  (fp_line (start 2.961 1.241) (end 2.961 4.138) (layer "F.SilkS") (width 0.12) (tstamp 756d279a-3036-42a1-9ee8-039d7204c172))
  (fp_line (start 3.201 1.241) (end 3.201 3.957) (layer "F.SilkS") (width 0.12) (tstamp 763c8d76-0da9-4c2a-a27d-9a89fb56fbcd))
  (fp_line (start 2.601 1.241) (end 2.601 4.371) (layer "F.SilkS") (width 0.12) (tstamp 76a658c3-b265-4f4a-8161-6dde6d96145b))
  (fp_line (start 1.921 -4.707) (end 1.921 -1.241) (layer "F.SilkS") (width 0.12) (tstamp 78b626ae-5c79-4cdc-9d78-3f5f316c58c0))
  (fp_line (start 1.361 1.241) (end 1.361 4.897) (layer "F.SilkS") (width 0.12) (tstamp 79d33c5a-e3b5-4f31-b8a0-78da82b88915))
  (fp_line (start 4.201 -2.889) (end 4.201 2.889) (layer "F.SilkS") (width 0.12) (tstamp 7bbe75cd-93c9-4c24-9c05-efbc70ffa8d9))
  (fp_line (start 2.681 1.241) (end 2.681 4.323) (layer "F.SilkS") (width 0.12) (tstamp 7cf07ca4-90ea-49f0-984a-ca38bbdca617))
  (fp_line (start 1.441 1.241) (end 1.441 4.874) (layer "F.SilkS") (width 0.12) (tstamp 7d9ed1ef-9df5-4d5d-b0b1-14bdd2e8b573))
  (fp_line (start 0.56 -5.05) (end 0.56 5.05) (layer "F.SilkS") (width 0.12) (tstamp 7ea369ae-1db2-46b5-9e04-575dd460e020))
  (fp_line (start 1.721 1.241) (end 1.721 4.783) (layer "F.SilkS") (width 0.12) (tstamp 7fc1e85c-c640-459e-b446-9d882a5f3509))
  (fp_line (start 4.321 -2.709) (end 4.321 2.709) (layer "F.SilkS") (width 0.12) (tstamp 81d1a4e4-9e38-400c-a125-48d89cd11c01))
  (fp_line (start 3.401 1.241) (end 3.401 3.789) (layer "F.SilkS") (width 0.12) (tstamp 820a5c18-61bf-4df2-a169-a20d2c9f3c17))
  (fp_line (start 2.481 1.241) (end 2.481 4.44) (layer "F.SilkS") (width 0.12) (tstamp 833cab4c-3442-4937-b62f-93bb38eaca6f))
  (fp_line (start 4.721 -1.944) (end 4.721 1.944) (layer "F.SilkS") (width 0.12) (tstamp 84a14aa6-ca18-4ed3-af3f-965682c29235))
  (fp_line (start 1.841 -4.738) (end 1.841 -1.241) (layer "F.SilkS") (width 0.12) (tstamp 86160a16-6782-49e7-b405-272b91689292))
  (fp_line (start 0.801 -5.018) (end 0.801 5.018) (layer "F.SilkS") (width 0.12) (tstamp 8719bfab-a1e3-49d8-86f2-25943f9f94d8))
  (fp_line (start 2.321 -4.525) (end 2.321 -1.241) (layer "F.SilkS") (width 0.12) (tstamp 875df245-a77c-41e7-b69c-6b61bc768d85))
  (fp_line (start 0 -5.08) (end 0 5.08) (layer "F.SilkS") (width 0.12) (tstamp 877038c7-0f0d-41f8-88e0-e1eaac71d087))
  (fp_line (start 3.681 -3.52) (end 3.681 -1.241) (layer "F.SilkS") (width 0.12) (tstamp 87f12fde-e57c-4bb8-be68-010813b6a3f8))
  (fp_line (start 3.681 1.241) (end 3.681 3.52) (layer "F.SilkS") (width 0.12) (tstamp 89f7b1f8-8bf6-4a30-b84f-fd0620789aff))
  (fp_line (start 1.481 1.241) (end 1.481 4.862) (layer "F.SilkS") (width 0.12) (tstamp 8b62d062-666e-4c23-9fdf-b089253c6a9e))
  (fp_line (start 1.961 -4.69) (end 1.961 -1.241) (layer "F.SilkS") (width 0.12) (tstamp 8dcd4550-6773-4954-949d-0889889cb6b9))
  (fp_line (start 2.761 -4.273) (end 2.761 -1.241) (layer "F.SilkS") (width 0.12) (tstamp 907719b6-7bd7-46c0-8c14-ad4517b15953))
  (fp_line (start 3.481 -3.716) (end 3.481 -1.241) (layer "F.SilkS") (width 0.12) (tstamp 9297fec0-bf95-4b8f-af7e-edd1115e6640))
  (fp_line (start 2.121 1.241) (end 2.121 4.621) (layer "F.SilkS") (width 0.12) (tstamp 92b5c8fc-6776-42b5-bb4e-62dce385b3a0))
  (fp_line (start 2.241 -4.564) (end 2.241 -1.241) (layer "F.SilkS") (width 0.12) (tstamp 93efdd52-f2ec-487d-89ca-3aa3ad4895a5))
  (fp_line (start 1.521 -4.85) (end 1.521 -1.241) (layer "F.SilkS") (width 0.12) (tstamp 94268b52-b31a-45a9-af11-c0b653fbd3cc))
  (fp_line (start 2.161 1.241) (end 2.161 4.603) (layer "F.SilkS") (width 0.12) (tstamp 94d6581d-0d14-4c78-bbb4-b9d79cef90f3))
  (fp_line (start 1.281 -4.918) (end 1.281 -1.241) (layer "F.SilkS") (width 0.12) (tstamp 950af6e7-ce16-4f5a-93b2-f2ef5711e820))
  (fp_line (start 0.721 -5.03) (end 0.721 5.03) (layer "F.SilkS") (width 0.12) (tstamp 98016e4c-5fb5-465d-bf6b-7790212931f9))
  (fp_line (start 4.481 -2.439) (end 4.481 2.439) (layer "F.SilkS") (width 0.12) (tstamp 98361a38-c57a-4afa-97a0-d65892dbc294))
  (fp_line (start 2.721 -4.298) (end 2.721 -1.241) (layer "F.SilkS") (width 0.12) (tstamp 99da6aad-5d3f-4f57-841d-ca435b9a8b24))
  (fp_line (start 4.281 -2.77) (end 4.281 2.77) (layer "F.SilkS") (width 0.12) (tstamp 9da8d944-85a0-4a06-bd69-5b33e21d4a5e))
  (fp_line (start 0.32 -5.07) (end 0.32 5.07) (layer "F.SilkS") (width 0.12) (tstamp 9eec6e52-cfa7-4185-814f-6c0b4a1e2c18))
  (fp_line (start 1.481 -4.862) (end 1.481 -1.241) (layer "F.SilkS") (width 0.12) (tstamp 9fc25a34-836f-41a8-b731-f2ec5fa6ce12))
  (fp_line (start 0.48 -5.058) (end 0.48 5.058) (layer "F.SilkS") (width 0.12) (tstamp a32d4a25-42f4-4663-990a-56c6b8335cd6))
  (fp_line (start 1.401 1.241) (end 1.401 4.885) (layer "F.SilkS") (width 0.12) (tstamp a35b93e2-b5c6-45fd-96f6-b53bdc204b2c))
  (fp_line (start 1.841 1.241) (end 1.841 4.738) (layer "F.SilkS") (width 0.12) (tstamp a3a8c121-f08d-4277-8981-1ab716b9619b))
  (fp_line (start 3.841 -3.347) (end 3.841 3.347) (layer "F.SilkS") (width 0.12) (tstamp a5ac8b92-0572-484b-95d6-8bbf5ed5e60b))
  (fp_line (start 2.441 1.241) (end 2.441 4.462) (layer "F.SilkS") (width 0.12) (tstamp a7a1fbf7-3f34-4f55-b8d8-8b9b5532d5b1))
  (fp_line (start 2.201 -4.584) (end 2.201 -1.241) (layer "F.SilkS") (width 0.12) (tstamp aab21328-040d-472d-911f-2e428383f1dc))
  (fp_line (start 2.801 1.241) (end 2.801 4.247) (layer "F.SilkS") (width 0.12) (tstamp ab7ad6f8-e47a-4164-8bf3-2a7802d72262))
  (fp_line (start 1.961 1.241) (end 1.961 4.69) (layer "F.SilkS") (width 0.12) (tstamp ae0509c7-3ddb-4431-abd0-eed7cc8782ed))
  (fp_line (start 1.121 -4.956) (end 1.121 4.956) (layer "F.SilkS") (width 0.12) (tstamp ae26b604-a7c6-4859-9e6d-12e2202cb46f))
  (fp_line (start 4.961 -1.23) (end 4.961 1.23) (layer "F.SilkS") (width 0.12) (tstamp af6c5bc0-2efc-4a9a-9b64-5469976b1466))
  (fp_line (start 3.281 1.241) (end 3.281 3.892) (layer "F.SilkS") (width 0.12) (tstamp b0e52efd-8808-4ade-84da-2a6e60b518f1))
  (fp_line (start 1.641 1.241) (end 1.641 4.811) (layer "F.SilkS") (width 0.12) (tstamp b3448e16-39fc-4262-acb3-326e1019085e))
  (fp_line (start 0.841 -5.011) (end 0.841 5.011) (layer "F.SilkS") (width 0.12) (tstamp b8bb7ddd-54d4-4a32-8ecc-8fa3a04ba40f))
  (fp_line (start 1.041 -4.974) (end 1.041 4.974) (layer "F.SilkS") (width 0.12) (tstamp bbf2103b-f714-49f0-a8b0-0a2073762e4e))
  (fp_line (start 2.961 -4.138) (end 2.961 -1.241) (layer "F.SilkS") (width 0.12) (tstamp bdb0d702-1a5b-4763-84ff-b9d9024b8055))
  (fp_line (start 3.801 -3.392) (end 3.801 3.392) (layer "F.SilkS") (width 0.12) (tstamp be77c58d-6a24-4f23-a2db-ea476dd31daa))
  (fp_line (start 3.081 -4.05) (end 3.081 -1.241) (layer "F.SilkS") (width 0.12) (tstamp bf4b238b-6419-4862-955a-f3334f00eb23))
  (fp_line (start 1.441 -4.874) (end 1.441 -1.241) (layer "F.SilkS") (width 0.12) (tstamp c0fabed4-e361-4b19-8a8b-a2bc74200102))
  (fp_line (start 3.121 -4.02) (end 3.121 -1.241) (layer "F.SilkS") (width 0.12) (tstamp c48ecafb-b62a-41ff-a67d-5000ec98e5c8))
  (fp_line (start 2.441 -4.462) (end 2.441 -1.241) (layer "F.SilkS") (width 0.12) (tstamp c5a4dddf-191a-48f4-a37f-b8c73d3f4b23))
  (fp_line (start 4.001 -3.156) (end 4.001 3.156) (layer "F.SilkS") (width 0.12) (tstamp c6df84d2-220c-4729-b68b-2e9ede794cf7))
  (fp_line (start 2.281 -4.545) (end 2.281 -1.241) (layer "F.SilkS") (width 0.12) (tstamp c708ad40-ee32-4b5d-8456-3876b76a73cf))
  (fp_line (start 0.08 -5.08) (end 0.08 5.08) (layer "F.SilkS") (width 0.12) (tstamp c866bd76-51ff-4817-94d1-19bc61f687cd))
  (fp_line (start 3.361 -3.824) (end 3.361 -1.241) (layer "F.SilkS") (width 0.12) (tstamp c93f44f8-30c7-4db9-a8b4-b9412ec54e49))
  (fp_line (start 1.681 -4.797) (end 1.681 -1.241) (layer "F.SilkS") (width 0.12) (tstamp ca1c1b6d-b985-4a0c-ab03-7f6bfb2d950a))
  (fp_line (start 1.801 1.241) (end 1.801 4.754) (layer "F.SilkS") (width 0.12) (tstamp cbe8978a-84e3-4a5a-8f54-30f10e3793ec))
  (fp_line (start 3.121 1.241) (end 3.121 4.02) (layer "F.SilkS") (width 0.12) (tstamp cd92bb3f-1447-47dd-8b73-89a5634267f8))
  (fp_line (start 2.081 1.241) (end 2.081 4.639) (layer "F.SilkS") (width 0.12) (tstamp cdfebfb9-dc0c-4686-8797-c6a39bcacf27))
  (fp_line (start 2.641 -4.347) (end 2.641 -1.241) (layer "F.SilkS") (width 0.12) (tstamp d120373c-8a55-4f1c-8f04-65b481a8ef26))
  (fp_line (start 3.601 1.241) (end 3.601 3.601) (layer "F.SilkS") (width 0.12) (tstamp d12edba3-aa39-434b-ae6b-5eb9b24cdc98))
  (fp_line (start 3.761 -3.436) (end 3.761 3.436) (layer "F.SilkS") (width 0.12) (tstamp d5c70fd0-0117-4af3-b041-de49c708111d))
  (fp_line (start 3.321 1.241) (end 3.321 3.858) (layer "F.SilkS") (width 0.12) (tstamp d6044eef-2644-43cc-90a5-a5a9916e0800))
  (fp_line (start 1.641 -4.811) (end 1.641 -1.241) (layer "F.SilkS") (width 0.12) (tstamp d6566b64-63fb-4d0c-b070-a87f8c4e8d22))
  (fp_line (start 0.04 -5.08) (end 0.04 5.08) (layer "F.SilkS") (width 0.12) (tstamp d66bd969-a584-42e8-8716-a5bbd4630616))
  (fp_line (start 3.041 1.241) (end 3.041 4.08) (layer "F.SilkS") (width 0.12) (tstamp d731b5d2-b415-4691-8b79-defeb8bc7cd4))
  (fp_line (start 2.761 1.241) (end 2.761 4.273) (layer "F.SilkS") (width 0.12) (tstamp d7e2ae80-4763-467b-8518-2f6e65faef83))
  (fp_line (start 3.201 -3.957) (end 3.201 -1.241) (layer "F.SilkS") (width 0.12) (tstamp da607362-0778-47ee-af75-136015973680))
  (fp_line (start 2.241 1.241) (end 2.241 4.564) (layer "F.SilkS") (width 0.12) (tstamp da7299a6-7869-42e7-809a-854d67706bef))
  (fp_line (start 3.561 1.241) (end 3.561 3.64) (layer "F.SilkS") (width 0.12) (tstamp daf69c14-50f7-41ff-ac68-898af5f05e26))
  (fp_line (start 3.041 -4.08) (end 3.041 -1.241) (layer "F.SilkS") (width 0.12) (tstamp db9c8ec7-5019-49fd-a4d5-3bf386b6757c))
  (fp_line (start 0.36 -5.068) (end 0.36 5.068) (layer "F.SilkS") (width 0.12) (tstamp dc02147b-3651-4a03-acc4-688841193266))
  (fp_line (start 3.361 1.241) (end 3.361 3.824) (layer "F.SilkS") (width 0.12) (tstamp dd7a2383-bb8f-4142-a69a-306df80f228e))
  (fp_line (start 4.081 -3.054) (end 4.081 3.054) (layer "F.SilkS") (width 0.12) (tstamp dd8c6b22-a0e5-45df-8ce5-a0966ccb01a7))
  (fp_line (start 2.561 1.241) (end 2.561 4.395) (layer "F.SilkS") (width 0.12) (tstamp dda03ab8-2944-4dee-bcd0-0f3ed253a6b0))
  (fp_line (start 2.481 -4.44) (end 2.481 -1.241) (layer "F.SilkS") (width 0.12) (tstamp e034e00b-3d65-4f63-a009-d0561b367f9e))
  (fp_line (start 2.561 -4.395) (end 2.561 -1.241) (layer "F.SilkS") (width 0.12) (tstamp e261b495-eea8-4526-9724-9bd6492746d2))
  (fp_line (start 3.081 1.241) (end 3.081 4.05) (layer "F.SilkS") (width 0.12) (tstamp e2d73ad9-fdbf-4de7-bbd3-644318ec3117))
  (fp_line (start 1.241 -4.928) (end 1.241 4.928) (layer "F.SilkS") (width 0.12) (tstamp e3374bcd-0ea1-47ea-bc08-ebb6f72833a9))
  (fp_line (start 3.281 -3.892) (end 3.281 -1.241) (layer "F.SilkS") (width 0.12) (tstamp e3976b23-68bd-473f-a56c-b231634e03ce))
  (fp_line (start 4.801 -1.742) (end 4.801 1.742) (layer "F.SilkS") (width 0.12) (tstamp e4027698-b8f6-4167-9888-437f8df7ee38))
  (fp_line (start 2.001 -4.674) (end 2.001 -1.241) (layer "F.SilkS") (width 0.12) (tstamp e5ef60c8-4980-40ae-960b-ad3c0fd32d3b))
  (fp_line (start 1.761 -4.768) (end 1.761 -1.241) (layer "F.SilkS") (width 0.12) (tstamp e6ff11cb-96b9-456e-a48c-e412c16d2602))
  (fp_line (start 2.401 1.241) (end 2.401 4.483) (layer "F.SilkS") (width 0.12) (tstamp e76cbcc4-76a4-41fd-9773-3cd0e9f1df17))
  (fp_line (start 0.881 -5.004) (end 0.881 5.004) (layer "F.SilkS") (width 0.12) (tstamp e8d8f499-9f4d-4d91-bc81-d35d07154bce))
  (fp_line (start 1.521 1.241) (end 1.521 4.85) (layer "F.SilkS") (width 0.12) (tstamp ea2efa15-14b7-4be2-8f36-07aa564e4fdf))
  (fp_line (start 0.761 -5.024) (end 0.761 5.024) (layer "F.SilkS") (width 0.12) (tstamp ea53516b-9860-44d4-9043-6715c206ce0b))
  (fp_line (start 2.841 -4.221) (end 2.841 -1.241) (layer "F.SilkS") (width 0.12) (tstamp edbda4cd-affe-414a-964e-b8f8e5b2040b))
  (fp_line (start 4.921 -1.378) (end 4.921 1.378) (layer "F.SilkS") (width 0.12) (tstamp ee9cc0b8-2979-47de-8935-9c0ae5cbbc1b))
  (fp_line (start 1.601 -4.824) (end 1.601 -1.241) (layer "F.SilkS") (width 0.12) (tstamp f10da281-d8c9-4bdc-8c13-7366142d9b63))
  (fp_line (start 4.681 -2.037) (end 4.681 2.037) (layer "F.SilkS") (width 0.12) (tstamp f2399720-5fe3-4603-8986-6cc582a0dd0c))
  (fp_line (start 2.281 1.241) (end 2.281 4.545) (layer "F.SilkS") (width 0.12) (tstamp f2f62cd0-924f-47dc-9ed3-ba00576ee3e1))
  (fp_line (start 3.241 1.241) (end 3.241 3.925) (layer "F.SilkS") (width 0.12) (tstamp f4eca26b-674d-42f9-97e3-3c548f97cff6))
  (fp_line (start 1.881 -4.723) (end 1.881 -1.241) (layer "F.SilkS") (width 0.12) (tstamp f534ea0f-47fa-4a0c-a6b2-79bd7405fdbb))
  (fp_line (start 2.081 -4.639) (end 2.081 -1.241) (layer "F.SilkS") (width 0.12) (tstamp f589f110-f173-4400-946e-357960c96b39))
  (fp_line (start 2.881 1.241) (end 2.881 4.194) (layer "F.SilkS") (width 0.12) (tstamp f69b88ac-8bdc-4397-9bf5-a58cac9c7f5f))
  (fp_line (start 2.521 -4.417) (end 2.521 -1.241) (layer "F.SilkS") (width 0.12) (tstamp f7753378-449f-4fe2-80c2-569201919cb1))
  (fp_line (start 0.12 -5.079) (end 0.12 5.079) (layer "F.SilkS") (width 0.12) (tstamp f86889c9-be8a-4418-8042-651c77e136e6))
  (fp_line (start 4.601 -2.209) (end 4.601 2.209) (layer "F.SilkS") (width 0.12) (tstamp faa759a6-c0c9-47e7-9c3a-5ded13260b7b))
  (fp_line (start 5.001 -1.062) (end 5.001 1.062) (layer "F.SilkS") (width 0.12) (tstamp fc22090a-a791-491e-aaa8-ebcfedee92d0))
  (fp_circle (center 0 0) (end 5.12 0) (layer "F.SilkS") (width 0.12) (fill none) (tstamp a7857e0c-df99-4438-b8cc-0cc18d80675b))
  (fp_circle (center 0 0) (end 5.25 0) (layer "F.CrtYd") (width 0.05) (fill none) (tstamp bf089f15-9679-474e-bb32-9cd794b4695b))
  (fp_line (start -3.788861 -2.6875) (end -3.788861 -1.6875) (layer "F.Fab") (width 0.1) (tstamp 0c9e4842-240e-49f8-810d-e64e87f3322a))
  (fp_line (start -4.288861 -2.1875) (end -3.288861 -2.1875) (layer "F.Fab") (width 0.1) (tstamp 1931894f-fa78-44a8-97ae-36e489402f31))
  (fp_circle (center 0 0) (end 5 0) (layer "F.Fab") (width 0.1) (fill none) (tstamp 2f317530-8efb-4b95-b9da-452963b8b09e))
  (pad "1" thru_hole rect (at -2.5 0) (locked) (size 2 2) (drill 1) (layers *.Cu *.Mask) (tstamp 80acc699-620b-48d6-ae8d-1a1d1072f157))
  (pad "2" thru_hole circle (at 2.5 0) (locked) (size 2 2) (drill 1) (layers *.Cu *.Mask) (tstamp 8ae26398-ca7e-4d55-9c20-1aff41fade06))
  (model "${KICAD6_3DMODEL_DIR}/Capacitor_THT.3dshapes/CP_Radial_D10.0mm_P5.00mm.step"
    (offset (xyz -2.5 0 0))
    (scale (xyz 1 1 1))
    (rotate (xyz 0 0 0))
  )
)
