(module TSOP384xx (layer F.Cu) (tedit 581F2503)
  (solder_mask_margin -0.01)
  (fp_text reference REF** (at -3.9 0 90) (layer F.SilkS)
    (effects (font (size 0.6 0.6) (thickness 0.125)))
  )
  (fp_text value TSOP384xx (at 0 -1.6) (layer F.Fab)
    (effects (font (size 0.6 0.6) (thickness 0.125)))
  )
  (pad 1 thru_hole rect (at -2.54 0) (size 1.2 1.8) (drill 0.9) (layers *.Cu *.Mask))
  (pad 2 thru_hole roundrect (at 0 0) (size 1.2 1.8) (drill 0.9) (layers *.Cu *.Mask)(roundrect_rratio 0.25))
  (pad 3 thru_hole roundrect (at 2.54 0) (size 1.2 1.8) (drill 0.9) (layers *.Cu *.Mask)(roundrect_rratio 0.25))
  (model ${KICAD6_3DMODEL_DIR}/Sensor_Optical.3dshapes/TSOP384xx_short_legs.step
    (at (xyz 0 0 0))
    (scale (xyz 1 1 1))
    (rotate (xyz -90 0 0))
  )
)
