(module SOD-523_KA (layer F.Cu) (tedit 5C2DB728)
  (tags "0603 1608")
  (solder_mask_margin 0.05)
  (solder_paste_margin -0.05)
  (attr smd)
  (fp_text reference D4 (at 0 -1.25) (layer F.SilkS)
    (effects (font (size 0.6 0.6) (thickness 0.15)))
  )
  (fp_text value DB2S30800L (at 2 0.6) (layer F.Fab)
    (effects (font (size 0.6 0.6) (thickness 0.15)))
  )
  (fp_line (start 0.15 0.05) (end 0 0) (layer F.SilkS) (width 0.125))
  (fp_line (start 0.15 -0.05) (end 0.15 0.05) (layer F.SilkS) (width 0.125))
  (fp_line (start 0 0) (end 0.15 -0.05) (layer F.SilkS) (width 0.125))
  (fp_line (start -0.2 -0.2) (end -0.2 0.2) (layer F.SilkS) (width 0.125))
  (fp_line (start 0.2 0.2) (end -0.1 0) (layer F.SilkS) (width 0.125))
  (fp_line (start 0.2 -0.2) (end 0.2 0.2) (layer F.SilkS) (width 0.125))
  (fp_line (start -0.1 0) (end 0.2 -0.2) (layer F.SilkS) (width 0.125))
  (fp_line (start -0.2 0.6) (end -0.2 0.5) (layer F.SilkS) (width 0.125))
  (fp_line (start -0.3 0.6) (end -0.2 0.6) (layer F.SilkS) (width 0.125))
  (fp_line (start -0.3 0.5) (end -0.3 0.6) (layer F.SilkS) (width 0.125))
  (fp_line (start -0.2 -0.6) (end -0.2 -0.5) (layer F.SilkS) (width 0.125))
  (fp_line (start -0.3 -0.6) (end -0.2 -0.6) (layer F.SilkS) (width 0.125))
  (fp_line (start -0.3 -0.5) (end -0.3 -0.6) (layer F.SilkS) (width 0.125))
  (fp_line (start -0.3 -0.5) (end 0.3 -0.5) (layer F.SilkS) (width 0.127))
  (fp_line (start -0.3 0.5) (end 0.3 0.5) (layer F.SilkS) (width 0.127))
  (fp_line (start -1.3 -0.65) (end 1.3 -0.65) (layer F.CrtYd) (width 0.05))
  (fp_line (start -1.3 0.65) (end -1.3 -0.65) (layer F.CrtYd) (width 0.05))
  (fp_line (start 1.3 0.65) (end -1.3 0.65) (layer F.CrtYd) (width 0.05))
  (fp_line (start 1.3 -0.65) (end 1.3 0.65) (layer F.CrtYd) (width 0.05))
  (fp_line (start -0.8 -0.4) (end 0.8 -0.4) (layer F.Fab) (width 0.05))
  (fp_line (start 0.8 -0.4) (end 0.8 0.4) (layer F.Fab) (width 0.05))
  (fp_line (start 0.8 0.4) (end -0.8 0.4) (layer F.Fab) (width 0.05))
  (fp_line (start -0.8 0.4) (end -0.8 -0.4) (layer F.Fab) (width 0.05))
  (pad K smd roundrect (at -0.725 0) (size 0.6 0.8) (layers F.Cu F.Paste F.Mask) (roundrect_rratio 0.33))
  (pad A smd roundrect (at 0.725 0) (size 0.6 0.8) (layers F.Cu F.Paste F.Mask) (roundrect_rratio 0.33))
  (model ${KICAD6_3DMODEL_DIR}/Diode_SMD.3dshapes/D_SOD-523.wrl
    (at (xyz 0 0 0))
    (scale (xyz 1 1 1))
    (rotate (xyz 0 0 0))
  )
)
